%!PS-Adobe-3.0 EPSF-3.0
%%Creator: EpsGraphics2D 0.9.0 by Paul Mutton, http://www.jibble.org/
%%Title: GeoGebra, http://www.geogebra.org
%%CreationDate: Thu Jul 14 22:44:33 CEST 2011
%%BoundingBox: 0 0 224 189
%%DocumentData: Clean7Bit
%%DocumentProcessColors: Black
%%ColorUsage: Color
%%Origin: 0 0
%%Pages: 1
%%Page: 1 1
%%EndComments

gsave
-0.0 189.0 translate
1.0 setlinewidth
10.0 setmiterlimit
0 setlinejoin
2 setlinecap
[ ] 0 setdash
gsave
newpath
0.0 -0.0 moveto
224.42534 -0.0 lineto
224.42534 -189.70953 lineto
0.0 -189.70953 lineto
0.0 -0.0 lineto
closepath
clip
newpath
1.0 1.0 1.0 setrgbcolor
newpath
0.0 -0.0 moveto
224.42534 -0.0 lineto
224.42534 -189.70953 lineto
0.0 -189.70953 lineto
0.0 -0.0 lineto
closepath
fill
newpath
0.0 0.0 0.0 setrgbcolor
1.0 setlinewidth
10.0 setmiterlimit
0 setlinejoin
0 setlinecap
[ ] 0 setdash
newpath
0.0 -168.95349 moveto
224.42534 -168.95349 lineto
stroke
newpath
newpath
224.07466 -168.95349 moveto
223.02267 -167.9015 lineto
stroke
newpath
newpath
224.07466 -168.95349 moveto
223.02267 -170.0055 lineto
stroke
newpath
newpath
37.45497 -0.0 moveto
37.45497 -189.70953 lineto
stroke
newpath
newpath
37.45497 -0.0 moveto
36.402977 -1.0519937 lineto
stroke
newpath
newpath
37.45497 -0.0 moveto
38.506966 -1.0519937 lineto
stroke
newpath
1.0 0.0 0.0 setrgbcolor
2.0 setlinewidth
10.0 setmiterlimit
1 setlinejoin
1 setlinecap
[ ] 0 setdash
1.0 0.0 0.0 setrgbcolor
newpath
175.22162 -98.08736 moveto
175.22162 -129.08646 150.09187 -154.2162 119.092766 -154.2162 curveto
88.09366 -154.2162 62.96392 -129.08646 62.96392 -98.08736 curveto
62.96392 -67.08825 88.09366 -41.958508 119.092766 -41.958508 curveto
150.09187 -41.958508 175.22162 -67.08825 175.22162 -98.08736 curveto
closepath
stroke
newpath
0.0 0.0 0.0 setrgbcolor
1.0 setlinewidth
10.0 setmiterlimit
1 setlinejoin
1 setlinecap
[ ] 0 setdash
newpath
79.974655 -57.835384 moveto
119.092766 -98.08736 lineto
stroke
newpath
0.0 0.0 0.0 setrgbcolor
newpath
95.78554 -81.70485 moveto
95.78554 -79.47347 lineto
96.19031 -79.47347 lineto
96.19031 -79.892624 lineto
96.35057 -79.580315 96.583435 -79.42416 96.8889 -79.42416 curveto
96.92999 -79.42416 96.97314 -79.42758 97.01834 -79.43443 curveto
97.01834 -79.81249 lineto
96.94848 -79.78921 96.88684 -79.777565 96.83342 -79.777565 curveto
96.57727 -79.777565 96.3629 -79.92961 96.19031 -80.2337 curveto
96.19031 -81.70485 lineto
closepath
fill
newpath
0.0 0.0 0.0 setrgbcolor
1.0 setlinewidth
10.0 setmiterlimit
1 setlinejoin
1 setlinecap
[ ] 0 setdash
newpath
37.45497 -168.95349 moveto
60.892124 -168.95349 lineto
stroke
newpath
newpath
65.80143 -168.95349 moveto
60.892128 -170.18083 lineto
60.892128 -167.72617 lineto
closepath
fill
newpath
0.0 0.0 0.0 setrgbcolor
newpath
49.497814 -173.92963 moveto
49.497814 -171.69826 lineto
49.902584 -171.69826 lineto
49.902584 -173.92963 lineto
closepath
49.497814 -171.29349 moveto
49.497814 -170.88872 lineto
49.902584 -170.88872 lineto
49.902584 -171.29349 lineto
closepath
fill
newpath
0.0 0.0 0.0 setrgbcolor
1.0 setlinewidth
10.0 setmiterlimit
1 setlinejoin
1 setlinecap
[ ] 0 setdash
newpath
37.45497 -168.95349 moveto
37.45497 -145.51634 lineto
stroke
newpath
newpath
37.45497 -140.60704 moveto
38.6823 -145.51634 lineto
36.227646 -145.51634 lineto
closepath
fill
newpath
0.0 0.0 0.0 setrgbcolor
newpath
38.95801 -156.45325 moveto
38.95801 -156.13272 lineto
39.14704 -156.21217 39.29087 -156.25189 39.389496 -156.25189 curveto
39.53195 -156.25189 39.626465 -156.2149 39.67304 -156.14095 curveto
39.719612 -156.06697 39.7429 -155.91835 39.7429 -155.69507 curveto
39.7429 -153.4637 lineto
40.149723 -153.4637 lineto
40.149723 -155.69507 lineto
40.149723 -156.26901 39.907272 -156.55598 39.42237 -156.55598 curveto
39.278545 -156.55598 39.123756 -156.52174 38.95801 -156.45325 curveto
closepath
39.7429 -153.05893 moveto
39.7429 -152.65416 lineto
40.149723 -152.65416 lineto
40.149723 -153.05893 lineto
closepath
fill
newpath
0.0 0.0 1.0 setrgbcolor
newpath
120.14476 -98.08736 moveto
120.14476 -98.66835 119.67377 -99.13934 119.092766 -99.13934 curveto
118.511765 -99.13934 118.04077 -98.66835 118.04077 -98.08736 curveto
118.04077 -97.506355 118.511765 -97.03536 119.092766 -97.03536 curveto
119.67377 -97.03536 120.14476 -97.506355 120.14476 -98.08736 curveto
closepath
fill
newpath
0.0 0.0 0.0 setrgbcolor
1.0 setlinewidth
10.0 setmiterlimit
1 setlinejoin
1 setlinecap
[ ] 0 setdash
newpath
120.14476 -98.08736 moveto
120.14476 -98.66835 119.67377 -99.13934 119.092766 -99.13934 curveto
118.511765 -99.13934 118.04077 -98.66835 118.04077 -98.08736 curveto
118.04077 -97.506355 118.511765 -97.03536 119.092766 -97.03536 curveto
119.67377 -97.03536 120.14476 -97.506355 120.14476 -98.08736 curveto
closepath
stroke
newpath
0.0 0.0 1.0 setrgbcolor
newpath
81.02665 -57.835384 moveto
81.02665 -58.416386 80.55566 -58.88738 79.974655 -58.88738 curveto
79.393654 -58.88738 78.92266 -58.416386 78.92266 -57.835384 curveto
78.92266 -57.254383 79.393654 -56.78339 79.974655 -56.78339 curveto
80.55566 -56.78339 81.02665 -57.254383 81.02665 -57.835384 curveto
closepath
fill
newpath
0.0 0.0 0.0 setrgbcolor
1.0 setlinewidth
10.0 setmiterlimit
1 setlinejoin
1 setlinecap
[ ] 0 setdash
newpath
81.02665 -57.835384 moveto
81.02665 -58.416386 80.55566 -58.88738 79.974655 -58.88738 curveto
79.393654 -58.88738 78.92266 -58.416386 78.92266 -57.835384 curveto
78.92266 -57.254383 79.393654 -56.78339 79.974655 -56.78339 curveto
80.55566 -56.78339 81.02665 -57.254383 81.02665 -57.835384 curveto
closepath
stroke
newpath
0.0 0.0 0.0 setrgbcolor
newpath
65.61606 -50.4957 moveto
65.61606 -47.45478 lineto
66.21397 -47.45478 lineto
67.05638 -49.807384 lineto
67.923454 -47.45478 lineto
68.45767 -47.45478 lineto
68.45767 -50.4957 lineto
68.054955 -50.4957 lineto
68.054955 -48.02187 lineto
67.216644 -50.292286 lineto
66.799545 -50.292286 lineto
65.98589 -48.015705 lineto
65.98589 -50.4957 lineto
closepath
71.39586 -50.824448 moveto
71.39586 -51.103886 lineto
71.09998 -50.902527 70.86541 -50.62891 70.69213 -50.283043 curveto
70.51885 -49.937172 70.43221 -49.568356 70.43221 -49.176598 curveto
70.43221 -48.78621 70.51885 -48.41808 70.69213 -48.072212 curveto
70.86541 -47.72634 71.09998 -47.45273 71.39586 -47.25137 curveto
71.39586 -47.530804 lineto
71.194496 -47.74997 71.05101 -47.98557 70.9654 -48.23761 curveto
70.87979 -48.48965 70.83698 -48.802647 70.83698 -49.176598 curveto
70.83698 -49.551918 70.87979 -49.8656 70.9654 -50.11764 curveto
71.05101 -50.369682 71.194496 -50.60528 71.39586 -50.824448 curveto
closepath
71.80063 -50.4957 moveto
71.80063 -50.19161 lineto
73.181366 -48.568413 lineto
71.86433 -48.568413 lineto
71.86433 -48.264324 lineto
73.68066 -48.264324 lineto
73.68066 -48.568413 lineto
72.29991 -50.19161 lineto
73.70737 -50.19161 lineto
73.70737 -50.4957 lineto
closepath
74.11214 -50.824448 moveto
74.11214 -51.103886 lineto
74.40801 -50.902527 74.642586 -50.62891 74.815865 -50.283043 curveto
74.98914 -49.937172 75.07578 -49.568356 75.07578 -49.176598 curveto
75.07578 -48.78621 74.98914 -48.41808 74.815865 -48.072212 curveto
74.642586 -47.72634 74.40801 -47.45273 74.11214 -47.25137 curveto
74.11214 -47.530804 lineto
74.3135 -47.74997 74.456985 -47.98557 74.542595 -48.23761 curveto
74.628204 -48.48965 74.67101 -48.802647 74.67101 -49.176598 curveto
74.67101 -49.551918 74.628204 -49.8656 74.542595 -50.11764 curveto
74.456985 -50.369682 74.3135 -50.60528 74.11214 -50.824448 curveto
closepath
fill
newpath
0.0 0.0 0.8 setrgbcolor
newpath
126.74196 -102.043396 moveto
126.74196 -101.726974 lineto
127.57822 -101.726974 lineto
127.33302 -101.54205 127.14913 -101.3335 127.026535 -101.101326 curveto
126.90394 -100.86915 126.842636 -100.61334 126.842636 -100.3339 curveto
126.842636 -99.922966 126.97551 -99.585655 127.24125 -99.321976 curveto
127.50699 -99.0583 127.847374 -98.92645 128.26242 -98.92645 curveto
128.67746 -98.92645 129.01785 -99.05795 129.2836 -99.320946 curveto
129.54933 -99.58395 129.6822 -99.9216 129.6822 -100.3339 curveto
129.6822 -100.61471 129.62091 -100.8712 129.4983 -101.10338 curveto
129.3757 -101.335556 129.19182 -101.54342 128.94662 -101.726974 curveto
129.78288 -101.726974 lineto
129.78288 -102.043396 lineto
128.52953 -102.043396 lineto
128.52953 -101.726974 lineto
128.76102 -101.570816 128.93498 -101.37904 129.05142 -101.151665 curveto
129.16785 -100.92428 129.22606 -100.66128 129.22606 -100.36267 curveto
129.22606 -100.013374 129.1408 -99.73942 128.97026 -99.5408 curveto
128.79971 -99.342186 128.56377 -99.242874 128.26242 -99.242874 curveto
127.96244 -99.242874 127.72684 -99.342186 127.55561 -99.5408 curveto
127.384384 -99.73942 127.298775 -100.01406 127.298775 -100.36472 curveto
127.298775 -100.661964 127.356995 -100.923935 127.47343 -101.150635 curveto
127.58986 -101.377335 127.7645 -101.56945 127.99737 -101.726974 curveto
127.99737 -102.043396 lineto
closepath
132.48477 -102.37214 moveto
132.48477 -102.65158 lineto
132.1889 -102.45022 131.95433 -102.176605 131.78105 -101.830734 curveto
131.60777 -101.48486 131.52113 -101.11605 131.52113 -100.72429 curveto
131.52113 -100.3339 131.60777 -99.965775 131.78105 -99.6199 curveto
131.95433 -99.27403 132.1889 -99.00042 132.48477 -98.799065 curveto
132.48477 -99.0785 lineto
132.28342 -99.29766 132.13994 -99.533264 132.05432 -99.78531 curveto
131.9687 -100.037346 131.9259 -100.35034 131.9259 -100.72429 curveto
131.9259 -101.09961 131.9687 -101.41329 132.05432 -101.66534 curveto
132.13994 -101.91737 132.28342 -102.15298 132.48477 -102.37214 curveto
closepath
134.52507 -101.453705 moveto
134.43878 -101.66739 134.33365 -101.82765 134.20967 -101.934494 curveto
134.08571 -102.041336 133.94292 -102.09476 133.78128 -102.09476 curveto
133.5128 -102.09476 133.29295 -101.991 133.12173 -101.78348 curveto
132.95052 -101.57595 132.8649 -101.309875 132.8649 -100.98524 curveto
132.8649 -100.79484 132.89743 -100.59074 132.9625 -100.37294 curveto
133.02756 -100.15514 133.11145 -99.96817 133.21419 -99.81202 curveto
133.63539 -99.81202 lineto
133.52582 -99.96954 133.43506 -100.15549 133.36314 -100.36986 curveto
133.29123 -100.58423 133.25528 -100.776344 133.25528 -100.9462 curveto
133.25528 -101.1818 133.30493 -101.37699 133.40425 -101.53178 curveto
133.50356 -101.68656 133.62854 -101.763954 133.77922 -101.763954 curveto
133.91483 -101.763954 134.03297 -101.703 134.13365 -101.58109 curveto
134.23433 -101.45918 134.30316 -101.29412 134.34015 -101.085915 curveto
134.27577 -100.917435 134.24358 -100.74552 134.24358 -100.57019 curveto
134.24358 -100.378426 134.27577 -100.19761 134.34015 -100.027756 curveto
134.71205 -100.027756 lineto
134.77505 -100.19761 134.80656 -100.378426 134.80656 -100.57019 curveto
134.80656 -100.74552 134.77505 -100.917435 134.71205 -101.085915 curveto
134.74767 -101.29412 134.81581 -101.45918 134.91649 -101.58109 curveto
135.01717 -101.703 135.13531 -101.763954 135.27092 -101.763954 curveto
135.4216 -101.763954 135.54694 -101.68622 135.64693 -101.530754 curveto
135.74692 -101.37528 135.79692 -101.18043 135.79692 -100.9462 curveto
135.79692 -100.776344 135.76062 -100.58423 135.68802 -100.36986 curveto
135.61542 -100.15549 135.52432 -99.96954 135.41475 -99.81202 curveto
135.83595 -99.81202 lineto
135.93869 -99.96817 136.02258 -100.15514 136.08765 -100.37294 curveto
136.15271 -100.59074 136.18524 -100.79484 136.18524 -100.98524 curveto
136.18524 -101.31125 136.09964 -101.57767 135.92842 -101.78451 curveto
135.7572 -101.99134 135.53734 -102.09476 135.26886 -102.09476 curveto
135.10722 -102.09476 134.96443 -102.041336 134.84047 -101.934494 curveto
134.71649 -101.82765 134.61136 -101.66739 134.52507 -101.453705 curveto
closepath
136.56537 -102.37214 moveto
136.56537 -102.65158 lineto
136.86124 -102.45022 137.09581 -102.176605 137.26909 -101.830734 curveto
137.44237 -101.48486 137.529 -101.11605 137.529 -100.72429 curveto
137.529 -100.3339 137.44237 -99.965775 137.26909 -99.6199 curveto
137.09581 -99.27403 136.86124 -99.00042 136.56537 -98.799065 curveto
136.56537 -99.0785 lineto
136.76672 -99.29766 136.9102 -99.533264 136.99582 -99.78531 curveto
137.08144 -100.037346 137.12424 -100.35034 137.12424 -100.72429 curveto
137.12424 -101.09961 137.08144 -101.41329 136.99582 -101.66534 curveto
136.9102 -101.91737 136.76672 -102.15298 136.56537 -102.37214 curveto
closepath
fill
newpath
grestore
grestore
showpage

%%EOF