%!PS-Adobe-3.0 EPSF-3.0
%%Creator: EpsGraphics 1.0.0 by Thomas Abeel, http://www.sourceforge.net/epsgraphics/
%%Title: GeoGebra, http://www.geogebra.org/
%%CreationDate: Sun Feb 09 16:16:41 CET 2014
%%BoundingBox: 0 0 346 369
%%DocumentData: Clean7Bit
%%LanguageLevel: 2
%%DocumentProcessColors: Black
%%ColorUsage: Color
%%Origin: 0 0
%%Pages: 1
%%Page: 1 1
%%EndComments

gsave
0.0 369.0 translate
0.0 0.0 0.0 setrgbcolor
0.0 0.0 0.0 setrgbcolor
gsave
newpath
0.0 -0.0 moveto
346.4518088350995 -0.0 lineto
346.4518088350995 -369.7557421648147 lineto
0.0 -369.7557421648147 lineto
0.0 -0.0 lineto
closepath
clip
newpath
1.0 1.0 1.0 setrgbcolor
newpath
0.0 -0.0 moveto
346.4518088350995 -0.0 lineto
346.4518088350995 -369.7557421648147 lineto
0.0 -369.7557421648147 lineto
0.0 -0.0 lineto
closepath
fill
newpath
0.0 0.0 0.0 setrgbcolor
1.0 setlinewidth
10.0 setmiterlimit
0 setlinejoin
0 setlinecap
[ ] 0 setdash
newpath
44.095016166844104 -1.5535955553143475 moveto
44.095016166844104 -369.7557421648147 lineto
stroke
newpath
1.0 setlinewidth
10.0 setmiterlimit
0 setlinejoin
0 setlinecap
[ ] 0 setdash
newpath
44.483415055672694 -0.7767977776571737 moveto
41.76462283387258 -3.107191110628695 lineto
stroke
newpath
1.0 setlinewidth
10.0 setmiterlimit
0 setlinejoin
0 setlinecap
[ ] 0 setdash
newpath
43.706617278015514 -0.7767977776571737 moveto
46.42540949981562 -3.107191110628695 lineto
stroke
newpath
1.0 setlinewidth
10.0 setmiterlimit
0 setlinejoin
0 setlinecap
[ ] 0 setdash
newpath
0.0 -354.77175131802903 moveto
344.8982132797851 -354.77175131802903 lineto
stroke
newpath
1.0 setlinewidth
10.0 setmiterlimit
0 setlinejoin
0 setlinecap
[ ] 0 setdash
newpath
345.6750110574423 -355.1601502068576 moveto
343.34461772447077 -352.4413579850575 lineto
stroke
newpath
1.0 setlinewidth
10.0 setmiterlimit
0 setlinejoin
0 setlinecap
[ ] 0 setdash
newpath
345.6750110574423 -354.38335242920044 moveto
343.34461772447077 -357.1021446510006 lineto
stroke
newpath
1.0 setlinewidth
10.0 setmiterlimit
0 setlinejoin
0 setlinecap
[ ] 0 setdash
newpath
44.095016166844104 -354.77175131802903 moveto
44.095016166844104 -357.87894242865775 lineto
stroke
newpath
1.0 setlinewidth
10.0 setmiterlimit
0 setlinejoin
0 setlinecap
[ ] 0 setdash
newpath
100.78792955267086 -354.77175131802903 moveto
100.78792955267086 -357.87894242865775 lineto
stroke
newpath
1.0 setlinewidth
10.0 setmiterlimit
0 setlinejoin
0 setlinecap
[ ] 0 setdash
newpath
157.48084293849763 -354.77175131802903 moveto
157.48084293849763 -357.87894242865775 lineto
stroke
newpath
1.0 setlinewidth
10.0 setmiterlimit
0 setlinejoin
0 setlinecap
[ ] 0 setdash
newpath
214.17375632432442 -354.77175131802903 moveto
214.17375632432442 -357.87894242865775 lineto
stroke
newpath
1.0 setlinewidth
10.0 setmiterlimit
0 setlinejoin
0 setlinecap
[ ] 0 setdash
newpath
270.8666697101512 -354.77175131802903 moveto
270.8666697101512 -357.87894242865775 lineto
stroke
newpath
1.0 setlinewidth
10.0 setmiterlimit
0 setlinejoin
0 setlinecap
[ ] 0 setdash
newpath
327.559583095978 -354.77175131802903 moveto
327.559583095978 -357.87894242865775 lineto
stroke
newpath
1.0 setlinewidth
10.0 setmiterlimit
0 setlinejoin
0 setlinecap
[ ] 0 setdash
newpath
40.98782505621541 -354.77175131802903 moveto
44.095016166844104 -354.77175131802903 lineto
stroke
newpath
1.0 setlinewidth
10.0 setmiterlimit
0 setlinejoin
0 setlinecap
[ ] 0 setdash
newpath
40.98782505621541 -298.07883793220236 moveto
44.095016166844104 -298.07883793220236 lineto
stroke
newpath
1.0 setlinewidth
10.0 setmiterlimit
0 setlinejoin
0 setlinecap
[ ] 0 setdash
newpath
40.98782505621541 -241.3859245463757 moveto
44.095016166844104 -241.3859245463757 lineto
stroke
newpath
1.0 setlinewidth
10.0 setmiterlimit
0 setlinejoin
0 setlinecap
[ ] 0 setdash
newpath
40.98782505621541 -184.69301116054902 moveto
44.095016166844104 -184.69301116054902 lineto
stroke
newpath
1.0 setlinewidth
10.0 setmiterlimit
0 setlinejoin
0 setlinecap
[ ] 0 setdash
newpath
40.98782505621541 -128.00009777472232 moveto
44.095016166844104 -128.00009777472232 lineto
stroke
newpath
1.0 setlinewidth
10.0 setmiterlimit
0 setlinejoin
0 setlinecap
[ ] 0 setdash
newpath
40.98782505621541 -71.30718438889565 moveto
44.095016166844104 -71.30718438889565 lineto
stroke
newpath
1.0 setlinewidth
10.0 setmiterlimit
0 setlinejoin
0 setlinecap
[ ] 0 setdash
newpath
40.98782505621541 -14.61427100306896 moveto
44.095016166844104 -14.61427100306896 lineto
stroke
newpath
1.0 0.49803922 0.0 setrgbcolor
1.0 setlinewidth
10.0 setmiterlimit
0 setlinejoin
0 setlinecap
[ ] 0 setdash
newpath
100.78793520289163 -354.77175680988194 moveto
100.78793520289163 -214.58967489818824 lineto
122.04777240302784 -214.58967489818824 lineto
122.04777240302784 -354.77175680988194 lineto
122.04777240302784 -354.77175680988194 moveto
122.04777240302784 -197.98041893664885 lineto
143.30760960316402 -197.98041893664885 lineto
143.30760960316402 -354.77175680988194 lineto
143.30760960316402 -354.77175680988194 moveto
143.30760960316402 -177.38494201845972 lineto
164.56745865629367 -177.38494201845972 lineto
164.56745865629367 -354.77175680988194 lineto
164.56745865629367 -354.77175680988194 moveto
164.56745865629367 -152.80325599661435 lineto
185.82729585642986 -152.80325599661435 lineto
185.82729585642986 -354.77175680988194 lineto
185.82729585642986 -354.77175680988194 moveto
185.82729585642986 -124.23533716512581 lineto
207.08713305656607 -124.23533716512581 lineto
207.08713305656607 -354.77175680988194 lineto
207.08713305656607 -354.77175680988194 moveto
207.08713305656607 -91.68120922998098 lineto
228.34699396268914 -91.68120922998098 lineto
228.34699396268914 -354.77175680988194 lineto
228.34699396268914 -354.77175680988194 moveto
228.34699396268914 -55.14085441168973 lineto
249.60683116282533 -55.14085441168973 lineto
249.60683116282533 -354.77175680988194 lineto
249.60683116282533 -354.77175680988194 moveto
249.60683116282533 -14.614280118372937 lineto
270.86666836296155 -14.614280118372937 lineto
270.86666836296155 -354.77175680988194 lineto
100.78793520289163 -354.77175680988194 lineto
fill
newpath
1.0 0.49803922 0.0 setrgbcolor
1.0 setlinewidth
10.0 setmiterlimit
1 setlinejoin
1 setlinecap
[ ] 0 setdash
newpath
100.78793520289163 -354.77175680988194 moveto
100.78793520289163 -214.58967489818824 lineto
122.04777240302784 -214.58967489818824 lineto
122.04777240302784 -354.77175680988194 lineto
122.04777240302784 -354.77175680988194 moveto
122.04777240302784 -197.98041893664885 lineto
143.30760960316402 -197.98041893664885 lineto
143.30760960316402 -354.77175680988194 lineto
143.30760960316402 -354.77175680988194 moveto
143.30760960316402 -177.38494201845972 lineto
164.56745865629367 -177.38494201845972 lineto
164.56745865629367 -354.77175680988194 lineto
164.56745865629367 -354.77175680988194 moveto
164.56745865629367 -152.80325599661435 lineto
185.82729585642986 -152.80325599661435 lineto
185.82729585642986 -354.77175680988194 lineto
185.82729585642986 -354.77175680988194 moveto
185.82729585642986 -124.23533716512581 lineto
207.08713305656607 -124.23533716512581 lineto
207.08713305656607 -354.77175680988194 lineto
207.08713305656607 -354.77175680988194 moveto
207.08713305656607 -91.68120922998098 lineto
228.34699396268914 -91.68120922998098 lineto
228.34699396268914 -354.77175680988194 lineto
228.34699396268914 -354.77175680988194 moveto
228.34699396268914 -55.14085441168973 lineto
249.60683116282533 -55.14085441168973 lineto
249.60683116282533 -354.77175680988194 lineto
249.60683116282533 -354.77175680988194 moveto
249.60683116282533 -14.614280118372937 lineto
270.86666836296155 -14.614280118372937 lineto
270.86666836296155 -354.77175680988194 lineto
100.78793520289163 -354.77175680988194 lineto
stroke
newpath
0.49803922 0.0 1.0 setrgbcolor
1.0 setlinewidth
10.0 setmiterlimit
1 setlinejoin
1 setlinecap
[ ] 0 setdash
newpath
100.78793520289163 -354.77175680988194 moveto
100.78793520289163 -227.21268619709105 lineto
122.04777240302784 -227.21268619709105 lineto
122.04777240302784 -354.77175680988194 lineto
122.04777240302784 -354.77175680988194 moveto
122.04777240302784 -214.58967489818824 lineto
143.30760960316402 -214.58967489818824 lineto
143.30760960316402 -354.77175680988194 lineto
143.30760960316402 -354.77175680988194 moveto
143.30760960316402 -197.98040708365542 lineto
164.56745865629367 -197.98040708365542 lineto
164.56745865629367 -354.77175680988194 lineto
164.56745865629367 -354.77175680988194 moveto
164.56745865629367 -177.38494201845972 lineto
185.82729585642986 -177.38494201845972 lineto
185.82729585642986 -354.77175680988194 lineto
185.82729585642986 -354.77175680988194 moveto
185.82729585642986 -152.8032441436209 lineto
207.08713305656607 -152.8032441436209 lineto
207.08713305656607 -354.77175680988194 lineto
207.08713305656607 -354.77175680988194 moveto
207.08713305656607 -124.23533716512581 lineto
228.34699396268914 -124.23533716512581 lineto
228.34699396268914 -354.77175680988194 lineto
228.34699396268914 -354.77175680988194 moveto
228.34699396268914 -91.68119737698756 lineto
249.60683116282533 -91.68119737698756 lineto
249.60683116282533 -354.77175680988194 lineto
249.60683116282533 -354.77175680988194 moveto
249.60683116282533 -55.14084848519301 lineto
270.86666836296155 -55.14084848519301 lineto
270.86666836296155 -354.77175680988194 lineto
100.78793520289163 -354.77175680988194 lineto
fill
newpath
0.49803922 0.0 1.0 setrgbcolor
1.0 setlinewidth
10.0 setmiterlimit
1 setlinejoin
1 setlinecap
[ ] 0 setdash
newpath
100.78793520289163 -354.77175680988194 moveto
100.78793520289163 -227.21268619709105 lineto
122.04777240302784 -227.21268619709105 lineto
122.04777240302784 -354.77175680988194 lineto
122.04777240302784 -354.77175680988194 moveto
122.04777240302784 -214.58967489818824 lineto
143.30760960316402 -214.58967489818824 lineto
143.30760960316402 -354.77175680988194 lineto
143.30760960316402 -354.77175680988194 moveto
143.30760960316402 -197.98040708365542 lineto
164.56745865629367 -197.98040708365542 lineto
164.56745865629367 -354.77175680988194 lineto
164.56745865629367 -354.77175680988194 moveto
164.56745865629367 -177.38494201845972 lineto
185.82729585642986 -177.38494201845972 lineto
185.82729585642986 -354.77175680988194 lineto
185.82729585642986 -354.77175680988194 moveto
185.82729585642986 -152.8032441436209 lineto
207.08713305656607 -152.8032441436209 lineto
207.08713305656607 -354.77175680988194 lineto
207.08713305656607 -354.77175680988194 moveto
207.08713305656607 -124.23533716512581 lineto
228.34699396268914 -124.23533716512581 lineto
228.34699396268914 -354.77175680988194 lineto
228.34699396268914 -354.77175680988194 moveto
228.34699396268914 -91.68119737698756 lineto
249.60683116282533 -91.68119737698756 lineto
249.60683116282533 -354.77175680988194 lineto
249.60683116282533 -354.77175680988194 moveto
249.60683116282533 -55.14084848519301 lineto
270.86666836296155 -55.14084848519301 lineto
270.86666836296155 -354.77175680988194 lineto
100.78793520289163 -354.77175680988194 lineto
stroke
newpath
0.0 0.0 0.0 setrgbcolor
1.0 setlinewidth
10.0 setmiterlimit
1 setlinejoin
1 setlinecap
[ ] 0 setdash
newpath
44.095017235288836 -241.38592680117307 moveto
45.86666934755073 -241.37208250484278 lineto
47.63832442306099 -241.33054961585182 lineto
49.40997653532289 -241.2613518401871 lineto
51.18162864758479 -241.16446547186177 lineto
52.95328372309504 -241.03989051087578 lineto
54.724938798605294 -240.88765066321605 lineto
56.496593874115554 -240.70772222289568 lineto
58.26824302312909 -240.50010518991468 lineto
60.03989809863935 -240.26479956427303 lineto
61.8115531741496 -240.00182905195763 lineto
63.58320232316314 -239.7111699469816 lineto
65.35485739867339 -239.39282224934493 lineto
67.12651247418366 -239.04678595904764 lineto
68.89816754969391 -238.6730847820766 lineto
70.66981669870745 -238.2716950124449 lineto
72.4414717742177 -237.84261665015256 lineto
74.21312684972796 -237.38587340118647 lineto
75.98478192523821 -236.9014178535729 lineto
77.75643107425175 -236.38929741928555 lineto
79.528086149762 -235.84951209832442 lineto
81.29974122527226 -235.2820144787158 lineto
83.07139630078251 -234.68685197243343 lineto
84.84304544979605 -234.06400087349041 lineto
86.6147005253063 -233.41348488787364 lineto
88.38635560081657 -232.73528030959625 lineto
90.15801067632682 -232.0293871386582 lineto
91.92965982534037 -231.29580537505953 lineto
93.70131490085062 -230.53453501880023 lineto
95.47296997636087 -229.74559977586716 lineto
97.24462505187113 -228.92897594027346 lineto
99.01627420088467 -228.084687218006 lineto
100.78793520289163 -227.21268619709105 lineto
102.55957842540846 -226.3130202895023 lineto
104.33123350091871 -225.38568949523983 lineto
106.10288857642897 -224.43064640232984 lineto
107.87454365193922 -223.44793842274606 lineto
109.64619872744949 -222.4375418505017 lineto
111.41785380295974 -221.39945668559668 lineto
113.18950887847 -220.3337066340179 lineto
114.96115210098681 -219.2402442837916 lineto
116.73280717649708 -218.11914075287842 lineto
118.50446225200733 -216.97032492331775 lineto
120.27611732751758 -215.7938442070833 lineto
122.04777240302784 -214.58967489818824 lineto
123.81942747853809 -213.35781699663252 lineto
125.59108255404834 -212.0982705024162 lineto
127.3627376295586 -210.81105912152609 lineto
129.13438085207542 -209.49615914797536 lineto
130.9060359275857 -208.153570581764 lineto
132.67769100309593 -206.78331712887885 lineto
134.4493460786062 -205.3853750833331 lineto
136.22100115411644 -203.9597444451267 lineto
137.9926562296267 -202.50642521425968 lineto
139.76431130513694 -201.02544109671888 lineto
141.5359663806472 -199.51676838651747 lineto
143.30760960316402 -197.98040708365542 lineto
145.0792646786743 -196.41636904112616 lineto
146.85091975418453 -194.8246542589297 lineto
148.6225748296948 -193.20525088407263 lineto
150.39422990520507 -191.55817076954835 lineto
152.1658849807153 -189.88340206236344 lineto
153.93754005622557 -188.18095661551132 lineto
155.7091951317358 -186.4508225759986 lineto
157.48083835425265 -184.69301179681864 lineto
159.2524934297629 -182.90751242497808 lineto
161.02414850527316 -181.0943363134703 lineto
162.7958035807834 -179.25348346229532 lineto
164.56745865629367 -177.38494201845972 lineto
166.33911373180393 -175.48871198196352 lineto
168.11076880731417 -173.56481705879352 lineto
169.882412029831 -171.61322168996944 lineto
171.65406710534126 -169.63396143447162 lineto
173.42572218085152 -167.62700073331973 lineto
175.19737725636176 -165.5923751454941 lineto
176.96903233187203 -163.53006096500778 lineto
178.74068740738227 -161.44005819186086 lineto
180.51234248289254 -159.32237867904675 lineto
182.28399755840277 -157.17702242656543 lineto
184.05564078091962 -155.0039775814235 lineto
185.82729585642986 -152.8032441436209 lineto
187.59895093194012 -150.57483396615115 lineto
189.37060600745036 -148.31874704901415 lineto
191.14226108296063 -146.03497153921654 lineto
192.9139161584709 -143.72351928975175 lineto
194.68557123398114 -141.38439030061974 lineto
196.4572263094914 -139.01757271882713 lineto
198.22886953200822 -136.62306654437384 lineto
200.0005364605119 -134.20088363025337 lineto
201.77217968302872 -131.75102397646572 lineto
203.54384661153242 -129.27347573001742 lineto
205.31548983404923 -126.76825074390193 lineto
207.08713305656607 -124.23533716512581 lineto
208.85879998506974 -121.67474684668248 lineto
210.63044320758658 -119.08646793557853 lineto
212.40211013609027 -116.47051228480738 lineto
214.1737533586071 -113.82686804137559 lineto
215.94542028711078 -111.15554705827661 lineto
217.7170635096276 -108.45654933551043 lineto
219.4887067321444 -105.72986302008361 lineto
221.2603736606481 -102.97548811199617 lineto
223.0320168831649 -100.19343646424153 lineto
224.8036838116686 -97.38370807681969 lineto
226.57532703418545 -94.54629702323393 lineto
228.34699396268914 -91.68119737698756 lineto
230.11863718520596 -88.78842099107396 lineto
231.89028040772277 -85.86796193899647 lineto
233.66194733622646 -82.91982022075506 lineto
235.43359055874328 -79.94399583634973 lineto
237.20525748724697 -76.94048878578047 lineto
238.97690070976378 -73.90929906904732 lineto
240.74856763826747 -70.85043261264696 lineto
242.5202108607843 -67.76387756358596 lineto
244.29187778928798 -64.64963984836106 lineto
246.06352101180482 -61.50772539346896 lineto
247.83516423432164 -58.338128272412945 lineto
249.60683116282533 -55.14084848519301 lineto
251.37847438534214 -51.915880105312446 lineto
253.15014131384584 -48.663237949013045 lineto
254.92178453636265 -45.38291016330137 lineto
256.69345146486637 -42.07489971142577 lineto
258.46509468738316 -38.73920955663463 lineto
260.2367379099 -35.37583673567956 lineto
262.0084048384037 -31.984781248560584 lineto
263.7800480609205 -28.56604309527769 lineto
265.55171498942417 -25.11962227583088 lineto
267.323358211941 -21.645520271844337 lineto
269.0950251404447 -18.143737083318058 lineto
270.86666836296155 -14.614271228627862 lineto
stroke
newpath
grestore
grestore
showpage

%%EOF