%!PS
%%BoundingBox: -125 -125 125 125 
%%HiResBoundingBox: -124.26573 -124.26573 124.26573 124.26573 
%%Creator: MetaPost 2.000
%%CreationDate: 2018.02.20:1432
%%Pages: 1
%*Font: cmmi5 4.98132 4.98132 19:80000000400008
%*Font: cmr5 4.98132 4.98132 28:c0ec
%*Font: cmex7 4.98137 6.97385 10:c
%*Font: cmr10 9.96265 9.96265 31:8
%*Font: cmsy5 4.98132 4.98132 00:8
%%BeginProlog
%%EndProlog
%%Page: 1 1
 0 0 0 setrgbcolor 0 2 dtransform truncate idtransform setlinewidth pop
 [] 0 setdash 1 setlinecap 1 setlinejoin 10 setmiterlimit
newpath 99.21259 0 moveto
99.16718 0 lineto
99.12175 0 99.07634 0.00302 99.03091 0.00455 curveto
98.80385 0.01363 lineto
98.69788 0.01817 98.59341 0.02574 98.48744 0.03331 curveto
98.08627 0.0651 lineto
97.92126 0.08023 97.75624 0.09537 97.59123 0.11354 curveto
97.39897 0.13474 97.2052 0.15593 97.01294 0.18015 curveto
96.7889 0.2074 96.56483 0.23616 96.3423 0.26796 curveto
96.09251 0.30278 95.84273 0.34062 95.59294 0.37997 curveto
95.31439 0.42389 95.03583 0.47081 94.75728 0.51926 curveto
94.453 0.57224 94.14871 0.62976 93.84442 0.68881 curveto
93.5129 0.7539 93.18135 0.82202 92.84982 0.89166 curveto
92.49103 0.96736 92.13376 1.04759 91.77649 1.12935 curveto
91.39348 1.21715 91.01198 1.3095 90.6305 1.40486 curveto
90.22327 1.5063 89.81755 1.61075 89.41335 1.71974 curveto
88.98189 1.83481 88.55196 1.95439 88.12202 2.07703 curveto
87.66937 2.20721 87.21672 2.34195 86.7656 2.4797 curveto
86.29024 2.62505 85.8164 2.77492 85.34409 2.92781 curveto
84.84904 3.08829 84.35704 3.2533 83.86504 3.42285 curveto
83.35033 3.59998 82.8356 3.78314 82.32391 3.96935 curveto
81.78952 4.16313 81.25816 4.36296 80.72679 4.56581 curveto
80.17575 4.77776 79.62622 4.99423 79.07971 5.21526 curveto
78.51201 5.44537 77.94583 5.6785 77.38115 5.9177 curveto
76.79831 6.16446 76.2185 6.41878 75.64021 6.67615 curveto
75.04375 6.94258 74.45032 7.21356 73.8584 7.48909 curveto
73.2483 7.7737 72.63972 8.06284 72.03418 8.35805 curveto
71.4135 8.66081 70.79585 8.97116 70.1797 9.28453 curveto
69.54842 9.60698 68.92017 9.93398 68.29343 10.26552 curveto
67.65155 10.60612 67.0127 10.9513 66.37688 11.30402 curveto
65.72743 11.66432 65.08252 12.03067 64.44064 12.40158 curveto
63.78514 12.78004 63.13115 13.16457 62.4817 13.55513 curveto
61.82166 13.95177 61.16464 14.35597 60.51065 14.76471 curveto
59.84456 15.18103 59.183 15.60188 58.52446 16.0288 curveto
57.85533 16.46176 57.19075 16.9023 56.5307 17.34737 curveto
55.86006 17.80002 55.19397 18.2572 54.53241 18.72195 curveto
53.86177 19.19125 53.19566 19.66661 52.5341 20.14801 curveto
51.86346 20.63548 51.19736 21.12749 50.53581 21.62555 curveto
49.8682 22.12814 49.20512 22.63832 48.54659 23.15303 curveto
47.882 23.67229 47.22195 24.1976 46.56645 24.72745 curveto
45.90489 25.26337 45.24939 25.80382 44.59692 26.35031 curveto
43.94293 26.89833 43.29349 27.45392 42.65009 28.01405 curveto
42.00215 28.57872 41.35876 29.14793 40.71991 29.7232 curveto
40.07803 30.29999 39.44221 30.88283 38.81093 31.4702 curveto
38.17813 32.06061 37.55139 32.65556 36.9292 33.25656 curveto
36.30699 33.85909 35.68935 34.46614 35.07774 35.07774 curveto
34.46614 35.68935 33.85756 36.30699 33.25656 36.9292 curveto
32.65556 37.55139 32.0591 38.17813 31.4702 38.81093 curveto
30.88283 39.44221 30.29999 40.07954 29.7232 40.71991 curveto
29.14793 41.35876 28.57872 42.00215 28.01405 42.65009 curveto
27.45392 43.29349 26.89833 43.94293 26.35031 44.59692 curveto
25.80382 45.24939 25.26337 45.90489 24.72745 46.56645 curveto
24.1976 47.22195 23.67229 47.882 23.15303 48.54659 curveto
22.63832 49.20512 22.12814 49.8682 21.62555 50.53581 curveto
21.12749 51.19736 20.63548 51.86346 20.14801 52.5341 curveto
19.66661 53.19566 19.19125 53.86177 18.72195 54.53241 curveto
18.2572 55.19397 17.80002 55.86006 17.34737 56.5307 curveto
16.9023 57.19075 16.46176 57.85533 16.0288 58.52446 curveto
15.60188 59.183 15.18103 59.84456 14.76471 60.51065 curveto
14.35597 61.16464 13.95177 61.82014 13.55513 62.4817 curveto
13.16457 63.13115 12.78004 63.78514 12.40158 64.44064 curveto
12.03067 65.08252 11.66432 65.72743 11.30402 66.37688 curveto
10.9513 67.0127 10.60612 67.65155 10.26552 68.29343 curveto
9.93398 68.92017 9.60698 69.54842 9.28453 70.1797 curveto
8.97116 70.79585 8.66081 71.4135 8.35805 72.03418 curveto
8.06284 72.63972 7.7737 73.2483 7.48909 73.8584 curveto
7.21356 74.45032 6.94258 75.04375 6.67615 75.64021 curveto
6.41878 76.2185 6.16446 76.79831 5.9177 77.38115 curveto
5.6785 77.94583 5.44385 78.51201 5.21526 79.07971 curveto
4.99423 79.62622 4.77776 80.17575 4.56581 80.72679 curveto
4.36296 81.25816 4.16313 81.78952 3.96935 82.32391 curveto
3.78314 82.8356 3.59998 83.35033 3.42285 83.86504 curveto
3.2533 84.35704 3.08829 84.84904 2.92781 85.34409 curveto
2.77492 85.8164 2.62505 86.29024 2.4797 86.7656 curveto
2.34195 87.21672 2.20721 87.66786 2.07703 88.12202 curveto
1.95439 88.55196 1.83481 88.98189 1.71974 89.41335 curveto
1.61075 89.81755 1.5063 90.22327 1.40486 90.6305 curveto
1.3095 91.01198 1.21715 91.39348 1.12935 91.77649 curveto
1.04759 92.13376 0.96736 92.49103 0.89166 92.84982 curveto
0.82202 93.18135 0.7539 93.5129 0.68881 93.84442 curveto
0.62976 94.14871 0.57224 94.453 0.51926 94.75728 curveto
0.47081 95.03583 0.42389 95.31439 0.37997 95.59294 curveto
0.34062 95.84273 0.30278 96.09251 0.26796 96.3423 curveto
0.23616 96.56483 0.2074 96.7889 0.18015 97.01294 curveto
0.15593 97.2052 0.13474 97.39897 0.11354 97.59123 curveto
0.09537 97.75624 0.07872 97.92126 0.0651 98.08627 curveto
0.0545 98.2195 0.04541 98.35422 0.03331 98.48744 curveto
0.02422 98.59341 0.01212 98.69788 0.01363 98.80385 curveto
0.01514 98.87953 0.0227 98.95674 0.00455 99.03091 curveto
-0.00757 99.07785 -0.02725 99.1278 0 99.16718 curveto
0.01514 99.18837 0.01665 99.21259 0 99.21259 curveto
-0.01665 99.21259 -0.01514 99.18837 0 99.16718 curveto
0.02725 99.1278 0.00757 99.07785 -0.00455 99.03091 curveto
-0.0227 98.95674 -0.01514 98.87953 -0.01363 98.80385 curveto
-0.01212 98.69788 -0.02422 98.59341 -0.03331 98.48744 curveto
-0.04541 98.35422 -0.0545 98.2195 -0.0651 98.08627 curveto
-0.07872 97.92126 -0.09537 97.75624 -0.11354 97.59123 curveto
-0.13474 97.39897 -0.15593 97.2052 -0.18015 97.01294 curveto
-0.2074 96.7889 -0.23616 96.56483 -0.26796 96.3423 curveto
-0.30278 96.09251 -0.34062 95.84273 -0.37997 95.59294 curveto
-0.42389 95.31439 -0.47081 95.03583 -0.51926 94.75728 curveto
-0.57224 94.453 -0.62976 94.14871 -0.68881 93.84442 curveto
-0.7539 93.5129 -0.82202 93.18135 -0.89166 92.84982 curveto
-0.96736 92.49103 -1.04759 92.13376 -1.12935 91.77649 curveto
-1.21715 91.39348 -1.3095 91.01198 -1.40486 90.6305 curveto
-1.5063 90.22327 -1.61075 89.81755 -1.71974 89.41335 curveto
-1.83481 88.98189 -1.95439 88.55196 -2.07703 88.12202 curveto
-2.20721 87.66937 -2.34195 87.21672 -2.4797 86.7656 curveto
-2.62505 86.29024 -2.77492 85.8164 -2.92781 85.34409 curveto
-3.08829 84.84904 -3.2533 84.35704 -3.42285 83.86504 curveto
-3.59998 83.35033 -3.78314 82.8356 -3.96935 82.32391 curveto
-4.16313 81.78952 -4.36296 81.25816 -4.56581 80.72679 curveto
-4.77776 80.17575 -4.99423 79.62622 -5.21526 79.07971 curveto
-5.44537 78.51201 -5.6785 77.94583 -5.9177 77.38115 curveto
-6.16446 76.79831 -6.41878 76.2185 -6.67615 75.64021 curveto
-6.94258 75.04375 -7.21356 74.45032 -7.48909 73.8584 curveto
-7.7737 73.2483 -8.06284 72.63972 -8.35805 72.03418 curveto
-8.66081 71.4135 -8.97116 70.79585 -9.28453 70.1797 curveto
-9.60698 69.54842 -9.93398 68.92017 -10.26552 68.29343 curveto
-10.60612 67.65155 -10.9513 67.0127 -11.30402 66.37688 curveto
-11.66432 65.72743 -12.03067 65.08252 -12.40158 64.44064 curveto
-12.78004 63.78514 -13.16457 63.13115 -13.55513 62.4817 curveto
-13.95177 61.82166 -14.35597 61.16464 -14.76471 60.51065 curveto
-15.18103 59.84456 -15.60188 59.183 -16.0288 58.52446 curveto
-16.46176 57.85533 -16.9023 57.19075 -17.34737 56.5307 curveto
-17.80002 55.86006 -18.2572 55.19397 -18.72195 54.53241 curveto
-19.19125 53.86177 -19.66661 53.19566 -20.14801 52.5341 curveto
-20.63548 51.86346 -21.12749 51.19736 -21.62555 50.53581 curveto
-22.12814 49.8682 -22.63832 49.20512 -23.15303 48.54659 curveto
-23.67229 47.882 -24.1976 47.22195 -24.72745 46.56645 curveto
-25.26337 45.90489 -25.80382 45.24939 -26.35031 44.59692 curveto
-26.89833 43.94293 -27.45392 43.29349 -28.01405 42.65009 curveto
-28.57872 42.00215 -29.14793 41.35876 -29.7232 40.71991 curveto
-30.29999 40.07803 -30.88283 39.44221 -31.4702 38.81093 curveto
-32.06061 38.17813 -32.65556 37.55139 -33.25656 36.9292 curveto
-33.85909 36.30699 -34.46614 35.68935 -35.07774 35.07774 curveto
-35.68935 34.46614 -36.30699 33.85756 -36.9292 33.25656 curveto
-37.55139 32.65556 -38.17813 32.0591 -38.81093 31.4702 curveto
-39.44221 30.88283 -40.07954 30.29999 -40.71991 29.7232 curveto
-41.35876 29.14793 -42.00215 28.57872 -42.65009 28.01405 curveto
-43.29349 27.45392 -43.94293 26.89833 -44.59692 26.35031 curveto
-45.24939 25.80382 -45.90489 25.26337 -46.56645 24.72745 curveto
-47.22195 24.1976 -47.882 23.67229 -48.54659 23.15303 curveto
-49.20512 22.63832 -49.8682 22.12814 -50.53581 21.62555 curveto
-51.19736 21.12749 -51.86346 20.63548 -52.5341 20.14801 curveto
-53.19566 19.66661 -53.86177 19.19125 -54.53241 18.72195 curveto
-55.19397 18.2572 -55.86006 17.80002 -56.5307 17.34737 curveto
-57.19075 16.9023 -57.85533 16.46176 -58.52446 16.0288 curveto
-59.183 15.60188 -59.84456 15.18103 -60.51065 14.76471 curveto
-61.16464 14.35597 -61.82014 13.95177 -62.4817 13.55513 curveto
-63.13115 13.16457 -63.78514 12.78004 -64.44064 12.40158 curveto
-65.08252 12.03067 -65.72743 11.66432 -66.37688 11.30402 curveto
-67.0127 10.9513 -67.65155 10.60612 -68.29343 10.26552 curveto
-68.92017 9.93398 -69.54842 9.60698 -70.1797 9.28453 curveto
-70.79585 8.97116 -71.4135 8.66081 -72.03418 8.35805 curveto
-72.63972 8.06284 -73.2483 7.7737 -73.8584 7.48909 curveto
-74.45032 7.21356 -75.04375 6.94258 -75.64021 6.67615 curveto
-76.2185 6.41878 -76.79831 6.16446 -77.38115 5.9177 curveto
-77.94583 5.6785 -78.51201 5.44385 -79.07971 5.21526 curveto
-79.62622 4.99423 -80.17575 4.77776 -80.72679 4.56581 curveto
-81.25816 4.36296 -81.78952 4.16313 -82.32391 3.96935 curveto
-82.8356 3.78314 -83.35033 3.59998 -83.86504 3.42285 curveto
-84.35704 3.2533 -84.84904 3.08829 -85.34409 2.92781 curveto
-85.8164 2.77492 -86.29024 2.62505 -86.7656 2.4797 curveto
-87.21672 2.34195 -87.66786 2.20721 -88.12202 2.07703 curveto
-88.55196 1.95439 -88.98189 1.83481 -89.41335 1.71974 curveto
-89.81755 1.61075 -90.22327 1.5063 -90.6305 1.40486 curveto
-91.01198 1.3095 -91.39348 1.21715 -91.77649 1.12935 curveto
-92.13376 1.04759 -92.49103 0.96736 -92.84982 0.89166 curveto
-93.18135 0.82202 -93.5129 0.7539 -93.84442 0.68881 curveto
-94.14871 0.62976 -94.453 0.57224 -94.75728 0.51926 curveto
-95.03583 0.47081 -95.31439 0.42389 -95.59294 0.37997 curveto
-95.84273 0.34062 -96.09251 0.30278 -96.3423 0.26796 curveto
-96.56483 0.23616 -96.7889 0.2074 -97.01294 0.18015 curveto
-97.2052 0.15593 -97.39897 0.13474 -97.59123 0.11354 curveto
-97.75624 0.09537 -97.92126 0.07872 -98.08627 0.0651 curveto
-98.2195 0.0545 -98.35422 0.04541 -98.48744 0.03331 curveto
-98.59341 0.02422 -98.69788 0.01212 -98.80385 0.01363 curveto
-98.87953 0.01514 -98.95674 0.0227 -99.03091 0.00455 curveto
-99.07785 -0.00757 -99.1278 -0.02725 -99.16718 0 curveto
-99.18837 0.01514 -99.21259 0.01665 -99.21259 0 curveto
-99.21259 -0.01665 -99.18837 -0.01514 -99.16718 0 curveto
-99.1278 0.02725 -99.07785 0.00757 -99.03091 -0.00455 curveto
-98.95674 -0.0227 -98.87953 -0.01514 -98.80385 -0.01363 curveto
-98.69788 -0.01212 -98.59341 -0.02422 -98.48744 -0.03331 curveto
-98.35422 -0.04541 -98.2195 -0.0545 -98.08627 -0.0651 curveto
-97.92126 -0.07872 -97.75624 -0.09537 -97.59123 -0.11354 curveto
-97.39897 -0.13474 -97.2052 -0.15593 -97.01294 -0.18015 curveto
-96.7889 -0.2074 -96.56483 -0.23616 -96.3423 -0.26796 curveto
-96.09251 -0.30278 -95.84273 -0.34062 -95.59294 -0.37997 curveto
-95.31439 -0.42389 -95.03583 -0.47081 -94.75728 -0.51926 curveto
-94.453 -0.57224 -94.14871 -0.62976 -93.84442 -0.68881 curveto
-93.5129 -0.7539 -93.18135 -0.82202 -92.84982 -0.89166 curveto
-92.49103 -0.96736 -92.13376 -1.04759 -91.77649 -1.12935 curveto
-91.39348 -1.21715 -91.01198 -1.3095 -90.6305 -1.40486 curveto
-90.22327 -1.5063 -89.81755 -1.61075 -89.41335 -1.71974 curveto
-88.98189 -1.83481 -88.55196 -1.95439 -88.12202 -2.07703 curveto
-87.66937 -2.20721 -87.21672 -2.34195 -86.7656 -2.4797 curveto
-86.29024 -2.62505 -85.8164 -2.77492 -85.34409 -2.92781 curveto
-84.84904 -3.08829 -84.35704 -3.2533 -83.86504 -3.42285 curveto
-83.35033 -3.59998 -82.8356 -3.78314 -82.32391 -3.96935 curveto
-81.78952 -4.16313 -81.25816 -4.36296 -80.72679 -4.56581 curveto
-80.17575 -4.77776 -79.62622 -4.99423 -79.07971 -5.21526 curveto
-78.51201 -5.44537 -77.94583 -5.6785 -77.38115 -5.9177 curveto
-76.79831 -6.16446 -76.2185 -6.41878 -75.64021 -6.67615 curveto
-75.04375 -6.94258 -74.45032 -7.21356 -73.8584 -7.48909 curveto
-73.2483 -7.7737 -72.63972 -8.06284 -72.03418 -8.35805 curveto
-71.4135 -8.66081 -70.79585 -8.97116 -70.1797 -9.28453 curveto
-69.54842 -9.60698 -68.92017 -9.93398 -68.29343 -10.26552 curveto
-67.65155 -10.60612 -67.0127 -10.9513 -66.37688 -11.30402 curveto
-65.72743 -11.66432 -65.08252 -12.03067 -64.44064 -12.40158 curveto
-63.78514 -12.78004 -63.13115 -13.16457 -62.4817 -13.55513 curveto
-61.82166 -13.95177 -61.16464 -14.35597 -60.51065 -14.76471 curveto
-59.84456 -15.18103 -59.183 -15.60188 -58.52446 -16.0288 curveto
-57.85533 -16.46176 -57.19075 -16.9023 -56.5307 -17.34737 curveto
-55.86006 -17.80002 -55.19397 -18.2572 -54.53241 -18.72195 curveto
-53.86177 -19.19125 -53.19566 -19.66661 -52.5341 -20.14801 curveto
-51.86346 -20.63548 -51.19736 -21.12749 -50.53581 -21.62555 curveto
-49.8682 -22.12814 -49.20512 -22.63832 -48.54659 -23.15303 curveto
-47.882 -23.67229 -47.22195 -24.1976 -46.56645 -24.72745 curveto
-45.90489 -25.26337 -45.24939 -25.80382 -44.59692 -26.35031 curveto
-43.94293 -26.89833 -43.29349 -27.45392 -42.65009 -28.01405 curveto
-42.00215 -28.57872 -41.35876 -29.14793 -40.71991 -29.7232 curveto
-40.07803 -30.29999 -39.44221 -30.88283 -38.81093 -31.4702 curveto
-38.17813 -32.06061 -37.55139 -32.65556 -36.9292 -33.25656 curveto
-36.30699 -33.85909 -35.68935 -34.46614 -35.07774 -35.07774 curveto
-34.46614 -35.68935 -33.85756 -36.30699 -33.25656 -36.9292 curveto
-32.65556 -37.55139 -32.0591 -38.17813 -31.4702 -38.81093 curveto
-30.88283 -39.44221 -30.29999 -40.07954 -29.7232 -40.71991 curveto
-29.14793 -41.35876 -28.57872 -42.00215 -28.01405 -42.65009 curveto
-27.45392 -43.29349 -26.89833 -43.94293 -26.35031 -44.59692 curveto
-25.80382 -45.24939 -25.26337 -45.90489 -24.72745 -46.56645 curveto
-24.1976 -47.22195 -23.67229 -47.882 -23.15303 -48.54659 curveto
-22.63832 -49.20512 -22.12814 -49.8682 -21.62555 -50.53581 curveto
-21.12749 -51.19736 -20.63548 -51.86346 -20.14801 -52.5341 curveto
-19.66661 -53.19566 -19.19125 -53.86177 -18.72195 -54.53241 curveto
-18.2572 -55.19397 -17.80002 -55.86006 -17.34737 -56.5307 curveto
-16.9023 -57.19075 -16.46176 -57.85533 -16.0288 -58.52446 curveto
-15.60188 -59.183 -15.18103 -59.84456 -14.76471 -60.51065 curveto
-14.35597 -61.16464 -13.95177 -61.82014 -13.55513 -62.4817 curveto
-13.16457 -63.13115 -12.78004 -63.78514 -12.40158 -64.44064 curveto
-12.03067 -65.08252 -11.66432 -65.72743 -11.30402 -66.37688 curveto
-10.9513 -67.0127 -10.60612 -67.65155 -10.26552 -68.29343 curveto
-9.93398 -68.92017 -9.60698 -69.54842 -9.28453 -70.1797 curveto
-8.97116 -70.79585 -8.66081 -71.4135 -8.35805 -72.03418 curveto
-8.06284 -72.63972 -7.7737 -73.2483 -7.48909 -73.8584 curveto
-7.21356 -74.45032 -6.94258 -75.04375 -6.67615 -75.64021 curveto
-6.41878 -76.2185 -6.16446 -76.79831 -5.9177 -77.38115 curveto
-5.6785 -77.94583 -5.44385 -78.51201 -5.21526 -79.07971 curveto
-4.99423 -79.62622 -4.77776 -80.17575 -4.56581 -80.72679 curveto
-4.36296 -81.25816 -4.16313 -81.78952 -3.96935 -82.32391 curveto
-3.78314 -82.8356 -3.59998 -83.35033 -3.42285 -83.86504 curveto
-3.2533 -84.35704 -3.08829 -84.84904 -2.92781 -85.34409 curveto
-2.77492 -85.8164 -2.62505 -86.29024 -2.4797 -86.7656 curveto
-2.34195 -87.21672 -2.20721 -87.66786 -2.07703 -88.12202 curveto
-1.95439 -88.55196 -1.83481 -88.98189 -1.71974 -89.41335 curveto
-1.61075 -89.81755 -1.5063 -90.22327 -1.40486 -90.6305 curveto
-1.3095 -91.01198 -1.21715 -91.39348 -1.12935 -91.77649 curveto
-1.04759 -92.13376 -0.96736 -92.49103 -0.89166 -92.84982 curveto
-0.82202 -93.18135 -0.7539 -93.5129 -0.68881 -93.84442 curveto
-0.62976 -94.14871 -0.57224 -94.453 -0.51926 -94.75728 curveto
-0.47081 -95.03583 -0.42389 -95.31439 -0.37997 -95.59294 curveto
-0.34062 -95.84273 -0.30278 -96.09251 -0.26796 -96.3423 curveto
-0.23616 -96.56483 -0.2074 -96.7889 -0.18015 -97.01294 curveto
-0.15593 -97.2052 -0.13474 -97.39897 -0.11354 -97.59123 curveto
-0.09537 -97.75624 -0.07872 -97.92126 -0.0651 -98.08627 curveto
-0.0545 -98.2195 -0.04541 -98.35422 -0.03331 -98.48744 curveto
-0.02422 -98.59341 -0.01212 -98.69788 -0.01363 -98.80385 curveto
-0.01514 -98.87953 -0.0227 -98.95674 -0.00455 -99.03091 curveto
0.00757 -99.07785 0.02725 -99.1278 0 -99.16718 curveto
-0.01514 -99.18837 -0.01665 -99.21259 0 -99.21259 curveto
0.01665 -99.21259 0.01514 -99.18837 0 -99.16718 curveto
-0.02725 -99.1278 -0.00757 -99.07785 0.00455 -99.03091 curveto
0.0227 -98.95674 0.01514 -98.87953 0.01363 -98.80385 curveto
0.01212 -98.69788 0.02422 -98.59341 0.03331 -98.48744 curveto
0.04541 -98.35422 0.0545 -98.2195 0.0651 -98.08627 curveto
0.07872 -97.92126 0.09537 -97.75624 0.11354 -97.59123 curveto
0.13474 -97.39897 0.15593 -97.2052 0.18015 -97.01294 curveto
0.2074 -96.7889 0.23616 -96.56483 0.26796 -96.3423 curveto
0.30278 -96.09251 0.34062 -95.84273 0.37997 -95.59294 curveto
0.42389 -95.31439 0.47081 -95.03583 0.51926 -94.75728 curveto
0.57224 -94.453 0.62976 -94.14871 0.68881 -93.84442 curveto
0.7539 -93.5129 0.82202 -93.18135 0.89166 -92.84982 curveto
0.96736 -92.49103 1.04759 -92.13376 1.12935 -91.77649 curveto
1.21715 -91.39348 1.3095 -91.01198 1.40486 -90.6305 curveto
1.5063 -90.22327 1.61075 -89.81755 1.71974 -89.41335 curveto
1.83481 -88.98189 1.95439 -88.55196 2.07703 -88.12202 curveto
2.20721 -87.66937 2.34195 -87.21672 2.4797 -86.7656 curveto
2.62505 -86.29024 2.77492 -85.8164 2.92781 -85.34409 curveto
3.08829 -84.84904 3.2533 -84.35704 3.42285 -83.86504 curveto
3.59998 -83.35033 3.78314 -82.8356 3.96935 -82.32391 curveto
4.16313 -81.78952 4.36296 -81.25816 4.56581 -80.72679 curveto
4.77776 -80.17575 4.99423 -79.62622 5.21526 -79.07971 curveto
5.44537 -78.51201 5.6785 -77.94583 5.9177 -77.38115 curveto
6.16446 -76.79831 6.41878 -76.2185 6.67615 -75.64021 curveto
6.94258 -75.04375 7.21356 -74.45032 7.48909 -73.8584 curveto
7.7737 -73.2483 8.06284 -72.63972 8.35805 -72.03418 curveto
8.66081 -71.4135 8.97116 -70.79585 9.28453 -70.1797 curveto
9.60698 -69.54842 9.93398 -68.92017 10.26552 -68.29343 curveto
10.60612 -67.65155 10.9513 -67.0127 11.30402 -66.37688 curveto
11.66432 -65.72743 12.03067 -65.08252 12.40158 -64.44064 curveto
12.78004 -63.78514 13.16457 -63.13115 13.55513 -62.4817 curveto
13.95177 -61.82166 14.35597 -61.16464 14.76471 -60.51065 curveto
15.18103 -59.84456 15.60188 -59.183 16.0288 -58.52446 curveto
16.46176 -57.85533 16.9023 -57.19075 17.34737 -56.5307 curveto
17.80002 -55.86006 18.2572 -55.19397 18.72195 -54.53241 curveto
19.19125 -53.86177 19.66661 -53.19566 20.14801 -52.5341 curveto
20.63548 -51.86346 21.12749 -51.19736 21.62555 -50.53581 curveto
22.12814 -49.8682 22.63832 -49.20512 23.15303 -48.54659 curveto
23.67229 -47.882 24.1976 -47.22195 24.72745 -46.56645 curveto
25.26337 -45.90489 25.80382 -45.24939 26.35031 -44.59692 curveto
26.89833 -43.94293 27.45392 -43.29349 28.01405 -42.65009 curveto
28.57872 -42.00215 29.14793 -41.35876 29.7232 -40.71991 curveto
30.29999 -40.07803 30.88283 -39.44221 31.4702 -38.81093 curveto
32.06061 -38.17813 32.65556 -37.55139 33.25656 -36.9292 curveto
33.85909 -36.30699 34.46614 -35.68935 35.07774 -35.07774 curveto
35.68935 -34.46614 36.30699 -33.85756 36.9292 -33.25656 curveto
37.55139 -32.65556 38.17813 -32.0591 38.81093 -31.4702 curveto
39.44221 -30.88283 40.07954 -30.29999 40.71991 -29.7232 curveto
41.35876 -29.14793 42.00215 -28.57872 42.65009 -28.01405 curveto
43.29349 -27.45392 43.94293 -26.89833 44.59692 -26.35031 curveto
45.24939 -25.80382 45.90489 -25.26337 46.56645 -24.72745 curveto
47.22195 -24.1976 47.882 -23.67229 48.54659 -23.15303 curveto
49.20512 -22.63832 49.8682 -22.12814 50.53581 -21.62555 curveto
51.19736 -21.12749 51.86346 -20.63548 52.5341 -20.14801 curveto
53.19566 -19.66661 53.86177 -19.19125 54.53241 -18.72195 curveto
55.19397 -18.2572 55.86006 -17.80002 56.5307 -17.34737 curveto
57.19075 -16.9023 57.85533 -16.46176 58.52446 -16.0288 curveto
59.183 -15.60188 59.84456 -15.18103 60.51065 -14.76471 curveto
61.16464 -14.35597 61.82014 -13.95177 62.4817 -13.55513 curveto
63.13115 -13.16457 63.78514 -12.78004 64.44064 -12.40158 curveto
65.08252 -12.03067 65.72743 -11.66432 66.37688 -11.30402 curveto
67.0127 -10.9513 67.65155 -10.60612 68.29343 -10.26552 curveto
68.92017 -9.93398 69.54842 -9.60698 70.1797 -9.28453 curveto
70.79585 -8.97116 71.4135 -8.66081 72.03418 -8.35805 curveto
72.63972 -8.06284 73.2483 -7.7737 73.8584 -7.48909 curveto
74.45032 -7.21356 75.04375 -6.94258 75.64021 -6.67615 curveto
76.2185 -6.41878 76.79831 -6.16446 77.38115 -5.9177 curveto
77.94583 -5.6785 78.51201 -5.44385 79.07971 -5.21526 curveto
79.62622 -4.99423 80.17575 -4.77776 80.72679 -4.56581 curveto
81.25816 -4.36296 81.78952 -4.16313 82.32391 -3.96935 curveto
82.8356 -3.78314 83.35033 -3.59998 83.86504 -3.42285 curveto
84.35704 -3.2533 84.84904 -3.08829 85.34409 -2.92781 curveto
85.8164 -2.77492 86.29024 -2.62505 86.7656 -2.4797 curveto
87.21672 -2.34195 87.66786 -2.20721 88.12202 -2.07703 curveto
88.55196 -1.95439 88.98189 -1.83481 89.41335 -1.71974 curveto
89.81755 -1.61075 90.22327 -1.5063 90.6305 -1.40486 curveto
91.01198 -1.3095 91.39348 -1.21715 91.77649 -1.12935 curveto
92.13376 -1.04759 92.49103 -0.96736 92.84982 -0.89166 curveto
93.18135 -0.82202 93.5129 -0.7539 93.84442 -0.68881 curveto
94.14871 -0.62976 94.453 -0.57224 94.75728 -0.51926 curveto
95.03583 -0.47081 95.31439 -0.42389 95.59294 -0.37997 curveto
95.84273 -0.34062 96.09251 -0.30278 96.3423 -0.26796 curveto
96.56483 -0.23616 96.7889 -0.2074 97.01294 -0.18015 curveto
97.2052 -0.15593 97.39897 -0.13474 97.59123 -0.11354 curveto
97.75624 -0.09537 97.92126 -0.08023 98.08627 -0.0651 curveto
98.48744 -0.03331 lineto
98.59341 -0.02574 98.69788 -0.01817 98.80385 -0.01363 curveto
99.03091 -0.00455 lineto
99.07634 -0.00302 99.12175 0 99.16718 0 curveto
99.21259 0 lineto stroke
 1 0 0 setrgbcolor
newpath 99.21259 0 moveto
99.16718 0 lineto
99.12175 0 99.07634 0.00302 99.03091 0.00455 curveto
98.80385 0.01363 lineto
98.69788 0.01817 98.59341 0.02574 98.48744 0.03331 curveto
98.08627 0.0651 lineto
97.92126 0.08023 97.75624 0.09537 97.59123 0.11354 curveto
97.39897 0.13474 97.2052 0.15593 97.01294 0.18015 curveto
96.7889 0.2074 96.56483 0.23616 96.3423 0.26796 curveto
96.09251 0.30278 95.84273 0.34062 95.59294 0.37997 curveto
95.31439 0.42389 95.03583 0.47081 94.75728 0.51926 curveto
94.453 0.57224 94.14871 0.62976 93.84442 0.68881 curveto
93.5129 0.7539 93.18135 0.82202 92.84982 0.89166 curveto
92.49103 0.96736 92.13376 1.04759 91.77649 1.12935 curveto
91.39348 1.21715 91.01198 1.3095 90.6305 1.40486 curveto
90.22327 1.5063 89.81755 1.61075 89.41335 1.71974 curveto
88.98189 1.83481 88.55196 1.95439 88.12202 2.07703 curveto
87.66937 2.20721 87.21672 2.34195 86.7656 2.4797 curveto
86.29024 2.62505 85.8164 2.77492 85.34409 2.92781 curveto
84.84904 3.08829 84.35704 3.2533 83.86504 3.42285 curveto
83.35033 3.59998 82.8356 3.78314 82.32391 3.96935 curveto
81.78952 4.16313 81.25816 4.36296 80.72679 4.56581 curveto
80.17575 4.77776 79.62622 4.99423 79.07971 5.21526 curveto
78.51201 5.44537 77.94583 5.6785 77.38115 5.9177 curveto
76.79831 6.16446 76.2185 6.41878 75.64021 6.67615 curveto
75.04375 6.94258 74.45032 7.21356 73.8584 7.48909 curveto
73.2483 7.7737 72.63972 8.06284 72.03418 8.35805 curveto
71.4135 8.66081 70.79585 8.97116 70.1797 9.28453 curveto
69.54842 9.60698 68.92017 9.93398 68.29343 10.26552 curveto
67.65155 10.60612 67.0127 10.9513 66.37688 11.30402 curveto
65.72743 11.66432 65.08252 12.03067 64.44064 12.40158 curveto
63.78514 12.78004 63.13115 13.16457 62.4817 13.55513 curveto
61.82166 13.95177 61.16464 14.35597 60.51065 14.76471 curveto
59.84456 15.18103 59.183 15.60188 58.52446 16.0288 curveto
57.85533 16.46176 57.19075 16.9023 56.5307 17.34737 curveto
55.86006 17.80002 55.19397 18.2572 54.53241 18.72195 curveto
53.86177 19.19125 53.19566 19.66661 52.5341 20.14801 curveto
51.86346 20.63548 51.19736 21.12749 50.53581 21.62555 curveto
49.8682 22.12814 49.20512 22.63832 48.54659 23.15303 curveto
47.882 23.67229 47.22195 24.1976 46.56645 24.72745 curveto
45.90489 25.26337 45.24939 25.80382 44.59692 26.35031 curveto
43.94293 26.89833 43.29349 27.45392 42.65009 28.01405 curveto
42.00215 28.57872 41.35876 29.14793 40.71991 29.7232 curveto
40.07803 30.29999 39.44221 30.88283 38.81093 31.4702 curveto
38.17813 32.06061 37.55139 32.65556 36.9292 33.25656 curveto
36.30699 33.85756 35.68935 34.46463 35.07774 35.07774 curveto stroke
 0 0 0 setrgbcolor 0 0.5 dtransform truncate idtransform setlinewidth pop
 [3 3 ] 0 setdash
newpath -114.09387 -114.09387 moveto
114.09387 114.09387 lineto stroke
101.31258 3.34529 moveto
(M) cmmi5 4.98132 fshow
108.25188 3.34529 moveto
(\(0\)) cmr5 4.98132 fshow
 0 3 dtransform truncate idtransform setlinewidth pop [] 0 setdash
newpath 99.21259 0 moveto 0 0 rlineto stroke
38.07774 33.83244 moveto
(M) cmmi5 4.98132 fshow
46.23935 39.31905 moveto
(\020) cmex7 4.98137 fshow
50.88664 35.76254 moveto
(\031) cmmi5 4.98132 fshow
 0 0.2419 dtransform truncate idtransform setlinewidth pop 0 setlinecap
newpath 50.88664 35.07774 moveto
55.20564 35.07774 lineto stroke
51.35104 31.18285 moveto
(4) cmr5 4.98132 fshow
56.40114 39.31905 moveto
(\021) cmex7 4.98137 fshow
 0 3 dtransform truncate idtransform setlinewidth pop 1 setlinecap
newpath 35.07774 35.07774 moveto 0 0 rlineto stroke
-24.7752 97.96727 moveto
(M) cmmi5 4.98132 fshow
-16.6136 103.45387 moveto
(\020) cmex7 4.98137 fshow
-11.96631 99.89737 moveto
(\031) cmmi5 4.98132 fshow
 0 0.2419 dtransform truncate idtransform setlinewidth pop 0 setlinecap
newpath -11.96631 99.21257 moveto
-7.64731 99.21257 lineto stroke
-11.5019 95.31767 moveto
(2) cmr5 4.98132 fshow
-6.45181 103.45387 moveto
(\021) cmex7 4.98137 fshow
 0 3 dtransform truncate idtransform setlinewidth pop 1 setlinecap
newpath 0 99.21259 moveto 0 0 rlineto stroke
-108.1511 4.2453 moveto
(M) cmmi5 4.98132 fshow
-99.98949 4.2453 moveto
(\() cmr5 4.98132 fshow
-97.29129 4.2453 moveto
(\031) cmmi5 4.98132 fshow
-92.9724 4.2453 moveto
(\)) cmr5 4.98132 fshow
newpath -99.21259 0 moveto 0 0 rlineto stroke
96.72194 -9.4204 moveto
(1) cmr10 9.96265 fshow
3 96.00238 moveto
(1) cmr10 9.96265 fshow
-103.6059 -6.3209 moveto
(\000) cmsy5 4.98132 fshow
-98.2094 -6.3209 moveto
(1) cmr5 4.98132 fshow
-56.83624 -6.3209 moveto
(\000) cmsy5 4.98132 fshow
-51.43974 -6.3209 moveto
(0) cmr5 4.98132 fshow
-48.04964 -6.3209 moveto
(:) cmmi5 4.98132 fshow
-45.76654 -6.3209 moveto
(5) cmr5 4.98132 fshow
2.09999 -5.3102 moveto
(0) cmr5 4.98132 fshow
45.07458 -6.2102 moveto
(0) cmr5 4.98132 fshow
48.46469 -6.2102 moveto
(:) cmmi5 4.98132 fshow
50.74779 -6.2102 moveto
(5) cmr5 4.98132 fshow
 0.5 0 dtransform exch truncate exch idtransform pop setlinewidth
newpath -99.21259 -2.97626 moveto
-99.21259 2.97626 lineto stroke
newpath -49.6063 -2.97626 moveto
-49.6063 2.97626 lineto stroke
newpath 0 -2.97626 moveto
0 2.97626 lineto stroke
newpath 49.6063 -2.97626 moveto
49.6063 2.97626 lineto stroke
newpath 99.21259 -2.97626 moveto
99.21259 2.97626 lineto stroke
 0 0.5 dtransform truncate idtransform setlinewidth pop
newpath -2.97626 -99.21259 moveto
2.97626 -99.21259 lineto stroke
newpath -2.97626 -49.6063 moveto
2.97626 -49.6063 lineto stroke
newpath -2.97626 0 moveto
2.97626 0 lineto stroke
newpath -2.97626 49.6063 moveto
2.97626 49.6063 lineto stroke
newpath -2.97626 99.21259 moveto
2.97626 99.21259 lineto stroke
newpath -124.01573 0 moveto
124.01573 0 lineto stroke
newpath 120.31987 -1.53091 moveto
124.01573 0 lineto
120.31987 1.53091 lineto
 closepath
gsave fill grestore stroke
 0.5 0 dtransform exch truncate exch idtransform pop setlinewidth
newpath 0 -124.01573 moveto
0 124.01573 lineto stroke
 0 0.5 dtransform truncate idtransform setlinewidth pop
newpath 1.53091 120.31987 moveto
0 124.01573 lineto
-1.53091 120.31987 lineto
 closepath
gsave fill grestore stroke
showpage
%%EOF
