%!PS
%%BoundingBox: -11 -11 309 96 
%%HiResBoundingBox: -10.87993 -10.87993 308.51772 95.9193 
%%Creator: MetaPost 2.000
%%CreationDate: 2018.02.20:1432
%%Pages: 1
%*Font: cmmi5 4.98132 4.98132 19:80000000000008
%*Font: cmr5 4.98132 4.98132 28:c0a
%*Font: cmr10 9.96265 9.96265 31:8
%%BeginProlog
%%EndProlog
%%Page: 1 1
 1 0 0 setrgbcolor 0 2 dtransform truncate idtransform setlinewidth pop
 [] 0 setdash 1 setlinecap 1 setlinejoin 10 setmiterlimit
newpath 0 0 moveto
0.00714 0.21216 lineto
0.01688 0.42432 0.03503 0.63647 0.05644 0.84798 curveto
0.09213 1.19897 0.1382 1.54999 0.19075 1.89903 curveto
0.26471 2.38693 0.3523 2.87354 0.45027 3.35689 curveto
0.57613 3.97649 0.71887 4.59349 0.87523 5.20596 curveto
1.06598 5.95209 1.27618 6.69171 1.50392 7.42744 curveto
1.77122 8.2923 2.06189 9.14937 2.37201 9.99994 curveto
2.7282 10.97572 3.11034 11.94115 3.51454 12.89748 curveto
3.97 13.97383 4.45401 15.03786 4.96202 16.09087 curveto
5.52582 17.25806 6.12012 18.41096 6.74167 19.54831 curveto
7.42291 20.7953 8.13658 22.02412 8.87946 23.23543 curveto
9.68527 24.5499 10.52481 25.84296 11.39551 27.11525 curveto
12.33237 28.48422 13.30362 29.82852 14.30797 31.14883 curveto
15.38043 32.55933 16.48857 33.94191 17.6298 35.2966 curveto
18.84113 36.73434 20.08876 38.14029 21.37013 39.51575 curveto
22.72223 40.9671 24.11131 42.38344 25.53413 43.76538 curveto
27.02766 45.2161 28.55882 46.62852 30.12308 48.00269 curveto
31.75806 49.43848 33.42937 50.83209 35.13376 52.18484 curveto
36.90692 53.59209 38.71643 54.95392 40.55771 56.27098 curveto
42.46648 57.6354 44.40964 58.95117 46.38393 60.21892 curveto
48.42245 61.52754 50.49406 62.78491 52.59618 63.99039 curveto
54.75928 65.2309 56.9535 66.41624 59.17564 67.5471 curveto
61.45552 68.70715 63.7633 69.80946 66.09833 70.85403 curveto
68.48592 71.9226 70.89944 72.93019 73.33763 73.87808 curveto
75.82318 74.84415 78.33339 75.74727 80.86435 76.58812 curveto
83.43748 77.44324 86.03203 78.23282 88.64474 78.95818 curveto
91.2938 79.69327 93.96165 80.36218 96.64444 80.96361 curveto
99.35771 81.57219 102.0859 82.11264 104.82579 82.58496 curveto
107.58968 83.06117 110.36523 83.46927 113.14923 83.80666 curveto
115.95074 84.14662 118.76004 84.41588 121.57452 84.61505 curveto
124.3994 84.81488 127.22816 84.94464 130.05952 85.00304 curveto
132.89348 85.06143 135.72873 85.0491 138.56203 84.96605 curveto
141.39145 84.88301 144.21826 84.72989 147.03989 84.5054 curveto
149.85048 84.28223 152.65459 83.98831 155.45027 83.62498 curveto
158.22777 83.26425 160.99554 82.8341 163.75165 82.33452 curveto
166.4831 81.8395 169.20155 81.27568 171.90445 80.64505 curveto
174.5762 80.02156 177.23175 79.33188 179.86911 78.57538 curveto
182.46884 77.82991 185.04977 77.01956 187.60863 76.14499 curveto
190.12402 75.28532 192.61865 74.36339 195.08798 73.37915 curveto
197.50931 72.41438 199.90596 71.38928 202.27538 70.30449 curveto
204.5916 69.24435 206.88055 68.12648 209.14032 66.95215 curveto
211.34235 65.80768 213.51582 64.60934 215.65816 63.35587 curveto
217.73885 62.13872 219.7884 60.87032 221.80553 59.55066 curveto
223.75711 58.27382 225.6782 56.94897 227.56361 55.57611 curveto
229.38155 54.25256 231.16704 52.88425 232.91685 51.47116 curveto
234.59724 50.11388 236.24454 48.71571 237.85551 47.27603 curveto
239.39577 45.89928 240.90163 44.48555 242.37115 43.03354 curveto
243.76996 41.6516 245.13438 40.23656 246.46248 38.7865 curveto
247.71985 37.41364 248.94348 36.01028 250.13014 34.57645 curveto
251.24738 33.22629 252.33215 31.84953 253.38062 30.44554 curveto
254.3616 29.13237 255.3095 27.79584 256.22366 26.43532 curveto
257.07164 25.17274 257.88977 23.88942 258.67352 22.58598 curveto
259.39499 21.38635 260.08725 20.16986 260.74773 18.93584 curveto
261.34917 17.81212 261.92465 16.67413 262.469 15.52187 curveto
262.95883 14.48508 263.42403 13.43663 263.86131 12.37714 curveto
264.24866 11.43832 264.61458 10.49107 264.95454 9.53345 curveto
265.24974 8.70235 265.52484 7.86409 265.77916 7.01935 curveto
265.99391 6.30438 266.19376 5.58551 266.37022 4.86015 curveto
266.51425 4.2691 266.64207 3.67415 266.76404 3.0779 curveto
266.85812 2.61725 266.9483 2.15596 266.9989 1.68883 curveto
267.03459 1.36118 267.05081 1.03159 267.11504 0.70848 curveto
267.15202 0.52164 267.20457 0.33025 267.15462 0.14532 curveto
267.14165 0.09666 267.12477 0.04282 267.15851 0.00648 curveto
267.59775 -0.46973 267.6477 0.7299 267.1702 0.29196 curveto stroke
 0 0 0 setrgbcolor
2.09999 3.34529 moveto
(M) cmmi5 4.98132 fshow
9.03929 3.34529 moveto
(\(0\)) cmr5 4.98132 fshow
 0 3 dtransform truncate idtransform setlinewidth pop
newpath 0 0 moveto 0 0 rlineto stroke
124.64075 89.28467 moveto
(M) cmmi5 4.98132 fshow
132.80235 89.28467 moveto
(\() cmr5 4.98132 fshow
135.50055 89.28467 moveto
(\031) cmmi5 4.98132 fshow
139.81944 89.28467 moveto
(\)) cmr5 4.98132 fshow
newpath 133.57925 85.03937 moveto 0 0 rlineto stroke
256.52495 -6.736 moveto
(M) cmmi5 4.98132 fshow
264.68655 -6.736 moveto
(\(2) cmr5 4.98132 fshow
270.77484 -6.736 moveto
(\031) cmmi5 4.98132 fshow
275.09384 -6.736 moveto
(\)) cmr5 4.98132 fshow
newpath 267.15851 0 moveto 0 0 rlineto stroke
40.02904 -9.4204 moveto
(1) cmr10 9.96265 fshow
3 39.30948 moveto
(1) cmr10 9.96265 fshow
 0.5 0 dtransform exch truncate exch idtransform pop setlinewidth
newpath 0 -1.27554 moveto
0 1.27554 lineto stroke
newpath 42.51968 -1.27554 moveto
42.51968 1.27554 lineto stroke
newpath 85.03937 -1.27554 moveto
85.03937 1.27554 lineto stroke
newpath 127.55905 -1.27554 moveto
127.55905 1.27554 lineto stroke
newpath 170.07874 -1.27554 moveto
170.07874 1.27554 lineto stroke
newpath 212.59842 -1.27554 moveto
212.59842 1.27554 lineto stroke
newpath 255.1181 -1.27554 moveto
255.1181 1.27554 lineto stroke
newpath 297.63779 -1.27554 moveto
297.63779 1.27554 lineto stroke
 0 0.5 dtransform truncate idtransform setlinewidth pop
newpath -1.27554 0 moveto
1.27554 0 lineto stroke
newpath -1.27554 42.51968 moveto
1.27554 42.51968 lineto stroke
newpath -1.27554 85.03937 moveto
1.27554 85.03937 lineto stroke
newpath -10.62993 0 moveto
308.26772 0 lineto stroke
newpath 304.57236 -1.5307 moveto
308.26772 0 lineto
304.57236 1.5307 lineto
 closepath
gsave fill grestore stroke
 0.5 0 dtransform exch truncate exch idtransform pop setlinewidth
newpath 0 -10.62993 moveto
0 95.6693 lineto stroke
 0 0.5 dtransform truncate idtransform setlinewidth pop
newpath 1.5307 91.97394 moveto
0 95.6693 lineto
-1.5307 91.97394 lineto
 closepath
gsave fill grestore stroke
showpage
%%EOF
