%!PS
%%BoundingBox: -125 -26 125 125 
%%HiResBoundingBox: -124.26573 -25.05315 124.26573 124.26573 
%%Creator: MetaPost 2.000
%%CreationDate: 2018.02.20:1432
%%Pages: 1
%*Font: cmmi5 4.98132 4.98132 19:80000000400008
%*Font: cmr5 4.98132 4.98132 28:c0f4
%*Font: cmex7 4.98137 6.97385 10:c
%*Font: cmr10 9.96265 9.96265 31:8
%*Font: cmsy5 4.98132 4.98132 00:8
%%BeginProlog
%%EndProlog
%%Page: 1 1
 1 0 0 setrgbcolor 0 2 dtransform truncate idtransform setlinewidth pop
 [] 0 setdash 1 setlinecap 1 setlinejoin 10 setmiterlimit
newpath 99.21259 0 moveto
99.19745 0.01514 lineto
99.15202 0.05904 lineto
99.07634 0.13322 lineto
98.97037 0.23314 lineto
98.83563 0.36182 lineto
98.66911 0.51471 lineto
98.60402 0.57376 98.53891 0.63582 98.47382 0.69487 curveto
98.24673 0.89772 lineto
97.99089 1.12631 lineto
97.70477 1.3761 lineto
97.3899 1.6486 lineto
97.04474 1.94229 lineto
96.6693 2.25566 lineto
96.26509 2.59023 lineto
95.83212 2.94144 lineto
95.36888 3.31233 lineto
94.87688 3.69989 lineto
94.35611 4.10257 lineto
93.80809 4.52191 lineto
93.2298 4.95639 lineto
92.62274 5.40298 lineto
91.98843 5.86319 lineto
91.76741 6.02216 91.54637 6.17809 91.32535 6.33553 curveto
90.63503 6.81996 lineto
90.39584 6.98648 90.15817 7.15149 89.91747 7.31499 curveto
89.17113 7.8191 lineto
88.91377 7.99017 88.65642 8.16275 88.39906 8.3323 curveto
87.59973 8.85458 lineto
87.32573 9.03171 87.04869 9.20883 86.77316 9.38445 curveto
86.49007 9.56459 86.20546 9.74474 85.92085 9.92186 curveto
85.0413 10.46382 lineto
84.74005 10.64851 84.4403 10.8317 84.13753 11.01337 curveto
83.8287 11.19957 83.51836 11.38274 83.2065 11.56592 curveto
82.8886 11.75365 82.57068 11.93832 82.25125 12.12302 curveto
81.92577 12.31075 81.59726 12.49695 81.27026 12.68315 curveto
80.26506 13.2463 lineto
79.92293 13.43706 79.57928 13.62477 79.23413 13.81097 curveto
78.88441 14.00172 78.5332 14.18945 78.18048 14.37717 curveto
77.82169 14.56792 77.4629 14.75563 77.1026 14.94334 curveto
76.0005 15.51105 lineto
75.62659 15.7018 75.25266 15.89104 74.87723 16.07724 curveto
74.49573 16.26646 74.11272 16.4557 73.72972 16.6419 curveto
72.5595 17.20506 lineto
72.16287 17.3943 71.76624 17.58202 71.36809 17.76671 curveto
70.96388 17.95442 70.55968 18.13911 70.15396 18.3238 curveto
69.7422 18.51001 69.33194 18.69621 68.91866 18.8794 curveto
67.66216 19.42892 lineto
66.38596 19.97392 lineto
65.08858 20.51437 lineto
64.65108 20.69452 64.21205 20.87164 63.77303 21.04726 curveto
63.32796 21.22589 62.88287 21.40149 62.4363 21.57559 curveto
61.98515 21.75119 61.53403 21.9253 61.08138 22.09636 curveto
60.62419 22.27045 60.167 22.44151 59.70831 22.61107 curveto
59.24507 22.78214 58.7803 22.95018 58.31555 23.1167 curveto
57.84625 23.28474 57.37695 23.45126 56.90614 23.61476 curveto
56.43079 23.77977 55.95544 23.94327 55.47858 24.10374 curveto
54.99716 24.26573 54.51727 24.4262 54.03435 24.58363 curveto
53.5484 24.74258 53.06244 24.89851 52.57498 25.05293 curveto
52.08298 25.20886 51.59097 25.36176 51.09897 25.51315 curveto
50.60242 25.66605 50.10435 25.8144 49.6063 25.96277 curveto
49.10368 26.11113 48.60109 26.25797 48.09848 26.40178 curveto
47.59134 26.54712 47.0842 26.68791 46.57706 26.82869 curveto
46.06537 26.96948 45.55368 27.10876 45.04199 27.24501 curveto
44.52577 27.38126 44.00954 27.51599 43.49179 27.64769 curveto
42.97102 27.78091 42.45026 27.9111 41.92949 28.0398 curveto
41.40417 28.16847 40.87886 28.29411 40.35356 28.41826 curveto
39.82521 28.54239 39.29536 28.66501 38.76552 28.7846 curveto
38.23264 28.9042 37.69975 29.02228 37.16536 29.13734 curveto
36.62946 29.2524 36.09203 29.36594 35.55461 29.47644 curveto
35.01416 29.58847 34.47371 29.69595 33.93326 29.80193 curveto
33.38979 29.9079 32.84479 30.01083 32.2998 30.11227 curveto
31.7533 30.2137 31.20679 30.3121 30.65877 30.40898 curveto
30.10924 30.50587 29.5582 30.59973 29.00714 30.69057 curveto
28.45459 30.78139 27.90051 30.87071 27.34644 30.957 curveto
26.79085 31.04329 26.23526 31.12807 25.67816 31.20982 curveto
25.11954 31.29156 24.56093 31.37029 24.00232 31.44598 curveto
23.44067 31.52167 22.87903 31.59586 22.31738 31.667 curveto
21.75423 31.73816 21.19107 31.80627 20.62791 31.8729 curveto
20.06323 31.9395 19.49706 32.00308 18.93086 32.06364 curveto
18.36317 32.12419 17.79547 32.18172 17.22777 32.23622 curveto
16.65855 32.29071 16.08934 32.3437 15.52013 32.39366 curveto
14.9494 32.44362 14.37868 32.49055 13.80795 32.53596 curveto
13.23572 32.58138 12.66347 32.62225 12.09123 32.66162 curveto
11.51747 32.70097 10.94373 32.7358 10.36996 32.7691 curveto
9.79622 32.8024 9.22095 32.8342 8.64719 32.86145 curveto
8.07193 32.88869 7.49666 32.91292 6.92139 32.93562 curveto
6.3446 32.95833 5.76933 32.97801 5.19255 32.99466 curveto
4.61577 33.01132 4.03899 33.02495 3.4622 33.03705 curveto
2.88542 33.04916 2.30864 33.05673 1.73186 33.06279 curveto
1.15508 33.06885 0.57678 33.07036 0 33.07036 curveto
-0.57678 33.07036 -1.15508 33.06885 -1.73186 33.06279 curveto
-2.30864 33.05673 -2.88542 33.04916 -3.4622 33.03705 curveto
-4.03899 33.02495 -4.61577 33.01132 -5.19255 32.99466 curveto
-5.76933 32.97801 -6.3446 32.95833 -6.92139 32.93562 curveto
-7.49666 32.91292 -8.07193 32.88869 -8.64719 32.86145 curveto
-9.22095 32.8342 -9.79622 32.8024 -10.36996 32.7691 curveto
-10.94373 32.7358 -11.51747 32.70097 -12.09123 32.66162 curveto
-12.66347 32.62225 -13.23572 32.58138 -13.80795 32.53596 curveto
-14.37868 32.49055 -14.9494 32.44362 -15.52013 32.39366 curveto
-16.08934 32.3437 -16.65855 32.29071 -17.22777 32.23622 curveto
-17.79547 32.18172 -18.36317 32.12419 -18.93086 32.06364 curveto
-19.49706 32.00308 -20.06323 31.9395 -20.62791 31.8729 curveto
-21.19107 31.80627 -21.75423 31.73816 -22.31738 31.667 curveto
-22.87903 31.59586 -23.44067 31.52167 -24.00232 31.44598 curveto
-24.56093 31.37029 -25.11954 31.29156 -25.67816 31.20982 curveto
-26.23526 31.12807 -26.79085 31.04329 -27.34644 30.957 curveto
-27.90051 30.87071 -28.45459 30.78139 -29.00714 30.69057 curveto
-29.5582 30.59973 -30.10924 30.50587 -30.65877 30.40898 curveto
-31.20679 30.3121 -31.7533 30.2137 -32.2998 30.11227 curveto
-32.84479 30.01083 -33.38979 29.9079 -33.93326 29.80193 curveto
-34.47371 29.69595 -35.01416 29.58847 -35.55461 29.47644 curveto
-36.09203 29.36594 -36.62946 29.2524 -37.16536 29.13734 curveto
-37.69975 29.02228 -38.23264 28.9042 -38.76552 28.7846 curveto
-39.29536 28.66501 -39.82521 28.54239 -40.35356 28.41826 curveto
-40.87886 28.29411 -41.40417 28.16847 -41.92949 28.0398 curveto
-42.45026 27.9111 -42.97102 27.78091 -43.49179 27.64769 curveto
-44.00954 27.51599 -44.52577 27.38126 -45.04199 27.24501 curveto
-45.55368 27.10876 -46.06537 26.96948 -46.57706 26.82869 curveto
-47.0842 26.68791 -47.59134 26.54712 -48.09848 26.40178 curveto
-48.60109 26.25797 -49.10368 26.11113 -49.6063 25.96277 curveto
-50.10435 25.8144 -50.60242 25.66605 -51.09897 25.51315 curveto
-51.59097 25.36176 -52.08298 25.20886 -52.57498 25.05293 curveto
-53.06244 24.89851 -53.5484 24.74258 -54.03435 24.58363 curveto
-54.51727 24.4262 -54.99867 24.26573 -55.47858 24.10374 curveto
-55.95544 23.94327 -56.43079 23.77977 -56.90614 23.61476 curveto
-57.37695 23.45126 -57.84625 23.28474 -58.31555 23.1167 curveto
-58.7803 22.95018 -59.24507 22.78214 -59.70831 22.61107 curveto
-60.167 22.44151 -60.62419 22.27045 -61.08138 22.09636 curveto
-61.53403 21.9253 -61.98515 21.75119 -62.4363 21.57559 curveto
-62.88287 21.40149 -63.32796 21.22589 -63.77303 21.04726 curveto
-64.21205 20.87164 -64.65108 20.69452 -65.08858 20.51437 curveto
-66.38596 19.97392 lineto
-67.66216 19.42892 lineto
-68.91866 18.8794 lineto
-69.33194 18.69621 -69.7422 18.51001 -70.15396 18.3238 curveto
-70.55968 18.13911 -70.96388 17.95442 -71.36809 17.76671 curveto
-71.76624 17.58202 -72.16287 17.3943 -72.5595 17.20506 curveto
-73.72972 16.6419 lineto
-74.11272 16.4557 -74.49573 16.26646 -74.87723 16.07724 curveto
-75.25266 15.88951 -75.62659 15.7018 -76.0005 15.51105 curveto
-77.1026 14.94334 lineto
-77.4629 14.75563 -77.82169 14.56792 -78.18048 14.37717 curveto
-78.5332 14.18945 -78.88441 14.00172 -79.23413 13.81097 curveto
-79.57928 13.62477 -79.92293 13.43555 -80.26506 13.2463 curveto
-81.27026 12.68315 lineto
-81.59726 12.49846 -81.92577 12.31075 -82.25125 12.12302 curveto
-83.2065 11.56592 lineto
-83.51685 11.38274 -83.8287 11.19957 -84.13753 11.01337 curveto
-84.4403 10.8317 -84.74005 10.64851 -85.0413 10.46382 curveto
-85.92085 9.92186 lineto
-86.20546 9.74474 -86.49007 9.56459 -86.77316 9.38445 curveto
-87.59973 8.85458 lineto
-87.86618 8.682 -88.13412 8.50792 -88.39906 8.3323 curveto
-89.17113 7.8191 lineto
-89.91747 7.31499 lineto
-90.15817 7.15149 -90.39584 6.98648 -90.63503 6.81996 curveto
-91.32535 6.33553 lineto
-91.54637 6.17809 -91.76741 6.02216 -91.98843 5.86319 curveto
-92.62274 5.40298 lineto
-93.2298 4.95639 lineto
-93.80809 4.52191 lineto
-94.35611 4.10257 lineto
-94.87688 3.69989 lineto
-95.36888 3.31233 lineto
-95.83212 2.94144 lineto
-96.26509 2.59023 lineto
-96.6693 2.25566 lineto
-97.04474 1.94229 lineto
-97.3899 1.6486 lineto
-97.70477 1.3761 lineto
-97.99089 1.12631 lineto
-98.24673 0.89772 lineto
-98.47382 0.69487 lineto
-98.53891 0.63582 -98.60402 0.57376 -98.66911 0.51471 curveto
-98.83563 0.36182 lineto
-98.97037 0.23314 lineto
-99.00519 0.19983 -99.04001 0.16501 -99.07634 0.13322 curveto
-99.10359 0.11052 -99.13235 0.0878 -99.15202 0.05904 curveto
-99.16414 0.04088 -99.17474 0.01817 -99.19745 0.01514 curveto
-99.20956 0.01363 -99.21864 0.00606 -99.21259 0 curveto
-99.20653 -0.00606 -99.19896 0.00302 -99.19745 0.01514 curveto
-99.19441 0.03784 -99.1702 0.04996 -99.15202 0.06207 curveto
-99.12175 0.08174 -99.10056 0.11203 -99.07634 0.13928 curveto
-99.04303 0.17863 -99.0067 0.21346 -98.97037 0.24979 curveto
-98.83563 0.3936 lineto
-98.66911 0.57224 lineto
-98.47382 0.78418 lineto
-98.24673 1.03246 lineto
-97.99089 1.31706 lineto
-97.70477 1.638 lineto
-97.3899 1.99678 lineto
-97.04474 2.39342 lineto
-96.6693 2.8279 lineto
-96.26509 3.30325 lineto
-95.83212 3.81645 lineto
-95.36888 4.37053 lineto
-94.87688 4.96698 lineto
-94.35611 5.60281 lineto
-93.80809 6.27951 lineto
-93.2298 7.0001 lineto
-92.62274 7.76158 lineto
-91.98843 8.56544 lineto
-91.32535 9.4117 lineto
-91.09373 9.7084 -90.86514 10.00513 -90.63503 10.30185 curveto
-89.91747 11.23439 lineto
-89.17113 12.20932 lineto
-88.91226 12.54842 -88.65642 12.88753 -88.39906 13.22662 curveto
-87.59973 14.28633 lineto
-86.77316 15.38994 lineto
-85.92085 16.53593 lineto
-85.0413 17.72281 lineto
-84.13753 18.95206 lineto
-83.2065 20.22069 lineto
-82.25125 21.5317 lineto
-81.27026 22.88205 lineto
-80.26506 24.27177 lineto
-79.23413 25.69936 lineto
-78.18048 27.16478 lineto
-77.1026 28.66653 lineto
-76.0005 30.2031 lineto
-74.87723 31.77298 lineto
-73.72972 33.37767 lineto
-72.5595 35.01112 lineto
-71.36809 36.67638 lineto
-70.15396 38.36888 lineto
-68.91866 40.08711 lineto
-67.66216 41.82957 lineto
-66.38596 43.59474 lineto
-65.08858 45.37958 lineto
-63.77303 47.17957 lineto
-63.32796 47.78662 -62.88287 48.3952 -62.4363 49.00075 curveto
-61.98668 49.61235 -61.53403 50.22244 -61.08138 50.83101 curveto
-59.70831 52.67186 lineto
-59.24507 53.28952 -58.78181 53.90718 -58.31555 54.52332 curveto
-57.84776 55.14249 -57.37695 55.76015 -56.90614 56.3763 curveto
-56.43231 56.99698 -55.95695 57.61615 -55.47858 58.23381 curveto
-54.03435 60.08829 lineto
-53.54991 60.70746 -53.06396 61.32512 -52.57498 61.94125 curveto
-52.086 62.5574 -51.59248 63.17052 -51.09897 63.78363 curveto
-50.60393 64.39674 -50.10587 65.00835 -49.6063 65.61844 curveto
-49.10672 66.227 -48.60411 66.83406 -48.09848 67.4381 curveto
-47.59436 68.04062 -47.08722 68.64162 -46.57706 69.2411 curveto
-46.06839 69.83757 -45.55823 70.43404 -45.04199 71.02444 curveto
-44.5288 71.61333 -44.01105 72.19617 -43.49179 72.779 curveto
-42.97406 73.35881 -42.4548 73.93863 -41.92949 74.51237 curveto
-41.40872 75.08311 -40.8834 75.64778 -40.35356 76.21094 curveto
-39.82825 76.76955 -39.2984 77.32362 -38.76552 77.87468 curveto
-38.23717 78.42117 -37.70277 78.96313 -37.16536 79.50056 curveto
-36.63248 80.03345 -36.09506 80.56027 -35.55461 81.08406 curveto
-35.0187 81.60332 -34.47826 82.11652 -33.93326 82.62518 curveto
-33.39432 83.12778 -32.84933 83.62433 -32.2998 84.11482 curveto
-31.75784 84.59926 -31.21133 85.07764 -30.65877 85.54996 curveto
-30.11378 86.01624 -29.56273 86.47797 -29.00714 86.93213 curveto
-28.45912 87.38022 -27.90506 87.81924 -27.34644 88.25372 curveto
-26.7954 88.68063 -26.2398 89.103 -25.67816 89.51628 curveto
-25.1256 89.92352 -24.56699 90.32166 -24.00232 90.71072 curveto
-23.44673 91.09373 -22.88509 91.46918 -22.31738 91.83704 curveto
-21.76028 92.19734 -21.19713 92.55159 -20.62791 92.89372 curveto
-20.06778 93.23131 -19.50311 93.55981 -18.93086 93.87622 curveto
-18.36923 94.18806 -17.80153 94.48933 -17.22777 94.78 curveto
-16.6631 95.06612 -16.0954 95.34315 -15.52013 95.60657 curveto
-14.95395 95.86694 -14.38322 96.11371 -13.80795 96.35138 curveto
-13.24025 96.58603 -12.66953 96.81009 -12.09123 97.019 curveto
-11.52202 97.22488 -10.94826 97.41563 -10.36996 97.59427 curveto
-9.79924 97.7714 -9.22548 97.93791 -8.64719 98.08778 curveto
-8.07495 98.23615 -7.49968 98.36784 -6.92139 98.48744 curveto
-6.34763 98.60553 -5.77084 98.71301 -5.19255 98.80385 curveto
-4.61728 98.89467 -4.0405 98.97037 -3.4622 99.03091 curveto
-2.88693 99.09148 -2.31015 99.13689 -1.73186 99.16718 curveto
-1.15508 99.19745 -0.5783 99.21259 0 99.21259 curveto
0.5783 99.21259 1.15508 99.19745 1.73186 99.16718 curveto
2.31015 99.13689 2.88693 99.09148 3.4622 99.03091 curveto
4.0405 98.97037 4.61728 98.89467 5.19255 98.80385 curveto
5.77084 98.71301 6.34763 98.60553 6.92139 98.48744 curveto
7.49968 98.36784 8.07495 98.23615 8.64719 98.08778 curveto
9.22548 97.93791 9.79924 97.7714 10.36996 97.59427 curveto
10.94826 97.41411 11.52202 97.22488 12.09123 97.019 curveto
12.66953 96.81009 13.24025 96.58603 13.80795 96.35138 curveto
14.38322 96.11371 14.95395 95.86694 15.52013 95.60657 curveto
16.0954 95.34315 16.6631 95.06612 17.22777 94.78 curveto
17.80153 94.48933 18.36923 94.18806 18.93086 93.87622 curveto
19.50311 93.55981 20.06778 93.23131 20.62791 92.89372 curveto
21.19713 92.55006 21.76028 92.19734 22.31738 91.83704 curveto
22.88509 91.47069 23.44673 91.09525 24.00232 90.71072 curveto
24.56699 90.32166 25.1256 89.922 25.67816 89.51628 curveto
26.2398 89.103 26.7954 88.68214 27.34644 88.25372 curveto
27.90506 87.81924 28.45912 87.38022 29.00714 86.93213 curveto
29.56273 86.47797 30.11378 86.01775 30.65877 85.54996 curveto
31.21133 85.07764 31.75784 84.59926 32.2998 84.11482 curveto
32.84933 83.62433 33.39432 83.12778 33.93326 82.62518 curveto
34.47826 82.11652 35.0187 81.6018 35.55461 81.08406 curveto
36.09506 80.56027 36.63248 80.03345 37.16536 79.50056 curveto
37.70277 78.96313 38.23717 78.42117 38.76552 77.87468 curveto
39.2984 77.32362 39.82825 76.76955 40.35356 76.21094 curveto
40.8834 75.64778 41.40872 75.08311 41.92949 74.51237 curveto
42.4548 73.93863 42.97406 73.35881 43.49179 72.779 curveto
44.01105 72.19617 44.5288 71.61333 45.04199 71.02444 curveto
45.55823 70.43404 46.06839 69.83757 46.57706 69.2411 curveto
47.08722 68.64162 47.59436 68.04062 48.09848 67.4381 curveto
48.60411 66.83406 49.10672 66.227 49.6063 65.61844 curveto
50.10587 65.00835 50.60393 64.39674 51.09897 63.78363 curveto
51.59248 63.17052 52.086 62.5574 52.57498 61.94125 curveto
53.06396 61.32512 53.54991 60.70746 54.03435 60.08829 curveto
54.51727 59.47214 54.99867 58.85297 55.47858 58.23381 curveto
55.95695 57.61615 56.43231 56.99698 56.90614 56.3763 curveto
57.37695 55.76015 57.84776 55.14249 58.31555 54.52332 curveto
58.78181 53.90718 59.24507 53.28952 59.70831 52.67186 curveto
61.08138 50.83101 lineto
61.53403 50.22244 61.98668 49.61235 62.4363 49.00075 curveto
62.88287 48.3952 63.32796 47.78662 63.77303 47.17957 curveto
65.08858 45.37958 lineto
66.38596 43.59474 lineto
67.66216 41.82957 lineto
68.91866 40.08711 lineto
70.15396 38.36888 lineto
71.36809 36.67638 lineto
72.5595 35.01112 lineto
73.72972 33.37767 lineto
74.87723 31.77298 lineto
76.0005 30.2031 lineto
77.1026 28.66653 lineto
78.18048 27.16478 lineto
79.23413 25.69936 lineto
80.26506 24.27177 lineto
81.27026 22.88205 lineto
82.25125 21.5317 lineto
83.2065 20.22069 lineto
83.51534 19.7968 83.82718 19.37444 84.13753 18.95206 curveto
84.43878 18.54181 84.73853 18.13155 85.0413 17.72281 curveto
85.92085 16.53593 lineto
86.77316 15.38994 lineto
87.59973 14.28633 lineto
88.39906 13.22662 lineto
89.17113 12.20932 lineto
89.91747 11.23439 lineto
90.63503 10.30185 lineto
91.32535 9.4117 lineto
91.98843 8.56544 lineto
92.62274 7.76158 lineto
93.2298 7.0001 lineto
93.80809 6.27951 lineto
94.35611 5.60281 lineto
94.87688 4.96698 lineto
95.36888 4.37053 lineto
95.83212 3.81645 lineto
96.26509 3.30325 lineto
96.6693 2.8279 lineto
97.04474 2.39342 lineto
97.3899 1.99678 lineto
97.70477 1.638 lineto
97.99089 1.31706 lineto
98.24673 1.03246 lineto
98.47382 0.78418 lineto
98.66911 0.57224 lineto
98.83563 0.3936 lineto
98.97037 0.24979 lineto
99.07634 0.13928 lineto
99.15202 0.06207 lineto
99.19745 0.01514 lineto
99.21259 0 lineto stroke
 0 0 0 setrgbcolor
101.31258 3.34529 moveto
(M) cmmi5 4.98132 fshow
108.25188 3.34529 moveto
(\(0\)) cmr5 4.98132 fshow
 0 3 dtransform truncate idtransform setlinewidth pop
newpath 99.21259 0 moveto 0 0 rlineto stroke
2.09999 38.40825 moveto
(M) cmmi5 4.98132 fshow
10.2616 43.89485 moveto
(\020) cmex7 4.98137 fshow
14.90889 40.33835 moveto
(\031) cmmi5 4.98132 fshow
 0 0.2419 dtransform truncate idtransform setlinewidth pop 0 setlinecap
newpath 14.90889 39.65355 moveto
19.22789 39.65355 lineto stroke
15.37329 35.75865 moveto
(2) cmr5 4.98132 fshow
20.42339 43.89485 moveto
(\021) cmex7 4.98137 fshow
 0 3 dtransform truncate idtransform setlinewidth pop 1 setlinecap
newpath 0 33.07036 moveto 0 0 rlineto stroke
-117.96727 3.34529 moveto
(M) cmmi5 4.98132 fshow
-111.02797 3.34529 moveto
(\() cmr5 4.98132 fshow
-108.32977 3.34529 moveto
(\031) cmmi5 4.98132 fshow
-104.01077 3.34529 moveto
(\)) cmr5 4.98132 fshow
newpath -99.21259 0 moveto 0 0 rlineto stroke
2.09999 104.55048 moveto
(M) cmmi5 4.98132 fshow
10.2616 110.03708 moveto
(\020) cmex7 4.98137 fshow
14.90889 106.48058 moveto
(3) cmr5 4.98132 fshow
18.29909 106.48058 moveto
(\031) cmmi5 4.98132 fshow
 0 0.2419 dtransform truncate idtransform setlinewidth pop 0 setlinecap
newpath 14.90889 105.79578 moveto
22.618 105.79578 lineto stroke
17.06839 101.90088 moveto
(2) cmr5 4.98132 fshow
23.81349 110.03708 moveto
(\021) cmex7 4.98137 fshow
 0 3 dtransform truncate idtransform setlinewidth pop 1 setlinecap
newpath 0 99.21259 moveto 0 0 rlineto stroke
101.31258 -8.52039 moveto
(1) cmr10 9.96265 fshow
2.09999 90.6922 moveto
(1) cmr10 9.96265 fshow
-103.6059 -6.3209 moveto
(\000) cmsy5 4.98132 fshow
-98.2094 -6.3209 moveto
(1) cmr5 4.98132 fshow
-56.83624 -6.3209 moveto
(\000) cmsy5 4.98132 fshow
-51.43974 -6.3209 moveto
(0) cmr5 4.98132 fshow
-48.04964 -6.3209 moveto
(:) cmmi5 4.98132 fshow
-45.76654 -6.3209 moveto
(5) cmr5 4.98132 fshow
2.09999 -5.3102 moveto
(0) cmr5 4.98132 fshow
45.07458 -6.2102 moveto
(0) cmr5 4.98132 fshow
48.46469 -6.2102 moveto
(:) cmmi5 4.98132 fshow
50.74779 -6.2102 moveto
(5) cmr5 4.98132 fshow
 0.5 0 dtransform exch truncate exch idtransform pop setlinewidth
newpath -99.21259 -2.97626 moveto
-99.21259 2.97626 lineto stroke
newpath -49.6063 -2.97626 moveto
-49.6063 2.97626 lineto stroke
newpath 0 -2.97626 moveto
0 2.97626 lineto stroke
newpath 49.6063 -2.97626 moveto
49.6063 2.97626 lineto stroke
newpath 99.21259 -2.97626 moveto
99.21259 2.97626 lineto stroke
 0 0.5 dtransform truncate idtransform setlinewidth pop
newpath -2.97626 0 moveto
2.97626 0 lineto stroke
newpath -2.97626 49.6063 moveto
2.97626 49.6063 lineto stroke
newpath -2.97626 99.21259 moveto
2.97626 99.21259 lineto stroke
newpath -124.01573 0 moveto
124.01573 0 lineto stroke
newpath 120.31987 -1.53091 moveto
124.01573 0 lineto
120.31987 1.53091 lineto
 closepath
gsave fill grestore stroke
 0.5 0 dtransform exch truncate exch idtransform pop setlinewidth
newpath 0 -24.80315 moveto
0 124.01573 lineto stroke
 0 0.5 dtransform truncate idtransform setlinewidth pop
newpath 1.53033 120.32126 moveto
0 124.01573 lineto
-1.53033 120.32126 lineto
 closepath
gsave fill grestore stroke
showpage
%%EOF
