input TEX;

verbatimtex
%&latex
 \documentclass{article}
 \usepackage[latin1]{inputenc}
 \usepackage[frenchb]{babel}
 \usepackage{amsmath}
 \begin{document}
etex

vardef funca (expr X) = 
  1/abs(X)
enddef;

vardef funcb (expr X) = 
  -1/abs(X)
enddef;
outputtemplate := "symetrie_bissectrice.mps";
beginfig(1)
  u:=1.5cm;

   % Graphe de la fonction

  path graphe, grapheb;  
  pair A, B, C, D;
  A:=(0.5*u,funca(0.5)*u); B:=(funca(0.5)*u,0.5*u); C:=(-.25u, -.25u);
  D:=(2u,2u);


  graphe=(0.4, funca (0.4)) for i=0.5 step .1 until 3: ..(i, funca (i)) endfor;
  draw graphe scaled u withpen pencircle scaled 2bp withcolor red;

  draw C--D dashed evenly;


  dotlabel.rt(btex \tiny $M(t)$ etex, A);
  dotlabel.bot(btex\tiny  $M(-t)$ etex, B);

  for i=0 upto 4: draw (i*u,-0.1u)--(i*u,0.1u);  endfor;
  for j=0 upto 2: draw (-0.1u,j*u)--(0.1u,j*u);  endfor;
 
  drawarrow (-.5u,0)--(4u,0);
  drawarrow (0,-.5u)--(0,2.5u);

endfig;

end
