%!PS
%%BoundingBox: -88 -69 88 69 
%%HiResBoundingBox: -87.76941 -68.34932 87.76941 68.32385 
%%Creator: MetaPost 2.000
%%CreationDate: 2018.02.20:1435
%%Pages: 1
%*Font: cmmi5 4.98132 4.98132 4d:8000000001
%*Font: cmr5 4.98132 4.98132 28:c
%*Font: cmsy5 4.98132 4.98132 00:8
%%BeginProlog
%%EndProlog
%%Page: 1 1
 1 0 0 setrgbcolor 0 2 dtransform truncate idtransform setlinewidth pop
 [] 0 setdash 1 setlinecap 1 setlinejoin 10 setmiterlimit
newpath 10.77145 67.32385 moveto
11.44328 62.7928 12.34193 58.29874 13.46452 53.8581 curveto
14.23045 50.82767 15.09993 47.82314 16.1576 44.88147 curveto
16.94241 42.69833 17.82915 40.5526 18.85066 38.4693 curveto
19.66014 36.81828 20.55263 35.20918 21.54373 33.66049 curveto
22.37253 32.36572 23.26912 31.11493 24.2368 29.92043 curveto
25.08203 28.87715 25.98027 27.87782 26.92987 26.92822 curveto
27.78825 26.06984 28.6873 25.25337 29.62294 24.48006 curveto
30.4916 23.7622 31.39066 23.08257 32.31601 22.43991 curveto
33.19206 21.83177 34.09111 21.25652 35.00908 20.7137 curveto
35.89088 20.19226 36.78952 19.7 37.70215 19.23445 curveto
38.58806 18.78246 39.4863 18.35593 40.39522 17.95201 curveto
41.284 17.55713 42.18224 17.18362 43.08829 16.82983 curveto
43.97954 16.4818 44.87737 16.15266 45.78136 15.83997 curveto
46.67384 15.53096 47.57207 15.2384 48.47443 14.95981 curveto
49.36813 14.68408 50.26637 14.42194 51.1675 14.17252 curveto
52.06203 13.92474 52.95985 13.68929 53.86057 13.46411 curveto
54.75592 13.24017 55.65375 13.02692 56.55363 12.8227 curveto
57.4494 12.6193 58.34723 12.42575 59.2467 12.24002 curveto
60.14288 12.05511 61.04071 11.87802 61.93976 11.7079 curveto
62.83636 11.53821 63.73378 11.3759 64.63283 11.21976 curveto
65.52943 11.06403 66.42726 10.91486 67.3259 10.77104 curveto
68.22292 10.62764 69.12033 10.48999 70.01897 10.35686 curveto
70.91599 10.22414 71.8138 10.09634 72.71204 9.97307 curveto
73.60904 9.8502 74.50687 9.73187 75.4051 9.61722 curveto
76.30252 9.50258 77.19994 9.39204 78.09818 9.28522 curveto
78.99559 9.17838 79.893 9.07524 80.79124 8.9758 curveto stroke
newpath -80.78714 -8.97621 moveto
-79.8889 -9.07607 -78.99149 -9.1792 -78.09407 -9.28604 curveto
-77.19583 -9.39287 -76.298 -9.50299 -75.401 -9.61763 curveto
-74.50276 -9.73227 -73.60493 -9.85103 -72.70793 -9.97389 curveto
-71.8097 -10.09715 -70.91187 -10.22453 -70.01486 -10.35727 curveto
-69.11621 -10.4904 -68.2188 -10.62846 -67.3218 -10.77187 curveto
-66.42314 -10.91568 -65.52531 -11.06483 -64.62872 -11.22057 curveto
-63.72966 -11.37672 -62.83224 -11.53862 -61.93565 -11.70831 curveto
-61.03659 -11.87843 -60.13876 -12.05553 -59.24258 -12.24084 curveto
-58.34312 -12.42657 -57.4453 -12.62053 -56.54951 -12.82352 curveto
-55.64964 -13.02773 -54.75182 -13.241 -53.85645 -13.46494 curveto
-52.95575 -13.69011 -52.05792 -13.92596 -51.16338 -14.17375 curveto
-50.26227 -14.42357 -49.36403 -14.68532 -48.4703 -14.96104 curveto
-47.56796 -15.23962 -46.66972 -15.5322 -45.77724 -15.8412 curveto
-44.87325 -16.1539 -43.97542 -16.48344 -43.08417 -16.83148 curveto
-42.17813 -17.18527 -41.27989 -17.55878 -40.3911 -17.95366 curveto
-39.48218 -18.35757 -38.58394 -18.7845 -37.69803 -19.2365 curveto
-36.78542 -19.70206 -35.88676 -20.19432 -35.00496 -20.71617 curveto
-34.087 -21.25938 -33.18794 -21.83424 -32.3119 -22.4428 curveto
-31.38654 -23.08545 -30.48749 -23.76549 -29.61884 -24.48334 curveto
-28.6832 -25.25667 -27.78413 -26.07355 -26.92577 -26.93233 curveto
-25.97617 -27.88234 -25.07793 -28.88167 -24.2327 -29.92537 curveto
-23.26501 -31.12068 -22.36842 -32.37189 -21.53963 -33.66707 curveto
-20.54852 -35.21658 -19.65604 -36.8261 -18.84656 -38.47794 curveto
-17.82504 -40.56204 -16.9379 -42.7086 -16.15349 -44.89256 curveto
-15.09581 -47.83588 -14.22633 -50.84206 -13.46042 -53.87453 curveto
-12.33823 -58.31847 -11.43918 -62.8154 -10.76735 -67.34932 curveto stroke
 0 0 0 setrgbcolor 0 0.5 dtransform truncate idtransform setlinewidth pop
 [3 3 ] 0 setdash
newpath -53.8581 53.8581 moveto
53.8581 -53.8581 lineto stroke
29.92905 25.6837 moveto
(M) cmmi5 4.98132 fshow
36.86835 25.6837 moveto
(\() cmr5 4.98132 fshow
39.56654 25.6837 moveto
(t) cmmi5 4.98132 fshow
42.37434 25.6837 moveto
(\)) cmr5 4.98132 fshow
 0 3 dtransform truncate idtransform setlinewidth pop [] 0 setdash
newpath 26.92905 26.92905 moveto 0 0 rlineto stroke
-23.92905 -28.1744 moveto
(M) cmmi5 4.98132 fshow
-16.98975 -28.1744 moveto
(\() cmr5 4.98132 fshow
-14.29155 -28.1744 moveto
(\000) cmsy5 4.98132 fshow
-8.89505 -28.1744 moveto
(t) cmmi5 4.98132 fshow
-6.08725 -28.1744 moveto
(\)) cmr5 4.98132 fshow
newpath -26.92905 -26.92905 moveto 0 0 rlineto stroke
 0.5 0 dtransform exch truncate exch idtransform pop setlinewidth
newpath -80.78714 -2.69307 moveto
-80.78714 2.69307 lineto stroke
newpath -53.8581 -2.69307 moveto
-53.8581 2.69307 lineto stroke
newpath -26.92905 -2.69307 moveto
-26.92905 2.69307 lineto stroke
newpath 0 -2.69307 moveto
0 2.69307 lineto stroke
newpath 26.92905 -2.69307 moveto
26.92905 2.69307 lineto stroke
newpath 53.8581 -2.69307 moveto
53.8581 2.69307 lineto stroke
newpath 80.78714 -2.69307 moveto
80.78714 2.69307 lineto stroke
 0 0.5 dtransform truncate idtransform setlinewidth pop
newpath -2.69307 -53.8581 moveto
2.69307 -53.8581 lineto stroke
newpath -2.69307 -26.92905 moveto
2.69307 -26.92905 lineto stroke
newpath -2.69307 0 moveto
2.69307 0 lineto stroke
newpath -2.69307 26.92905 moveto
2.69307 26.92905 lineto stroke
newpath -2.69307 53.8581 moveto
2.69307 53.8581 lineto stroke
newpath -87.51941 0 moveto
87.51941 0 lineto stroke
newpath 83.823 -1.53114 moveto
87.51941 0 lineto
83.823 1.53114 lineto
 closepath
gsave fill grestore stroke
 0.5 0 dtransform exch truncate exch idtransform pop setlinewidth
newpath 0 -60.59036 moveto
0 60.59036 lineto stroke
 0 0.5 dtransform truncate idtransform setlinewidth pop
newpath 1.53058 56.89531 moveto
0 60.59036 lineto
-1.53058 56.89531 lineto
 closepath
gsave fill grestore stroke
showpage
%%EOF
