%!PS-Adobe-3.0 EPSF-3.0
%%Creator: EpsGraphics 1.0.0 by Thomas Abeel, http://www.sourceforge.net/epsgraphics/
%%Title: GeoGebra, http://www.geogebra.org/
%%CreationDate: Mon Dec 15 14:42:29 CET 2014
%%BoundingBox: 0 0 199 194
%%DocumentData: Clean7Bit
%%LanguageLevel: 2
%%DocumentProcessColors: Black
%%ColorUsage: Color
%%Origin: 0 0
%%Pages: 1
%%Page: 1 1
%%EndComments

gsave
0.0 194.0 translate
0.0 0.0 0.0 setrgbcolor
0.0 0.0 0.0 setrgbcolor
gsave
newpath
0.0 -0.0 moveto
199.50296281100182 -0.0 lineto
199.50296281100182 -194.40058524550307 lineto
0.0 -194.40058524550307 lineto
0.0 -0.0 lineto
closepath
clip
newpath
1.0 1.0 1.0 setrgbcolor
newpath
0.0 -0.0 moveto
199.50296281100182 -0.0 lineto
199.50296281100182 -194.40058524550307 lineto
0.0 -194.40058524550307 lineto
0.0 -0.0 lineto
closepath
fill
newpath
0.0 0.0 0.0 setrgbcolor
1.0 setlinewidth
10.0 setmiterlimit
0 setlinejoin
0 setlinecap
[ ] 0 setdash
newpath
6.987779543316424 -1.0204755130997536 moveto
6.987779543316424 -194.40058524550307 lineto
stroke
newpath
1.0 setlinewidth
10.0 setmiterlimit
0 setlinejoin
0 setlinecap
[ ] 0 setdash
newpath
7.242898421591362 -0.5102377565498768 moveto
5.457066273666793 -2.040951026199507 lineto
stroke
newpath
1.0 setlinewidth
10.0 setmiterlimit
0 setlinejoin
0 setlinecap
[ ] 0 setdash
newpath
6.732660665041485 -0.5102377565498768 moveto
8.518492812966054 -2.040951026199507 lineto
stroke
newpath
1.0 setlinewidth
10.0 setmiterlimit
0 setlinejoin
0 setlinecap
[ ] 0 setdash
newpath
0.0 -175.05003999742132 moveto
198.48248729790208 -175.05003999742132 lineto
stroke
newpath
1.0 setlinewidth
10.0 setmiterlimit
0 setlinejoin
0 setlinecap
[ ] 0 setdash
newpath
198.99272505445194 -175.30515887569626 moveto
197.4620117848023 -173.51932672777167 lineto
stroke
newpath
1.0 setlinewidth
10.0 setmiterlimit
0 setlinejoin
0 setlinecap
[ ] 0 setdash
newpath
198.99272505445194 -174.79492111914638 moveto
197.4620117848023 -176.58075326707095 lineto
stroke
newpath
1.0 0.0 0.0 setrgbcolor
2.0 setlinewidth
10.0 setmiterlimit
1 setlinejoin
1 setlinecap
[ ] 0 setdash
newpath
7.1891055472526935 -200.30930289844014 moveto
7.289769109011908 -196.32528153871914 lineto
7.390432184170478 -193.47377062429928 lineto
7.5917583344876185 -189.40437226204034 lineto
7.7930844848047585 -186.46749991630315 lineto
8.182738709044997 -182.34243444040695 lineto
8.572392933285235 -179.29829195597128 lineto
9.35170138176571 -174.79148243589853 lineto
10.131009830246187 -171.3909458544196 lineto
10.910318278726663 -168.6004118398609 lineto
12.468935175687614 -164.0616190326802 lineto
14.027552072648566 -160.33357296836698 lineto
15.586168969609517 -157.0887953065282 lineto
17.14478586657047 -154.16526749684337 lineto
18.70340276353142 -151.4708546270351 lineto
20.262019660492374 -148.94816117797976 lineto
21.820636557453327 -146.55894423188906 lineto
23.379253454414275 -144.27648357421714 lineto
24.937870351375228 -142.08136189287845 lineto
26.49648724833618 -139.95900452539345 lineto
28.055104145297133 -137.8982157641523 lineto
29.613721042258085 -135.89021344073782 lineto
31.172337939219034 -133.92794379221917 lineto
32.73095483617999 -132.00567660941638 lineto
34.28957173314094 -130.11874052615005 lineto
35.84818863010189 -128.26318045238838 lineto
37.40680552706284 -126.4357108605852 lineto
38.96542242402379 -124.6335133598123 lineto
40.52403932098475 -122.85418998209764 lineto
42.0826562179457 -121.09566196949136 lineto
43.64127311490665 -119.35610748918357 lineto
45.1998900118676 -117.63396163350414 lineto
46.75850690882855 -115.9278229925993 lineto
48.31712380578951 -114.2364692256521 lineto
49.875740702750456 -112.5587947760001 lineto
51.43435759971141 -110.89382644235593 lineto
52.99297449667236 -109.24069223636612 lineto
54.55159139363331 -107.59859802578016 lineto
56.110208290594265 -105.96684310567117 lineto
57.668825187555214 -104.34476569916374 lineto
59.22744208451617 -102.73178967109575 lineto
60.78605898147712 -101.12737002874627 lineto
62.34467587843807 -99.53103184988706 lineto
63.903292775399024 -97.9423157835105 lineto
65.46190967235998 -96.36080919227072 lineto
67.02052656932092 -94.7861461524837 lineto
68.57914346628188 -93.21796074046537 lineto
70.13776036324283 -91.6559337461935 lineto
71.69637726020377 -90.09976931647671 lineto
73.25499415716473 -88.54917938373394 lineto
74.81361105412569 -87.00391480843562 lineto
76.37222795108664 -85.46373423666252 lineto
77.93084484804758 -83.92839631449533 lineto
79.48946174500854 -82.3977064016766 lineto
81.0480786419695 -80.87146207233855 lineto
82.60669553893044 -79.349476471834 lineto
84.1653124358914 -77.83157053112609 lineto
85.72392933285235 -76.31759632361913 lineto
87.2825462298133 -74.80738256588656 lineto
88.84116312677425 -73.30079690255327 lineto
90.3997800237352 -71.7976991926339 lineto
91.95839692069616 -70.29795708075336 lineto
93.5170138176571 -68.80144599714689 lineto
95.07563071461806 -67.30806472888055 lineto
96.63424761157901 -65.81768870618963 lineto
98.19286450853996 -64.33022060894533 lineto
99.75148140550091 -62.84556311701895 lineto
101.31009830246187 -61.36361501747659 lineto
102.86871519942282 -59.88429845421526 lineto
104.42733209638376 -58.407519999911386 lineto
105.98594899334472 -56.933201798461965 lineto
107.54456589030568 -55.46126988656917 lineto
109.10318278726662 -53.991646408129995 lineto
110.66179968422757 -52.52426518545691 lineto
112.22041658118853 -51.05905614805722 lineto
113.77903347814949 -49.5959531182434 lineto
115.33765037511043 -48.13490159674333 lineto
116.89626727207138 -46.67584319147979 lineto
118.45488416903234 -45.21871561757038 lineto
120.01350106599328 -43.763468268548166 lineto
121.57211796295424 -42.31004664514104 lineto
123.1307348599152 -40.85840792649237 lineto
124.68935175687614 -39.40850150613521 lineto
126.24796865383709 -37.96027677760261 lineto
127.80658555079805 -36.51369870564824 lineto
129.365202447759 -35.06872057661029 lineto
130.92381934471996 -33.625299569632126 lineto
132.48243624168092 -32.18340259586997 lineto
134.04105313864184 -30.742988780869766 lineto
135.5996700356028 -29.304019196580008 lineto
137.15828693256375 -27.86646464696208 lineto
138.7169038295247 -26.43028815036706 lineto
140.27552072648567 -24.995456617951174 lineto
141.83413762344662 -23.561940853675807 lineto
143.39275452040755 -22.129709715099764 lineto
144.9513714173685 -20.69873400618442 lineto
146.50998831432946 -19.268984530891156 lineto
148.06860521129042 -17.8404359859865 lineto
149.62722210825137 -16.413061121834403 lineto
151.18583900521233 -14.986835608402687 lineto
152.74445590217329 -13.561732196055303 lineto
154.3030727991342 -12.13772850116264 lineto
155.86168969609517 -10.714801166893801 lineto
157.42030659305613 -9.292926836417893 lineto
158.97892349001708 -7.872086045709165 lineto
160.53754038697804 -6.452255924537366 lineto
162.096157283939 -5.033417008876747 lineto
163.65477418089995 -3.6155486181999534 lineto
165.21339107786088 -2.198632018382202 lineto
166.77200797482183 -0.7826484752987116 lineto
168.3306248717828 0.6324200760994145 lineto
169.88924176874374 2.0465912142604297 lineto
171.4478586657047 3.4598823959824254 lineto
stroke
newpath
0.0 0.0 0.0 setrgbcolor
1.0 setlinewidth
10.0 setmiterlimit
1 setlinejoin
1 setlinecap
[ ] 0 setdash
newpath
0.0 -180.9757795509761 moveto
1.5586168969609517 -179.65404763297002 lineto
3.1172337939219035 -178.33231571496395 lineto
4.675850690882855 -177.0105837969579 lineto
6.234467587843807 -175.68886745017238 lineto
7.7930844848047585 -174.36713553216632 lineto
9.35170138176571 -173.04540361416025 lineto
10.910318278726663 -171.72367169615416 lineto
12.468935175687614 -170.4019397781481 lineto
14.027552072648566 -169.080207860142 lineto
15.586168969609517 -167.75847594213593 lineto
17.14478586657047 -166.43674402412984 lineto
18.70340276353142 -165.11501210612377 lineto
20.262019660492374 -163.79328018811768 lineto
21.820636557453327 -162.4715482701116 lineto
23.379253454414275 -161.14981635210552 lineto
24.937870351375228 -159.82808443409945 lineto
26.49648724833618 -158.50636808731397 lineto
28.055104145297133 -157.18463616930788 lineto
29.613721042258085 -155.8629042513018 lineto
31.172337939219034 -154.54117233329572 lineto
32.73095483617999 -153.21944041528965 lineto
34.28957173314094 -151.89770849728356 lineto
35.84818863010189 -150.5759765792775 lineto
37.40680552706284 -149.25424466127143 lineto
38.96542242402379 -147.93251274326533 lineto
40.52403932098475 -146.61078082525927 lineto
42.0826562179457 -145.28904890725318 lineto
43.64127311490665 -143.9673169892471 lineto
45.1998900118676 -142.64560064246163 lineto
46.75850690882855 -141.32386872445554 lineto
48.31712380578951 -140.00213680644947 lineto
49.875740702750456 -138.68040488844338 lineto
51.43435759971141 -137.3586729704373 lineto
52.99297449667236 -136.03694105243122 lineto
54.55159139363331 -134.71520913442515 lineto
56.110208290594265 -133.39347721641906 lineto
57.668825187555214 -132.071745298413 lineto
59.22744208451617 -130.7500133804069 lineto
60.78605898147712 -129.42828924801114 lineto
62.34467587843807 -128.10655733000505 lineto
63.903292775399024 -126.78482541199897 lineto
65.46190967235998 -125.46309349399289 lineto
67.02052656932092 -124.1413615759868 lineto
68.57914346628188 -122.81963744359103 lineto
70.13776036324283 -121.49790552558495 lineto
71.69637726020377 -120.17617360757887 lineto
73.25499415716473 -118.8544416895728 lineto
74.81361105412569 -117.53270977156672 lineto
76.37222795108664 -116.21097785356064 lineto
77.93084484804758 -114.88925372116486 lineto
79.48946174500854 -113.56752180315878 lineto
81.0480786419695 -112.2457898851527 lineto
82.60669553893044 -110.92405796714662 lineto
84.1653124358914 -109.60232604914054 lineto
85.72392933285235 -108.28059413113446 lineto
87.2825462298133 -106.95886999873869 lineto
88.84116312677425 -105.63713808073261 lineto
90.3997800237352 -104.31540616272653 lineto
91.95839692069616 -102.99367424472045 lineto
93.5170138176571 -101.67194232671437 lineto
95.07563071461806 -100.35021040870829 lineto
96.63424761157901 -99.0284862763125 lineto
98.19286450853996 -97.70675435830643 lineto
99.75148140550091 -96.38502244030035 lineto
101.31009830246187 -95.06329052229427 lineto
102.86871519942282 -93.7415586042882 lineto
104.42733209638376 -92.41982668628212 lineto
105.98594899334472 -91.09810255388633 lineto
107.54456589030568 -89.77637063588026 lineto
109.10318278726662 -88.45463871787418 lineto
110.66179968422757 -87.1329067998681 lineto
112.22041658118853 -85.81117488186202 lineto
113.77903347814949 -84.48944296385594 lineto
115.33765037511043 -83.16771883146016 lineto
116.89626727207138 -81.84598691345408 lineto
118.45488416903234 -80.524254995448 lineto
120.01350106599328 -79.20252307744192 lineto
121.57211796295424 -77.88079115943584 lineto
123.1307348599152 -76.55905924142976 lineto
124.68935175687614 -75.23732732342368 lineto
126.24796865383709 -73.91560319102791 lineto
127.80658555079805 -72.59387127302183 lineto
129.365202447759 -71.27213935501575 lineto
130.92381934471996 -69.95040743700967 lineto
132.48243624168092 -68.6286755190036 lineto
134.04105313864184 -67.30694360099751 lineto
135.5996700356028 -65.98521946860174 lineto
137.15828693256375 -64.66348755059566 lineto
138.7169038295247 -63.341755632589575 lineto
140.27552072648567 -62.020023714583495 lineto
141.83413762344662 -60.69829568938257 lineto
143.39275452040755 -59.37656377137649 lineto
144.9513714173685 -58.05483185337041 lineto
146.50998831432946 -56.73310382816948 lineto
148.06860521129042 -55.4113719101634 lineto
149.62722210825137 -54.08963999215732 lineto
151.18583900521233 -52.7679119669564 lineto
152.74445590217329 -51.44618004895032 lineto
154.3030727991342 -50.12444813094424 lineto
155.86168969609517 -48.802720105743305 lineto
157.42030659305613 -47.480988187737225 lineto
158.97892349001708 -46.15925626973115 lineto
160.53754038697804 -44.83752824453022 lineto
162.096157283939 -43.51579632652414 lineto
163.65477418089995 -42.19406440851806 lineto
165.21339107786088 -40.87233638331713 lineto
166.77200797482183 -39.550604465311054 lineto
168.3306248717828 -38.228872547304974 lineto
169.88924176874374 -36.90714452210405 lineto
171.4478586657047 -35.58541260409797 lineto
173.00647556266566 -34.26368068609189 lineto
174.5650924596266 -32.94194876808581 lineto
176.12370935658754 -31.62022074288488 lineto
177.6823262535485 -30.298488824878802 lineto
179.24094315050945 -28.976758853275296 lineto
180.7995600474704 -27.655028881671793 lineto
182.35817694443136 -26.333296963665713 lineto
183.91679384139232 -25.01156699206221 lineto
185.47541073835328 -23.689837020458704 lineto
187.0340276353142 -22.368105102452628 lineto
188.59264453227516 -21.04637513084912 lineto
190.15126142923611 -19.72464515924562 lineto
191.70987832619707 -18.40291324123954 lineto
193.26849522315803 -17.081183269636036 lineto
194.82711212011898 -15.759452324831244 lineto
196.3857290170799 -14.437721380026453 lineto
197.94434591404087 -13.115991408422948 lineto
199.50296281100182 -11.794260463618157 lineto
stroke
newpath
0.0 0.0 0.0 setrgbcolor
1.0 setlinewidth
10.0 setmiterlimit
1 setlinejoin
1 setlinecap
[ ] 0 setdash
newpath
3.8427281040162597 -189.0450819179659 moveto
3.8427281040162597 -191.84939646275367 lineto
3.2507725817689415 -191.84939646275367 lineto
3.2507725817689415 -189.0450819179659 lineto
2.790362731132139 -189.0450819179659 lineto
2.790362731132139 -188.60261011345779 lineto
3.2507725817689415 -188.60261011345779 lineto
3.2507725817689415 -188.2139524473358 lineto
3.2507725817689415 -187.4406233245179 3.603554166147215 -187.05395879767946 4.3091173033626315 -187.05395879767946 curveto
4.5064358166589535 -187.05395879767946 4.730661391129405 -187.08684521656218 4.9817940331891295 -187.15261805138732 curveto
4.9817940331891295 -187.6190072507337 lineto
4.716709565831444 -187.53728948260087 4.5044426921659015 -187.49643060218753 4.344993395620045 -187.49643060218753 curveto
4.1516611149155676 -187.49643060218753 4.0196171689533315 -187.54277055606772 3.948861543611107 -187.63545045968502 curveto
3.87810591510586 -187.72813036744543 3.8427281040162597 -187.90003664382562 3.8427281040162597 -188.15116928588532 curveto
3.8427281040162597 -188.60261011345779 lineto
4.652929854162841 -188.60261011345779 lineto
4.652929854162841 -189.0450819179659 lineto
closepath
fill
newpath
grestore
grestore
showpage

%%EOF