%!PS-Adobe-3.0 EPSF-3.0
%%Creator: EpsGraphics 1.0.0 by Thomas Abeel, http://www.sourceforge.net/epsgraphics/
%%Title: GeoGebra, https://www.geogebra.org/
%%CreationDate: Tue Aug 16 21:31:07 CEST 2016
%%BoundingBox: 0 0 323 285
%%DocumentData: Clean7Bit
%%LanguageLevel: 2
%%DocumentProcessColors: Black
%%ColorUsage: Color
%%Origin: 0 0
%%Pages: 1
%%Page: 1 1
%%EndComments

gsave
0.0 285.0 translate
0.0 0.0 0.0 setrgbcolor
0.0 0.0 0.0 setrgbcolor
gsave
newpath
0.0 -0.0 moveto
323.0330144996215 -0.0 lineto
323.0330144996215 -285.3699724503383 lineto
0.0 -285.3699724503383 lineto
0.0 -0.0 lineto
closepath
clip
newpath
1.0 1.0 1.0 setrgbcolor
newpath
0.0 -0.0 moveto
323.0330144996215 -0.0 lineto
323.0330144996215 -285.3699724503383 lineto
0.0 -285.3699724503383 lineto
0.0 -0.0 lineto
closepath
fill
newpath
0.0 0.0 0.0 setrgbcolor
1.0 setlinewidth
10.0 setmiterlimit
0 setlinejoin
0 setlinecap
[ ] 0 setdash
newpath
147.00767619919125 -1.4485785403570473 moveto
147.00767619919125 -285.3699724503383 lineto
stroke
newpath
1.0 setlinewidth
10.0 setmiterlimit
0 setlinejoin
0 setlinecap
[ ] 0 setdash
newpath
147.00767619919125 -0.7242892701785236 moveto
144.11051911847716 -3.6214463508926182 lineto
stroke
newpath
1.0 setlinewidth
10.0 setmiterlimit
0 setlinejoin
0 setlinecap
[ ] 0 setdash
newpath
147.00767619919125 -0.7242892701785236 moveto
149.90483327990535 -3.6214463508926182 lineto
stroke
newpath
1.0 setlinewidth
10.0 setmiterlimit
0 setlinejoin
0 setlinecap
[ ] 0 setdash
newpath
0.0 -184.0248576702274 moveto
321.5844359592645 -184.0248576702274 lineto
stroke
newpath
1.0 setlinewidth
10.0 setmiterlimit
0 setlinejoin
0 setlinecap
[ ] 0 setdash
newpath
322.30872522944304 -184.0248576702274 moveto
319.4115681487289 -181.1277005895133 lineto
stroke
newpath
1.0 setlinewidth
10.0 setmiterlimit
0 setlinejoin
0 setlinecap
[ ] 0 setdash
newpath
322.30872522944304 -184.0248576702274 moveto
319.4115681487289 -186.92201475094149 lineto
stroke
newpath
1.0 setlinewidth
10.0 setmiterlimit
0 setlinejoin
0 setlinecap
[ ] 0 setdash
newpath
19.448621081081 -184.0248576702274 moveto
19.448621081081 -186.19772548076295 lineto
stroke
newpath
1.0 setlinewidth
10.0 setmiterlimit
0 setlinejoin
0 setlinecap
[ ] 0 setdash
newpath
61.96830612045108 -184.0248576702274 moveto
61.96830612045108 -186.19772548076295 lineto
stroke
newpath
1.0 setlinewidth
10.0 setmiterlimit
0 setlinejoin
0 setlinecap
[ ] 0 setdash
newpath
104.48799115982116 -184.0248576702274 moveto
104.48799115982116 -186.19772548076295 lineto
stroke
newpath
1.0 setlinewidth
10.0 setmiterlimit
0 setlinejoin
0 setlinecap
[ ] 0 setdash
newpath
147.00767619919125 -184.0248576702274 moveto
147.00767619919125 -186.19772548076295 lineto
stroke
newpath
1.0 setlinewidth
10.0 setmiterlimit
0 setlinejoin
0 setlinecap
[ ] 0 setdash
newpath
189.52736123856133 -184.0248576702274 moveto
189.52736123856133 -186.19772548076295 lineto
stroke
newpath
1.0 setlinewidth
10.0 setmiterlimit
0 setlinejoin
0 setlinecap
[ ] 0 setdash
newpath
232.04704627793143 -184.0248576702274 moveto
232.04704627793143 -186.19772548076295 lineto
stroke
newpath
1.0 setlinewidth
10.0 setmiterlimit
0 setlinejoin
0 setlinecap
[ ] 0 setdash
newpath
274.5667313173015 -184.0248576702274 moveto
274.5667313173015 -186.19772548076295 lineto
stroke
newpath
1.0 setlinewidth
10.0 setmiterlimit
0 setlinejoin
0 setlinecap
[ ] 0 setdash
newpath
144.83480838865566 -269.0642277489679 moveto
147.00767619919125 -269.0642277489679 lineto
stroke
newpath
1.0 setlinewidth
10.0 setmiterlimit
0 setlinejoin
0 setlinecap
[ ] 0 setdash
newpath
144.83480838865566 -226.5445427095976 moveto
147.00767619919125 -226.5445427095976 lineto
stroke
newpath
1.0 setlinewidth
10.0 setmiterlimit
0 setlinejoin
0 setlinecap
[ ] 0 setdash
newpath
144.83480838865566 -141.50517263085712 moveto
147.00767619919125 -141.50517263085712 lineto
stroke
newpath
1.0 setlinewidth
10.0 setmiterlimit
0 setlinejoin
0 setlinecap
[ ] 0 setdash
newpath
144.83480838865566 -98.98548759148689 moveto
147.00767619919125 -98.98548759148689 lineto
stroke
newpath
1.0 setlinewidth
10.0 setmiterlimit
0 setlinejoin
0 setlinecap
[ ] 0 setdash
newpath
144.83480838865566 -56.46580255211665 moveto
147.00767619919125 -56.46580255211665 lineto
stroke
newpath
1.0 setlinewidth
10.0 setmiterlimit
0 setlinejoin
0 setlinecap
[ ] 0 setdash
newpath
144.83480838865566 -13.946117512746406 moveto
147.00767619919125 -13.946117512746406 lineto
stroke
newpath
0.0 0.0 1.0 setrgbcolor
1.5 setlinewidth
10.0 setmiterlimit
1 setlinejoin
1 setlinecap
[ ] 0 setdash
newpath
40.37912681245269 -290.6534071592019 moveto
42.90282223823098 -288.1297117334236 lineto
45.42651766400928 -285.60601630764535 lineto
47.950213089787574 -283.082320881867 lineto
50.47390851556587 -280.55862545608875 lineto
52.99760394134416 -278.0349300303105 lineto
55.52129936712245 -275.51123460453215 lineto
58.044994792900745 -272.9875391787539 lineto
60.56869021867904 -270.46384375297555 lineto
63.09238564445733 -267.9401483271973 lineto
65.61608107023562 -265.416452901419 lineto
68.13977649601392 -262.8927574756407 lineto
70.66347192179221 -260.3690620498624 lineto
73.18716734757051 -257.8453666240841 lineto
75.7108627733488 -255.3216711983058 lineto
78.2345581991271 -252.7979757725275 lineto
80.75825362490538 -250.27428034674924 lineto
83.28194905068368 -247.75058492097094 lineto
85.80564447646196 -245.22688949519264 lineto
88.32933990224026 -242.70319406941434 lineto
90.85303532801856 -240.17949864363604 lineto
93.37673075379685 -237.65580321785777 lineto
95.90042617957515 -235.13210779207947 lineto
98.42412160535343 -232.60841236630117 lineto
100.94781703113173 -230.08471694052287 lineto
103.47151245691002 -227.5610215147446 lineto
105.99520788268832 -225.0373260889663 lineto
108.5189033084666 -222.513630663188 lineto
111.0425987342449 -219.9899352374097 lineto
113.56629416002319 -217.46623981163143 lineto
116.08998958580149 -214.94254438585313 lineto
118.61368501157979 -212.41884896007483 lineto
121.13738043735808 -209.89515353429653 lineto
123.66107586313638 -207.37145810851823 lineto
126.18477128891466 -204.84776268273995 lineto
128.70846671469295 -202.32406725696165 lineto
131.23216214047125 -199.80037183118336 lineto
133.75585756624955 -197.27667640540506 lineto
136.27955299202785 -194.75298097962678 lineto
138.80324841780612 -192.22928555384848 lineto
141.32694384358442 -189.70559012807018 lineto
143.85063926936272 -187.18189470229188 lineto
146.37433469514102 -184.65819927651359 lineto
147.00767889079106 -184.02485508086357 lineto
stroke
newpath
0.0 0.0 1.0 setrgbcolor
1.5 setlinewidth
10.0 setmiterlimit
1 setlinejoin
1 setlinecap
[ ] 0 setdash
newpath
147.00767889079106 -98.9854855761397 moveto
148.89803012091932 -97.09513434601143 lineto
151.4217255466976 -94.57143892023313 lineto
153.9454209724759 -92.04774349445485 lineto
156.4691163982542 -89.52404806867655 lineto
158.9928118240325 -87.00035264289826 lineto
161.51650724981076 -84.47665721711996 lineto
164.04020267558906 -81.95296179134168 lineto
166.56389810136736 -79.42926636556338 lineto
169.08759352714566 -76.90557093978508 lineto
171.61128895292393 -74.3818755140068 lineto
174.13498437870223 -71.8581800882285 lineto
176.65867980448053 -69.33448466245021 lineto
179.18237523025883 -66.81078923667191 lineto
181.70607065603713 -64.28709381089362 lineto
184.2297660818154 -61.76339838511532 lineto
186.7534615075937 -59.23970295933703 lineto
189.277156933372 -56.71600753355874 lineto
191.8008523591503 -54.192312107780445 lineto
194.32454778492857 -51.66861668200215 lineto
196.84824321070687 -49.14492125622386 lineto
199.37193863648517 -46.62122583044557 lineto
201.89563406226347 -44.097530404667275 lineto
204.41932948804174 -41.57383497888898 lineto
206.94302491382004 -39.05013955311069 lineto
209.46672033959834 -36.5264441273324 lineto
211.99041576537664 -34.0027487015541 lineto
214.51411119115494 -31.479053275775808 lineto
217.0378066169332 -28.955357849997515 lineto
219.5615020427115 -26.43166242421922 lineto
222.0851974684898 -23.907966998440926 lineto
224.6088928942681 -21.384271572662634 lineto
227.13258832004638 -18.86057614688434 lineto
229.65628374582468 -16.33688072110605 lineto
232.17997917160298 -13.813185295327754 lineto
234.70367459738128 -11.289489178813387 lineto
237.22737002315958 -8.765793753035092 lineto
239.75106544893785 -6.2420983272568 lineto
242.27476087471615 -3.7184029014785067 lineto
244.79845630049445 -1.1947074757002136 lineto
247.32215172627275 1.3289879500780797 lineto
249.84584715205102 3.852683375856373 lineto
stroke
newpath
