%!PS-Adobe-3.0 EPSF-3.0
%%Creator: EpsGraphics 1.0.0 by Thomas Abeel, http://www.sourceforge.net/epsgraphics/
%%Title: GeoGebra, https://www.geogebra.org/
%%CreationDate: Fri Aug 19 14:06:02 CEST 2016
%%BoundingBox: 0 0 532 229
%%DocumentData: Clean7Bit
%%LanguageLevel: 2
%%DocumentProcessColors: Black
%%ColorUsage: Color
%%Origin: 0 0
%%Pages: 1
%%Page: 1 1
%%EndComments

gsave
0.0 229.0 translate
0.0 0.0 0.0 setrgbcolor
0.0 0.0 0.0 setrgbcolor
gsave
newpath
0.0 -0.0 moveto
532.8710967206551 -0.0 lineto
532.8710967206551 -229.2007667571762 lineto
0.0 -229.2007667571762 lineto
0.0 -0.0 lineto
closepath
clip
newpath
1.0 1.0 1.0 setrgbcolor
newpath
0.0 -0.0 moveto
532.8710967206551 -0.0 lineto
532.8710967206551 -229.2007667571762 lineto
0.0 -229.2007667571762 lineto
0.0 -0.0 lineto
closepath
fill
newpath
0.0 0.0 0.0 setrgbcolor
1.0 setlinewidth
10.0 setmiterlimit
0 setlinejoin
0 setlinecap
[ ] 0 setdash
newpath
228.67974584253062 -1.654879182362283 moveto
228.67974584253062 -229.2007667571762 lineto
stroke
newpath
1.0 setlinewidth
10.0 setmiterlimit
0 setlinejoin
0 setlinecap
[ ] 0 setdash
newpath
228.67974584253062 -0.8274395911811415 moveto
225.36998747780606 -4.137197955905708 lineto
stroke
newpath
1.0 setlinewidth
10.0 setmiterlimit
0 setlinejoin
0 setlinecap
[ ] 0 setdash
newpath
228.67974584253062 -0.8274395911811415 moveto
231.9895042072552 -4.137197955905708 lineto
stroke
newpath
1.0 setlinewidth
10.0 setmiterlimit
0 setlinejoin
0 setlinecap
[ ] 0 setdash
newpath
1.9080922992235558 -140.96569095055037 moveto
1.9080922992235558 -143.4480097240938 lineto
stroke
newpath
1.0 setlinewidth
10.0 setmiterlimit
0 setlinejoin
0 setlinecap
[ ] 0 setdash
newpath
0.0 -140.96569095055037 moveto
531.2162175382929 -140.96569095055037 lineto
stroke
newpath
1.0 setlinewidth
10.0 setmiterlimit
0 setlinejoin
0 setlinecap
[ ] 0 setdash
newpath
532.043657129474 -140.96569095055037 moveto
528.7338987647495 -137.6559325858258 lineto
stroke
newpath
1.0 setlinewidth
10.0 setmiterlimit
0 setlinejoin
0 setlinecap
[ ] 0 setdash
newpath
532.043657129474 -140.96569095055037 moveto
528.7338987647495 -144.27544931527495 lineto
stroke
newpath
0.0 0.0 0.0 setrgbcolor
1.0 setlinewidth
10.0 setmiterlimit
0 setlinejoin
0 setlinecap
[ ] 0 setdash
newpath
54.292642706504786 -151.271148541657 moveto
54.292642706504786 -150.61178261743453 lineto
58.23914169413046 -150.61178261743453 lineto
58.23914169413046 -151.271148541657 lineto
closepath
59.756652975613065 -153.85043289229196 moveto
59.756652975613065 -152.9583495830498 lineto
60.441876407481196 -153.22985320699755 60.981651438745445 -153.36560500683427 61.37597811304178 -153.36560500683427 curveto
61.831716338954074 -153.36560500683427 62.202609662009614 -153.23227733435994 62.48865811016721 -152.96562200133167 curveto
62.77470657111216 -152.698966656383 62.91773078879727 -152.3539308128698 62.91773078879727 -151.9305144658795 curveto
62.91773078879727 -150.92207243407356 62.211498147933185 -150.41785146325145 60.79903292934712 -150.41785146325145 curveto
60.420867178690116 -150.41785146325145 lineto
60.420867178690116 -149.77303037559273 lineto
60.755398419655926 -149.76818209673814 lineto
62.080594679400896 -149.76818209673814 62.7431927500325 -149.30113121982802 62.7431927500325 -148.36702950776538 curveto
62.7431927500325 -147.63332328590658 62.30684764011647 -147.26647020777642 61.434157459296706 -147.26647020777642 curveto
60.95579393138877 -147.26647020777642 60.42894763487467 -147.4006059267506 59.8536185527046 -147.6688773527063 curveto
59.8536185527046 -146.83497338971907 lineto
60.41925110259575 -146.64427441575575 60.968722697204264 -146.548924937299 61.502033363260786 -146.548924937299 curveto
62.96944580697839 -146.548924937299 63.703151963238746 -147.10324483619235 63.703151963238746 -148.21188458441893 curveto
63.703151963238746 -149.05548513025659 63.203779226334845 -149.65667168842901 62.20503379717445 -150.01544431832156 curveto
63.36215638495177 -150.28371575626994 63.94071762711302 -150.91722420015535 63.94071762711302 -151.91596962931575 curveto
63.94071762711302 -152.59149650318574 63.71769679315594 -153.12157497688534 63.27165514518139 -153.506205093617 curveto
62.82561347726723 -153.890835227543 62.21311425032472 -154.08315027731166 61.434157459296706 -154.08315027731166 curveto
60.99134797738192 -154.08315027731166 60.432179819284656 -154.0055778133266 59.756652975613065 -153.85043289229196 curveto
closepath
fill
newpath
1.0 setlinewidth
10.0 setmiterlimit
0 setlinejoin
0 setlinecap
[ ] 0 setdash
newpath
58.601005685050325 -140.96569095055037 moveto
58.601005685050325 -143.4480097240938 lineto
stroke
newpath
0.0 0.0 0.0 setrgbcolor
1.0 setlinewidth
10.0 setmiterlimit
0 setlinejoin
0 setlinecap
[ ] 0 setdash
newpath
111.38597449800355 -151.271148541657 moveto
111.38597449800355 -150.61178261743453 lineto
115.33247348562922 -150.61178261743453 lineto
115.33247348562922 -151.271148541657 lineto
closepath
116.6657501706379 -153.90376395969233 moveto
116.6657501706379 -153.0650117178505 lineto
116.94371816658442 -152.41534233197552 117.50611851805004 -151.70749362715424 118.3529512120307 -150.94146557954576 curveto
118.9008067225979 -150.4517894152335 lineto
119.60542327046231 -149.81504877335604 119.95773151289569 -149.18315643894218 119.95773151289569 -148.5561123830939 curveto
119.95773151289569 -148.15532131917104 119.83733258441886 -147.84018320214844 119.5965347382297 -147.61069800645137 curveto
119.35573688127604 -147.38121280049555 119.02524587360413 -147.26647020777642 118.6050617124687 -147.26647020777642 curveto
118.1073050685645 -147.26647020777642 117.52066333192884 -147.4587852747394 116.84513648825725 -147.84341539147107 curveto
116.84513648825725 -146.99981487077469 lineto
117.48187713013472 -146.69922157283253 118.11376946454858 -146.548924937299 118.74081352039686 -146.548924937299 curveto
119.41310820826747 -146.548924937299 119.95288324010968 -146.72992735326417 120.36013865782557 -147.09193216901164 curveto
120.7673940937472 -147.45393700094198 120.97102179350227 -147.93391660566672 120.97102179350227 -148.531870988821 curveto
120.97102179350227 -148.96175172673827 120.86839988802203 -149.34314965544772 120.66315608623664 -149.6760647985012 curveto
120.45791227527614 -150.00897995643712 120.07570629002481 -150.4130031914769 119.51653813712917 -150.88813451214543 curveto
119.14806894418133 -151.20327263769292 lineto
118.38204086232875 -151.8529420235679 117.93923141465808 -152.473521706406 117.81964053802723 -153.0650117178505 curveto
120.93708384152023 -153.0650117178505 lineto
120.93708384152023 -153.90376395969233 lineto
closepath
fill
newpath
1.0 setlinewidth
10.0 setmiterlimit
0 setlinejoin
0 setlinecap
[ ] 0 setdash
newpath
115.2939190708771 -140.96569095055037 moveto
115.2939190708771 -143.4480097240938 lineto
stroke
newpath
0.0 0.0 0.0 setrgbcolor
1.0 setlinewidth
10.0 setmiterlimit
0 setlinejoin
0 setlinecap
[ ] 0 setdash
newpath
167.6518666983212 -151.271148541657 moveto
167.6518666983212 -150.61178261743453 lineto
171.59836568594685 -150.61178261743453 lineto
171.59836568594685 -151.271148541657 lineto
closepath
173.60070485288716 -153.90376395969233 moveto
173.60070485288716 -153.18621868921494 lineto
175.03579539384194 -153.18621868921494 lineto
175.03579539384194 -147.523428987069 lineto
173.60070485288716 -147.8822016223077 lineto
173.60070485288716 -147.14526323641198 lineto
175.99575460704818 -146.548924937299 lineto
175.99575460704818 -153.18621868921494 lineto
177.430845148003 -153.18621868921494 lineto
177.430845148003 -153.90376395969233 lineto
closepath
fill
newpath
1.0 setlinewidth
10.0 setmiterlimit
0 setlinejoin
0 setlinecap
[ ] 0 setdash
newpath
171.98683245670387 -140.96569095055037 moveto
171.98683245670387 -143.4480097240938 lineto
stroke
newpath
0.0 0.0 0.0 setrgbcolor
1.0 setlinewidth
10.0 setmiterlimit
0 setlinejoin
0 setlinecap
[ ] 0 setdash
newpath
236.45055973772034 -154.08315027731166 moveto
235.71038914386278 -154.08315027731166 235.11162672056622 -153.7348822358787 234.65427242209955 -153.03834618415033 curveto
234.19691810318758 -152.34181010128438 233.9682409641769 -151.4327578200969 233.9682409641769 -150.31118932845075 curveto
233.9682409641769 -149.17992422866848 234.1985342166326 -148.27006392041505 234.65912070095413 -147.5816083333239 curveto
235.1197072058655 -146.8931527154564 235.7265501066589 -146.548924937299 236.4796494108478 -146.548924937299 curveto
237.23274874870287 -146.548924937299 237.83959163641993 -146.89315274623277 238.30017812074146 -147.5816083333239 curveto
238.76076462565283 -148.27006395119142 238.99105785751868 -149.1750760002409 238.99105785751868 -150.29664449188704 curveto
238.99105785751868 -151.4473027076656 238.760764605063 -152.36605152655036 238.30017812074146 -153.05289102071407 curveto
237.8395916158301 -153.73973054558186 237.22305215703858 -154.08315027731166 236.45055973772034 -154.08315027731166 curveto
closepath
236.4602562954295 -153.36560500683427 moveto
237.4719305132348 -153.36560500683427 237.9777675769121 -152.33776985903208 237.9777675769121 -150.2820996553233 curveto
237.9777675769121 -148.2716799637102 237.4783948400082 -147.26647020777642 236.4796494108478 -147.26647020777642 curveto
235.48413612303938 -147.26647020777642 234.98637952363808 -148.2813766115811 234.98637952363808 -150.31118932845075 curveto
234.98637952363808 -152.3474665080589 235.47767179554353 -153.36560500683427 236.4602562954295 -153.36560500683427 curveto
closepath
fill
newpath
1.0 setlinewidth
10.0 setmiterlimit
0 setlinejoin
0 setlinecap
[ ] 0 setdash
newpath
228.67974584253062 -140.96569095055037 moveto
228.67974584253062 -143.4480097240938 lineto
stroke
newpath
0.0 0.0 0.0 setrgbcolor
1.0 setlinewidth
10.0 setmiterlimit
0 setlinejoin
0 setlinecap
[ ] 0 setdash
newpath
284.47761007116014 -153.90376395969233 moveto
284.47761007116014 -153.18621868921494 lineto
285.9127006121149 -153.18621868921494 lineto
285.9127006121149 -147.523428987069 lineto
284.47761007116014 -147.8822016223077 lineto
284.47761007116014 -147.14526323641198 lineto
286.87265982532114 -146.548924937299 lineto
286.87265982532114 -153.18621868921494 lineto
288.30775036627597 -153.18621868921494 lineto
288.30775036627597 -153.90376395969233 lineto
closepath
fill
newpath
1.0 setlinewidth
10.0 setmiterlimit
0 setlinejoin
0 setlinecap
[ ] 0 setdash
newpath
285.3726592283574 -140.96569095055037 moveto
285.3726592283574 -143.4480097240938 lineto
stroke
newpath
0.0 0.0 0.0 setrgbcolor
1.0 setlinewidth
10.0 setmiterlimit
0 setlinejoin
0 setlinecap
[ ] 0 setdash
newpath
340.9018793807273 -153.90376395969233 moveto
340.9018793807273 -153.0650117178505 lineto
341.17984737667376 -152.41534233197552 341.7422477281394 -151.70749362715424 342.58908042212005 -150.94146557954576 curveto
343.13693593268727 -150.4517894152335 lineto
343.8415524805517 -149.81504877335604 344.19386072298505 -149.18315643894218 344.19386072298505 -148.5561123830939 curveto
344.19386072298505 -148.15532131917104 344.0734617945082 -147.84018320214844 343.83266394831907 -147.61069800645137 curveto
343.59186609136543 -147.38121280049555 343.2613750836935 -147.26647020777642 342.84119092255804 -147.26647020777642 curveto
342.3434342786539 -147.26647020777642 341.7567925420182 -147.4587852747394 341.0812656983466 -147.84341539147107 curveto
341.0812656983466 -146.99981487077469 lineto
341.71800634022406 -146.69922157283253 342.3498986746379 -146.548924937299 342.9769427304862 -146.548924937299 curveto
343.64923741835685 -146.548924937299 344.1890124501991 -146.72992735326417 344.59626786791495 -147.09193216901164 curveto
345.0035233038365 -147.45393700094198 345.2071510035916 -147.93391660566672 345.2071510035916 -148.531870988821 curveto
345.2071510035916 -148.96175172673827 345.10452909811136 -149.34314965544772 344.899285296326 -149.6760647985012 curveto
344.6940414853655 -150.00897995643712 344.31183550011417 -150.4130031914769 343.7526673472185 -150.88813451214543 curveto
343.3841981542707 -151.20327263769292 lineto
342.6181700724181 -151.8529420235679 342.17536062474744 -152.473521706406 342.0557697481166 -153.0650117178505 curveto
345.1732130516096 -153.0650117178505 lineto
345.1732130516096 -153.90376395969233 lineto
closepath
fill
newpath
1.0 setlinewidth
10.0 setmiterlimit
0 setlinejoin
0 setlinecap
[ ] 0 setdash
newpath
342.0655726141842 -140.96569095055037 moveto
342.0655726141842 -143.4480097240938 lineto
stroke
newpath
0.0 0.0 0.0 setrgbcolor
1.0 setlinewidth
10.0 setmiterlimit
0 setlinejoin
0 setlinecap
[ ] 0 setdash
newpath
397.35200617751883 -153.85043289229196 moveto
397.35200617751883 -152.9583495830498 lineto
398.03722960938694 -153.22985320699755 398.5770046406512 -153.36560500683427 398.9713313149475 -153.36560500683427 curveto
399.4270695408598 -153.36560500683427 399.79796286391536 -153.23227733435994 400.08401131207296 -152.96562200133167 curveto
400.3700597730179 -152.698966656383 400.513083990703 -152.3539308128698 400.513083990703 -151.9305144658795 curveto
400.513083990703 -150.92207243407356 399.80685134983895 -150.41785146325145 398.3943861312529 -150.41785146325145 curveto
398.0162203805958 -150.41785146325145 lineto
398.0162203805958 -149.77303037559273 lineto
398.35075162156164 -149.76818209673814 lineto
399.6759478813066 -149.76818209673814 400.3385459519382 -149.30113121982802 400.3385459519382 -148.36702950776538 curveto
400.3385459519382 -147.63332328590658 399.9022008420222 -147.26647020777642 399.02951066120244 -147.26647020777642 curveto
398.5511471332945 -147.26647020777642 398.0243008367804 -147.4006059267506 397.44897175461034 -147.6688773527063 curveto
397.44897175461034 -146.83497338971907 lineto
398.01460430450146 -146.64427441575575 398.56407589911 -146.548924937299 399.0973865651665 -146.548924937299 curveto
400.5647990088841 -146.548924937299 401.2985051651445 -147.10324483619235 401.2985051651445 -148.21188458441893 curveto
401.2985051651445 -149.05548513025659 400.7991324282406 -149.65667168842901 399.8003869990802 -150.01544431832156 curveto
400.9575095868575 -150.28371575626994 401.53607082901874 -150.91722420015535 401.53607082901874 -151.91596962931575 curveto
401.53607082901874 -152.59149650318574 401.31304999506165 -153.12157497688534 400.8670083470871 -153.506205093617 curveto
400.420966679173 -153.890835227543 399.80846745223045 -154.08315027731166 399.02951066120244 -154.08315027731166 curveto
398.5867011792877 -154.08315027731166 398.0275330211904 -154.0055778133266 397.35200617751883 -153.85043289229196 curveto
closepath
fill
newpath
1.0 setlinewidth
10.0 setmiterlimit
0 setlinejoin
0 setlinecap
[ ] 0 setdash
newpath
398.7584860000109 -140.96569095055037 moveto
398.7584860000109 -143.4480097240938 lineto
stroke
newpath
0.0 0.0 0.0 setrgbcolor
1.0 setlinewidth
10.0 setmiterlimit
0 setlinejoin
0 setlinecap
[ ] 0 setdash
newpath
457.1749189641444 -153.90376395969233 moveto
457.1749189641444 -151.87233511962455 lineto
453.94596524699614 -151.87233511962455 lineto
453.94596524699614 -151.14994157029258 lineto
457.1749189641444 -146.72831125491837 lineto
458.0718505522412 -146.72831125491837 lineto
458.0718505522412 -151.09176222403767 lineto
459.0318097654474 -151.09176222403767 lineto
459.0318097654474 -151.87233511962455 lineto
458.0718505522412 -151.87233511962455 lineto
458.0718505522412 -153.90376395969233 lineto
closepath
454.8816830659295 -151.09176222403767 moveto
457.2379465892539 -151.09176222403767 lineto
457.2379465892539 -147.901594737726 lineto
closepath
fill
newpath
1.0 setlinewidth
10.0 setmiterlimit
0 setlinejoin
0 setlinecap
[ ] 0 setdash
newpath
455.45139938583765 -140.96569095055037 moveto
455.45139938583765 -143.4480097240938 lineto
stroke
newpath
0.0 0.0 0.0 setrgbcolor
1.0 setlinewidth
10.0 setmiterlimit
0 setlinejoin
0 setlinecap
[ ] 0 setdash
newpath
510.91000960237284 -153.93285363281979 moveto
510.91000960237284 -153.07955655441424 lineto
511.3851409442814 -153.27025552837753 511.8376469629543 -153.36560500683427 512.2675276816544 -153.36560500683427 curveto
512.7394268375635 -153.36560500683427 513.1103201598967 -153.22662100886103 513.3802076787798 -152.94865302534066 curveto
513.6500952097279 -152.67068502939415 513.785038963137 -152.287671000894 513.785038963137 -151.7996109368059 curveto
513.785038963137 -150.72329299901304 513.0432522762798 -150.18513407823175 511.55967896888615 -150.18513407823175 curveto
511.3916052969185 -150.18513407823175 511.21545116746586 -150.1964467292296 511.03121657373725 -150.2190720302138 curveto
511.03121657373725 -146.72831125491837 lineto
514.6625774358155 -146.72831125491837 lineto
514.6625774358155 -147.56221521790562 lineto
511.8699688155791 -147.56221521790562 lineto
511.8699688155791 -149.45304397119062 lineto
512.7911418254018 -149.45304397119062 513.5103031690838 -149.66475215414988 514.0274529058659 -150.08816850114022 curveto
514.5446026657663 -150.51158486705873 514.8031775225982 -151.09822660701766 514.8031775225982 -151.84809372535167 curveto
514.8031775225982 -152.5462459012173 514.5680359911435 -153.0932933504022 514.0977529492573 -153.48923611762598 curveto
513.6274698863477 -153.88517890254977 512.9753763819965 -154.08315027731166 512.1414724314354 -154.08315027731166 curveto
511.7794675995051 -154.08315027731166 511.36897999376697 -154.03305139432132 510.91000960237284 -153.93285363281979 curveto
closepath
fill
newpath
1.0 setlinewidth
10.0 setmiterlimit
0 setlinejoin
0 setlinecap
[ ] 0 setdash
newpath
512.1443127716644 -140.96569095055037 moveto
512.1443127716644 -143.4480097240938 lineto
stroke
newpath
0.0 0.0 0.0 setrgbcolor
1.0 setlinewidth
10.0 setmiterlimit
0 setlinejoin
0 setlinecap
[ ] 0 setdash
newpath
211.50616503092166 -198.43520523898206 moveto
211.50616503092166 -197.7758393147596 lineto
215.45266401854735 -197.7758393147596 lineto
215.45266401854735 -198.43520523898206 lineto
closepath
217.45500318548764 -201.0678206570174 moveto
217.45500318548764 -200.35027538654 lineto
218.89009372644244 -200.35027538654 lineto
218.89009372644244 -194.68748568439406 lineto
217.45500318548764 -195.04625831963276 lineto
217.45500318548764 -194.30931993373704 lineto
219.8500529396487 -193.71298163462407 lineto
219.8500529396487 -200.35027538654 lineto
221.2851434806035 -200.35027538654 lineto
221.2851434806035 -201.0678206570174 lineto
closepath
fill
newpath
1.0 setlinewidth
10.0 setmiterlimit
0 setlinejoin
0 setlinecap
[ ] 0 setdash
newpath
226.1974270689872 -197.65860433637712 moveto
228.67974584253062 -197.65860433637712 lineto
stroke
newpath
0.0 0.0 0.0 setrgbcolor
1.0 setlinewidth
10.0 setmiterlimit
0 setlinejoin
0 setlinecap
[ ] 0 setdash
newpath
219.07432832291636 -139.18923763605113 moveto
218.3341577290588 -139.18923763605113 217.73539530576224 -138.84096959461814 217.2780410072956 -138.14443354288977 curveto
216.82068668838363 -137.44789746002382 216.59200954937296 -136.53884517883637 216.59200954937296 -135.41727668719022 curveto
216.59200954937296 -134.28601158740793 216.82230280182864 -133.3761512791545 217.28288928615018 -132.68769569206336 curveto
217.74347579106154 -131.99924007419585 218.35031869185494 -131.65501229603848 219.10341799604385 -131.65501229603848 curveto
219.8565173338989 -131.65501229603848 220.46336022161594 -131.99924010497222 220.9239467059375 -132.68769569206336 curveto
221.38453321084887 -133.37615130993086 221.61482644271473 -134.28116335898034 221.61482644271473 -135.40273185062648 curveto
221.61482644271473 -136.55339006640506 221.38453319025905 -137.4721388852898 220.9239467059375 -138.15897837945352 curveto
220.46336020102612 -138.84581790432134 219.8468207422346 -139.18923763605113 219.07432832291636 -139.18923763605113 curveto
closepath
219.08402488062552 -138.47169236557372 moveto
220.09569909843083 -138.47169236557372 220.60153616210812 -137.44385721777152 220.60153616210812 -135.38818701406277 curveto
220.60153616210812 -133.37776732244967 220.10216342520422 -132.37255756651587 219.10341799604385 -132.37255756651587 curveto
218.10790470823542 -132.37255756651587 217.61014810883412 -133.38746397032054 217.61014810883412 -135.41727668719022 curveto
217.61014810883412 -137.45355386679833 218.10144038073958 -138.47169236557372 219.08402488062552 -138.47169236557372 curveto
closepath
fill
newpath
0.0 0.0 0.0 setrgbcolor
1.0 setlinewidth
10.0 setmiterlimit
0 setlinejoin
0 setlinecap
[ ] 0 setdash
newpath
217.45500318548764 -87.708596665201 moveto
217.45500318548764 -86.9910513947236 lineto
218.89009372644244 -86.9910513947236 lineto
218.89009372644244 -81.32826169257767 lineto
217.45500318548764 -81.68703432781636 lineto
217.45500318548764 -80.95009594192067 lineto
219.8500529396487 -80.3537576428077 lineto
219.8500529396487 -86.9910513947236 lineto
221.2851434806035 -86.9910513947236 lineto
221.2851434806035 -87.708596665201 lineto
closepath
fill
newpath
1.0 setlinewidth
10.0 setmiterlimit
0 setlinejoin
0 setlinecap
[ ] 0 setdash
newpath
226.1974270689872 -84.27277756472364 moveto
228.67974584253062 -84.27277756472364 lineto
stroke
newpath
0.0 0.0 0.0 setrgbcolor
1.0 setlinewidth
10.0 setmiterlimit
0 setlinejoin
0 setlinecap
[ ] 0 setdash
newpath
216.78594070355604 -31.442704464883377 moveto
216.78594070355604 -30.603952223041556 lineto
217.06390869950255 -29.954282837166584 217.62630905096816 -29.24643413234529 218.47314174494883 -28.48040608473683 curveto
219.02099725551602 -27.990729920424553 lineto
219.7256138033804 -27.35398927854709 220.0779220458138 -26.72209694413322 220.0779220458138 -26.095052888284947 curveto
220.0779220458138 -25.694261824362076 219.957523117337 -25.379123707339478 219.71672527114782 -25.14963851164243 curveto
219.47592741419416 -24.920153305686593 219.14543640652226 -24.805410712967465 218.72525224538683 -24.805410712967465 curveto
218.22749560148262 -24.805410712967465 217.64085386484697 -24.997725779930455 216.96532702117537 -25.382355896662126 curveto
216.96532702117537 -24.538755375965728 lineto
217.60206766305282 -24.238162078023574 218.2339599974667 -24.087865442490067 218.86100405331499 -24.087865442490067 curveto
219.5332987411856 -24.087865442490067 220.0730737730278 -24.268867858455234 220.4803291907437 -24.630872674202692 curveto
220.88758462666533 -24.992877506133024 221.0912123264204 -25.472857110857777 221.0912123264204 -26.070811494012062 curveto
221.0912123264204 -26.500692231929335 220.98859042094014 -26.882090160638768 220.78334661915477 -27.215005303692234 curveto
220.57810280819427 -27.547920461628166 220.19589682294293 -27.951943696667946 219.6367286700473 -28.427075017336485 curveto
219.26825947709946 -28.742213142883987 lineto
218.50223139524687 -29.391882528758963 218.0594219475762 -30.01246221159705 217.93983107094536 -30.603952223041556 curveto
221.05727437443838 -30.603952223041556 lineto
221.05727437443838 -31.442704464883377 lineto
closepath
fill
newpath
1.0 setlinewidth
10.0 setmiterlimit
0 setlinejoin
0 setlinecap
[ ] 0 setdash
newpath
226.1974270689872 -27.579864178896912 moveto
228.67974584253062 -27.579864178896912 lineto
stroke
newpath
1.0 0.0 0.0 setrgbcolor
2.5 setlinewidth
10.0 setmiterlimit
1 setlinejoin
1 setlinecap
[ ] 0 setdash
newpath
228.67975354047576 -84.27277673739434 moveto
233.13110481528662 -88.7241343250683 lineto
237.29416025841675 -92.88718976819843 lineto
241.45721570154686 -97.05024521132854 lineto
245.620271144677 -101.21330065445866 lineto
249.7833265878071 -105.37635609758878 lineto
253.9463820309372 -109.5394115407189 lineto
258.1094374740673 -113.70246698384902 lineto
262.27249291719744 -117.86552242697914 lineto
266.4355483603276 -122.02857787010926 lineto
270.5986038034577 -126.19163331323938 lineto
274.7616592465878 -130.35468875636948 lineto
278.9247146897179 -134.51774419949962 lineto
283.08777013284805 -138.68079964262972 lineto
285.3726478003293 -140.96568993583716 lineto
stroke
newpath
1.0 0.0 0.0 setrgbcolor
2.5 setlinewidth
10.0 setmiterlimit
1 setlinejoin
1 setlinecap
[ ] 0 setdash
newpath
171.98683402916984 -140.96568993583716 moveto
174.84832861146498 -138.10419535354202 lineto
179.01138405459508 -133.94113991041192 lineto
183.17443949772522 -129.7780844672818 lineto
187.33749494085532 -125.61502902415167 lineto
191.50055038398543 -121.45197358102156 lineto
195.66360582711556 -117.28891813789144 lineto
199.82666127024567 -113.12586269476132 lineto
203.9897167133758 -108.9628072516312 lineto
208.1527721565059 -104.79975180850109 lineto
212.31582759963604 -100.63669636537097 lineto
216.47888304276614 -96.47364092224085 lineto
220.64193848589628 -92.31058547911073 lineto
224.80499392902638 -88.14753003598061 lineto
228.67975354047576 -84.27277673739434 lineto
stroke
newpath
1.0 0.0 0.0 setrgbcolor
2.5 setlinewidth
10.0 setmiterlimit
1 setlinejoin
1 setlinecap
[ ] 0 setdash
newpath
285.3726478003293 -140.96568993583716 moveto
287.2508255759782 -139.08752478591447 lineto
291.41388101910826 -134.92446934278436 lineto
295.5769364622384 -130.76141389965423 lineto
299.7399919053685 -126.59835845652412 lineto
303.90304734849866 -122.435303013394 lineto
308.06610279162874 -118.27224757026389 lineto
312.22915823475887 -114.10919212713377 lineto
316.392213677889 -109.94613668400365 lineto
320.5552691210191 -105.78308124087353 lineto
324.7183245641492 -101.62002579774341 lineto
328.88138000727935 -97.45697035461329 lineto
333.0444354504095 -93.29391491148317 lineto
337.20749089353956 -89.13085946835305 lineto
341.3705463366697 -84.96780402522295 lineto
342.0655673116352 -84.27277673739434 lineto
stroke
newpath
1.0 0.0 0.0 setrgbcolor
2.5 setlinewidth
10.0 setmiterlimit
1 setlinejoin
1 setlinecap
[ ] 0 setdash
newpath
342.0655673116352 -84.27277673739434 moveto
345.5336017797998 -87.74080489269586 lineto
349.69665722292996 -91.90386033582598 lineto
353.85971266606003 -96.0669157789561 lineto
358.02276810919017 -100.22997122208622 lineto
362.1858235523203 -104.39302666521634 lineto
366.34887899545043 -108.55608210834644 lineto
370.5119344385805 -112.71913755147656 lineto
374.67498988171064 -116.88219299460668 lineto
378.8380453248408 -121.0452484377368 lineto
383.00110076797085 -125.20830388086692 lineto
387.164156211101 -129.37135932399704 lineto
391.3272116542311 -133.53441476712717 lineto
395.49026709736125 -137.69747021025728 lineto
398.7584868229411 -140.96568993583716 lineto
stroke
newpath
1.0 0.0 0.0 setrgbcolor
2.5 setlinewidth
10.0 setmiterlimit
1 setlinejoin
1 setlinecap
[ ] 0 setdash
newpath
398.7584868229411 -140.96568993583716 moveto
399.65332254049133 -140.07085421828694 lineto
403.81637798362146 -135.9077987751568 lineto
407.9794334267516 -131.7447433320267 lineto
412.14248886988173 -127.58168788889657 lineto
416.3055443130118 -123.41863244576645 lineto
420.46859975614194 -119.25557700263633 lineto
424.6316551992721 -115.09252155950622 lineto
428.7947106424022 -110.9294661163761 lineto
432.9577660855323 -106.76641067324599 lineto
437.1208215286624 -102.60335523011587 lineto
441.28387697179255 -98.44029978698575 lineto
445.4469324149226 -94.27724434385563 lineto
449.60998785805276 -90.11418890072551 lineto
453.7730433011829 -85.95113345759539 lineto
455.45140633424705 -84.27277673739434 lineto
stroke
newpath
1.0 0.0 0.0 setrgbcolor
2.5 setlinewidth
10.0 setmiterlimit
1 setlinejoin
1 setlinecap
[ ] 0 setdash
newpath
455.45140633424705 -84.27277673739434 moveto
457.936098744313 -86.7574754603234 lineto
462.0991541874431 -90.92053090345352 lineto
466.26220963057324 -95.08358634658364 lineto
470.4252650737034 -99.24664178971376 lineto
474.5883205168335 -103.40969723284388 lineto
478.7513759599636 -107.572752675974 lineto
482.9144314030937 -111.73580811910412 lineto
487.07748684622385 -115.89886356223424 lineto
491.240542289354 -120.06191900536436 lineto
495.40359773248406 -124.22497444849448 lineto
499.5666531756142 -128.3880298916246 lineto
503.7297086187443 -132.5510853347547 lineto
507.8927640618744 -136.71414077788484 lineto
512.0558195050046 -140.87719622101494 lineto
stroke
newpath
1.0 0.0 0.0 setrgbcolor
2.5 setlinewidth
10.0 setmiterlimit
1 setlinejoin
1 setlinecap
[ ] 0 setdash
newpath
512.1443005941006 -140.96568993583716 moveto
516.2188749481346 -136.89112820752925 lineto
520.3819303912647 -132.72807276439914 lineto
524.5449858343949 -128.565017321269 lineto
528.708041277525 -124.4019618781389 lineto
532.8710967206551 -120.23890643500879 lineto
stroke
newpath
1.0 0.0 0.0 setrgbcolor
2.5 setlinewidth
10.0 setmiterlimit
1 setlinejoin
1 setlinecap
[ ] 0 setdash
newpath
115.29391451786393 -84.27277673739434 moveto
116.56555240764331 -85.54440831431064 lineto
120.72860785077343 -89.70746375744076 lineto
124.89166329390355 -93.87051920057088 lineto
129.05471873703365 -98.033574643701 lineto
133.2177741801638 -102.19663008683112 lineto
137.3808296232939 -106.35968552996123 lineto
141.54388506642402 -110.52274097309135 lineto
145.70694050955413 -114.68579641622146 lineto
149.86999595268426 -118.84885185935158 lineto
154.03305139581437 -123.0119073024817 lineto
158.1961068389445 -127.17496274561182 lineto
162.3591622820746 -131.33801818874196 lineto
166.52221772520474 -135.50107363187206 lineto
170.68527316833485 -139.66412907500217 lineto
171.98683402916984 -140.96568993583716 lineto
stroke
newpath
1.0 0.0 0.0 setrgbcolor
2.5 setlinewidth
10.0 setmiterlimit
1 setlinejoin
1 setlinecap
[ ] 0 setdash
newpath
58.601007632284194 -140.96568993583716 moveto
62.445831646951774 -137.12086592116958 lineto
66.6088870900819 -132.95781047803945 lineto
70.77194253321201 -128.79475503490934 lineto
74.93499797634213 -124.63169959177922 lineto
79.09805341947225 -120.4686441486491 lineto
83.26110886260237 -116.30558870551899 lineto
87.42416430573249 -112.14253326238887 lineto
91.58721974886261 -107.97947781925875 lineto
95.75027519199271 -103.81642237612863 lineto
99.91333063512283 -99.65336693299851 lineto
104.07638607825295 -95.49031148986839 lineto
108.23944152138307 -91.32725604673828 lineto
112.40249696451319 -87.16420060360817 lineto
115.29391451786393 -84.27277673739434 lineto
stroke
newpath
1.0 0.0 0.0 setrgbcolor
2.5 setlinewidth
10.0 setmiterlimit
1 setlinejoin
1 setlinecap
[ ] 0 setdash
newpath
1.9080916719637664 -84.27277673739434 moveto
4.163055443130118 -86.52773774668309 lineto
8.326110886260237 -90.6907931898132 lineto
12.489166329390354 -94.85384863294333 lineto
16.652221772520473 -99.01690407607344 lineto
20.815277215650593 -103.17995951920356 lineto
24.978332658780708 -107.34301496233368 lineto
29.141388101910827 -111.5060704054638 lineto
33.30444354504095 -115.66912584859392 lineto
37.467498988171066 -119.83218129172404 lineto
41.630554431301185 -123.99523673485416 lineto
45.793609874431304 -128.15829217798426 lineto
49.956665317561416 -132.3213476211144 lineto
54.119720760691536 -136.4844030642445 lineto
58.282776203821655 -140.64745850737464 lineto
stroke
newpath
