%!PS-Adobe-3.0 EPSF-3.0
%%Creator: EpsGraphics 1.0.0 by Thomas Abeel, http://www.sourceforge.net/epsgraphics/
%%Title: GeoGebra, http://www.geogebra.org/
%%CreationDate: Sat Aug 16 15:42:43 CEST 2014
%%BoundingBox: 0 0 274 242
%%DocumentData: Clean7Bit
%%LanguageLevel: 2
%%DocumentProcessColors: Black
%%ColorUsage: Color
%%Origin: 0 0
%%Pages: 1
%%Page: 1 1
%%EndComments

gsave
0.0 242.0 translate
0.0 0.0 0.0 setrgbcolor
0.0 0.0 0.0 setrgbcolor
gsave
newpath
0.0 -0.0 moveto
274.2547044335284 -0.0 lineto
274.2547044335284 -242.76789144531963 lineto
0.0 -242.76789144531963 lineto
0.0 -0.0 lineto
closepath
clip
newpath
1.0 1.0 1.0 setrgbcolor
newpath
0.0 -0.0 moveto
274.2547044335284 -0.0 lineto
274.2547044335284 -242.76789144531963 lineto
0.0 -242.76789144531963 lineto
0.0 -0.0 lineto
closepath
fill
newpath
0.0 0.0 0.0 setrgbcolor
1.0 setlinewidth
10.0 setmiterlimit
0 setlinejoin
0 setlinecap
[ ] 0 setdash
newpath
18.177716771387754 -0.9126612460350362 moveto
18.177716771387754 -242.76789144531963 lineto
stroke
newpath
1.0 setlinewidth
10.0 setmiterlimit
0 setlinejoin
0 setlinecap
[ ] 0 setdash
newpath
18.405882082896515 -0.4563306230175181 moveto
16.8087249023352 -1.8253224920700724 lineto
stroke
newpath
1.0 setlinewidth
10.0 setmiterlimit
0 setlinejoin
0 setlinecap
[ ] 0 setdash
newpath
17.949551459878997 -0.4563306230175181 moveto
19.546708640440308 -1.8253224920700724 lineto
stroke
newpath
1.0 setlinewidth
10.0 setmiterlimit
0 setlinejoin
0 setlinecap
[ ] 0 setdash
newpath
0.0 -222.12282040205548 moveto
273.34204318749335 -222.12282040205548 lineto
stroke
newpath
1.0 setlinewidth
10.0 setmiterlimit
0 setlinejoin
0 setlinecap
[ ] 0 setdash
newpath
273.79837381051084 -222.35098571356423 moveto
272.4293819414583 -220.75382853300292 lineto
stroke
newpath
1.0 setlinewidth
10.0 setmiterlimit
0 setlinejoin
0 setlinecap
[ ] 0 setdash
newpath
273.79837381051084 -221.8946550905467 moveto
272.4293819414583 -223.49181227110805 lineto
stroke
newpath
0.0 0.0 0.0 setrgbcolor
1.0 setlinewidth
10.0 setmiterlimit
0 setlinejoin
0 setlinecap
[ ] 0 setdash
newpath
21.965367586458463 -228.24775405295654 moveto
21.625199240803042 -228.24775405295654 21.350019404338717 -228.08769667634357 21.139828056048355 -227.76758193742785 curveto
20.92963669836171 -227.44746718420188 20.82454102891467 -227.02968402289824 20.82454102891467 -226.51423244793884 curveto
20.82454102891467 -225.99432449606374 20.93037943340353 -225.57616998086874 21.142056232918556 -225.25976887001468 curveto
21.353733041896277 -224.94336774501642 21.632626512332298 -224.78516719666152 21.97873664767968 -224.78516719666152 curveto
22.32484679849939 -224.78516719666152 22.603740262925776 -224.94336775916065 22.815417062440805 -225.25976887001468 curveto
23.027093871418522 -225.57616999501298 23.13293226644469 -225.99209634236882 23.13293226644469 -226.50754791732822 curveto
23.13293226644469 -227.03636857694974 23.02709386195583 -227.45860808279676 22.815417062440805 -227.77426646803846 curveto
22.603740253463084 -228.0899248673912 22.320390429153846 -228.24775405295654 21.965367586458463 -228.24775405295654 curveto
closepath
21.969823940198868 -227.91798387616655 moveto
22.434770194304317 -227.91798387616655 22.667243300572324 -227.44561036560575 22.667243300572324 -226.5008633867176 curveto
22.667243300572324 -225.576912683671 22.437741076101744 -225.1149373734515 21.97873664767968 -225.1149373734515 curveto
21.52121765002959 -225.1149373734515 21.29245817165724 -225.58136907884804 21.29245817165724 -226.51423244793884 curveto
21.29245817165724 -227.45006676131402 21.51824676790014 -227.91798387616655 21.969823940198868 -227.91798387616655 curveto
closepath
fill
newpath
1.0 setlinewidth
10.0 setmiterlimit
0 setlinejoin
0 setlinecap
[ ] 0 setdash
newpath
18.177716771387754 -222.12282040205548 moveto
18.177716771387754 -223.94814289412554 lineto
stroke
newpath
0.0 0.0 0.0 setrgbcolor
1.0 setlinewidth
10.0 setmiterlimit
0 setlinejoin
0 setlinecap
[ ] 0 setdash
newpath
46.31934077777425 -228.16531150875903 moveto
46.31934077777425 -227.83554133196904 lineto
46.97888113135426 -227.83554133196904 lineto
46.97888113135426 -225.23303074757226 lineto
46.31934077777425 -225.39791583596727 lineto
46.31934077777425 -225.05923295169646 lineto
47.4200601516544 -224.78516719666152 lineto
47.4200601516544 -227.83554133196904 lineto
48.0796005052344 -227.83554133196904 lineto
48.0796005052344 -228.16531150875903 lineto
closepath
fill
newpath
1.0 setlinewidth
10.0 setmiterlimit
0 setlinejoin
0 setlinecap
[ ] 0 setdash
newpath
46.52417346430114 -222.12282040205548 moveto
46.52417346430114 -223.94814289412554 lineto
stroke
newpath
0.0 0.0 0.0 setrgbcolor
1.0 setlinewidth
10.0 setmiterlimit
0 setlinejoin
0 setlinecap
[ ] 0 setdash
newpath
74.3043509967724 -228.16531150875903 moveto
74.3043509967724 -227.77983691021396 lineto
74.43209980780456 -227.48126120070856 74.69056832674022 -227.15594738131122 75.07975654760294 -226.80389544106518 curveto
75.33154053393585 -226.5788495771747 lineto
75.65536891538949 -226.28621567283358 75.81728309164005 -225.99580995851082 75.81728309164005 -225.70763242092545 curveto
75.81728309164005 -225.52343646083256 75.76195003104762 -225.37860496818726 75.65128391480994 -225.2731379312359 curveto
75.5406177936251 -225.16767088956982 75.38873040406018 -225.1149373734515 75.19562174485348 -225.1149373734515 curveto
74.96686224602844 -225.1149373734515 74.69725284692527 -225.20332172527029 74.38679354096989 -225.38009042100563 curveto
74.38679354096989 -224.99238764559036 lineto
74.67942744531102 -224.85424067552069 74.96983315963378 -224.78516719666152 75.25801069721916 -224.78516719666152 curveto
75.56698456576208 -224.78516719666152 75.81505491755885 -224.86835246896152 76.00222177186687 -225.0347230061242 curveto
76.1893886345419 -225.20109355072424 76.28297205751241 -225.42168306001105 76.28297205751241 -225.69649153657443 curveto
76.28297205751241 -225.89405655828696 76.23580897902089 -226.0693398018016 76.14148282625455 -226.22234127794226 curveto
76.04715666927149 -226.37534276092265 75.87150205831897 -226.56102416546693 75.6145189964516 -226.77938549549296 curveto
75.44517755431619 -226.92421699205613 lineto
75.0931255983322 -227.22279270156153 74.88961878719331 -227.50799933609994 74.83465709188064 -227.77983691021396 curveto
76.267374819421 -227.77983691021396 lineto
76.267374819421 -228.16531150875903 lineto
closepath
fill
newpath
1.0 setlinewidth
10.0 setmiterlimit
0 setlinejoin
0 setlinecap
[ ] 0 setdash
newpath
74.87063015721452 -222.12282040205548 moveto
74.87063015721452 -223.94814289412554 lineto
stroke
newpath
0.0 0.0 0.0 setrgbcolor
1.0 setlinewidth
10.0 setmiterlimit
0 setlinejoin
0 setlinecap
[ ] 0 setdash
newpath
102.68152034492621 -228.1408015631868 moveto
102.68152034492621 -227.73081701906952 lineto
102.99643601863342 -227.85559492751955 103.24450637016457 -227.91798387616655 103.42573141957394 -227.91798387616655 curveto
103.63518005161504 -227.91798387616655 103.80563557790244 -227.85670901040984 103.93709801128546 -227.7341592843748 curveto
104.0685604505453 -227.61160955286138 104.1342916642984 -227.45303763301789 104.1342916642984 -227.25844352258653 curveto
104.1342916642984 -226.79498271977215 103.80972055719923 -226.56325233908328 103.1605783720198 -226.56325233908328 curveto
102.98678057614399 -226.56325233908328 lineto
102.98678057614399 -226.26690481534632 lineto
103.14052478018797 -226.26467663847612 lineto
103.74955980952738 -226.26467663847612 104.0540772969711 -226.05002892691627 104.0540772969711 -225.62073352298754 curveto
104.0540772969711 -225.28353607991426 103.85354137267642 -225.1149373734515 103.45246954201636 -225.1149373734515 curveto
103.23262275093775 -225.1149373734515 102.99049420032097 -225.17658360203097 102.72608388233027 -225.29987605367833 curveto
102.72608388233027 -224.91662963200346 lineto
102.98603785826782 -224.82898800583024 103.23856456612917 -224.78516719666152 103.4836640181992 -224.78516719666152 curveto
104.15805890434576 -224.78516719666152 104.49525631727124 -225.03992209308032 104.49525631727124 -225.54943186314105 curveto
104.49525631727124 -225.93713465011078 104.26575409280066 -226.21342857291845 103.8067496643786 -226.37831365885646 curveto
104.33854122658227 -226.5016061160154 104.60443698391117 -226.79275456355387 104.60443698391117 -227.25175899197592 curveto
104.60443698391117 -227.56221831180991 104.50194084482722 -227.80583230966707 104.2969485758232 -227.98260100540242 curveto
104.0919562976553 -228.15936970903994 103.81046328716107 -228.24775405295654 103.45246954201636 -228.24775405295654 curveto
103.24896271513954 -228.24775405295654 102.99197965088159 -228.2121032219708 102.68152034492621 -228.1408015631868 curveto
closepath
fill
newpath
1.0 setlinewidth
10.0 setmiterlimit
0 setlinejoin
0 setlinecap
[ ] 0 setdash
newpath
103.21708685012791 -222.12282040205548 moveto
103.21708685012791 -223.94814289412554 lineto
stroke
newpath
0.0 0.0 0.0 setrgbcolor
1.0 setlinewidth
10.0 setmiterlimit
0 setlinejoin
0 setlinecap
[ ] 0 setdash
newpath
132.22848254993647 -228.16531150875903 moveto
132.22848254993647 -227.2317054001441 lineto
130.74451675438146 -227.2317054001441 lineto
130.74451675438146 -226.89970704648388 lineto
132.22848254993647 -224.86760974085902 lineto
132.64069527092397 -224.86760974085902 lineto
132.64069527092397 -226.87296892404146 lineto
133.08187429122412 -226.87296892404146 lineto
133.08187429122412 -227.2317054001441 lineto
132.64069527092397 -227.2317054001441 lineto
132.64069527092397 -228.16531150875903 lineto
closepath
131.1745548903306 -226.87296892404146 moveto
132.2574488492491 -226.87296892404146 lineto
132.2574488492491 -225.40682854344806 lineto
closepath
fill
newpath
1.0 setlinewidth
10.0 setmiterlimit
0 setlinejoin
0 setlinecap
[ ] 0 setdash
newpath
131.5635435430413 -222.12282040205548 moveto
131.5635435430413 -223.94814289412554 lineto
stroke
newpath
0.0 0.0 0.0 setrgbcolor
1.0 setlinewidth
10.0 setmiterlimit
0 setlinejoin
0 setlinecap
[ ] 0 setdash
newpath
159.35787285077677 -228.17868056998026 moveto
159.35787285077677 -227.78652144082457 lineto
159.5762341905643 -227.87416306699782 159.78419736155283 -227.91798387616655 159.98176237443354 -227.91798387616655 curveto
160.19863826293002 -227.91798387616655 160.36909378888538 -227.85410947065046 160.49312896614506 -227.7263606653291 curveto
160.61716414894957 -227.59861185429693 160.679181734807 -227.42258588201577 160.679181734807 -227.19828274709107 curveto
160.679181734807 -226.70362746716418 160.33827066350605 -226.45629984931355 159.65644855138393 -226.45629984931355 curveto
159.5792050842482 -226.45629984931355 159.49824799233784 -226.4614989288323 159.41357727253185 -226.47189708740498 curveto
159.41357727253185 -224.86760974085902 lineto
161.08248174831368 -224.86760974085902 lineto
161.08248174831368 -225.2508561625339 lineto
159.79905187107693 -225.2508561625339 lineto
159.79905187107693 -226.11984514191295 lineto
160.22240548903235 -226.11984514191295 160.55291838237042 -226.21714220147814 160.79059057831714 -226.4117363119095 curveto
161.0282627848886 -226.6063304310399 161.14709887754955 -226.8759398316704 161.14709887754955 -227.2205645157931 curveto
161.14709887754955 -227.54142199466457 161.03903229612408 -227.79283461133502 160.82289914293506 -227.9748023863567 curveto
160.60676598008413 -228.15677016951298 160.3070761917723 -228.24775405295654 159.92382977580826 -228.24775405295654 curveto
159.75745923120823 -228.24775405295654 159.56880692467948 -228.22472955794493 159.35787285077677 -228.17868056998026 curveto
closepath
fill
newpath
1.0 setlinewidth
10.0 setmiterlimit
0 setlinejoin
0 setlinecap
[ ] 0 setdash
newpath
159.9100002359547 -222.12282040205548 moveto
159.9100002359547 -223.94814289412554 lineto
stroke
newpath
0.0 0.0 0.0 setrgbcolor
1.0 setlinewidth
10.0 setmiterlimit
0 setlinejoin
0 setlinecap
[ ] 0 setdash
newpath
188.3362043185113 -226.45629984931355 moveto
188.5456529505524 -226.18446226304744 188.80932054535455 -226.04854348206646 189.12720710743326 -226.04854348206646 curveto
189.41538465790117 -226.04854348206646 189.6512000374763 -226.14398372751782 189.83465326372263 -226.3348642098875 curveto
190.01810649816997 -226.52574470079023 190.10983310719266 -226.77047279246128 190.10983310719266 -227.0690484886193 curveto
190.10983310719266 -227.41218773685688 190.00696560528596 -227.69442346682098 189.8012306106696 -227.91575569929634 curveto
189.59549560685616 -228.137087941666 189.33442755164737 -228.24775405295654 189.01802644079334 -228.24775405295654 curveto
188.65409087448077 -228.24775405295654 188.36962696850972 -228.10143710078597 188.16463469950568 -227.80880320952662 curveto
187.95964242133778 -227.51616930518549 187.8571462914177 -227.10989839015912 187.8571462914177 -226.58999046152573 curveto
187.8571462914177 -226.0180917144631 187.97486830623512 -225.57394180399854 188.21031232534483 -225.25754069314448 curveto
188.44575635497972 -224.9411395681462 188.7773833451863 -224.7829390197913 189.20519329789036 -224.7829390197913 curveto
189.40127286831182 -224.7829390197913 189.64637232257323 -224.8245316559413 189.94049166505727 -224.90771692452267 curveto
189.94049166505727 -225.29096334619754 lineto
189.63003234522327 -225.17212724291178 189.37602018832862 -225.1127091965813 189.17845517544794 -225.1127091965813 curveto
188.61695458742284 -225.1127091965813 188.3362043185113 -225.56057276083942 188.3362043185113 -226.45629984931355 curveto
closepath
189.66865408689253 -227.16708827090824 moveto
189.66865408689253 -226.91753245400818 189.61257830065458 -226.72145289474273 189.50042673319223 -226.5788495771747 curveto
189.38827516071632 -226.43624625323181 189.2326741429901 -226.36494459763523 189.03362367888474 -226.36494459763523 curveto
188.8479422675008 -226.36494459763523 188.68825626201118 -226.42733355186024 188.55456565179117 -226.55211145473228 curveto
188.42087503559472 -226.6768893631823 188.3540297334729 -226.82691993800253 188.3540297334729 -227.00220318251323 curveto
188.3540297334729 -227.27849712265257 188.41753277616624 -227.50020071549372 188.54453885587526 -227.66731397826874 curveto
188.67154494126189 -227.83442724851432 188.83977229429814 -227.91798387616655 189.04922091697617 -227.91798387616655 curveto
189.23787323094228 -227.91798387616655 189.38827516572988 -227.85002447960002 189.50042673319223 -227.714105692543 curveto
189.61257830566814 -227.57818689940993 189.66865408689253 -227.39584775950692 189.66865408689253 -227.16708827090824 curveto
closepath
fill
newpath
1.0 setlinewidth
10.0 setmiterlimit
0 setlinejoin
0 setlinecap
[ ] 0 setdash
newpath
188.25645692886806 -222.12282040205548 moveto
188.25645692886806 -223.94814289412554 lineto
stroke
newpath
0.0 0.0 0.0 setrgbcolor
1.0 setlinewidth
10.0 setmiterlimit
0 setlinejoin
0 setlinecap
[ ] 0 setdash
newpath
216.5306631633085 -228.16531150875903 moveto
216.57374125074958 -227.90832843540363 216.63501611458054 -227.68625347887644 216.7144877551002 -227.49908662456843 curveto
216.79395939917256 -227.3119197618934 216.93470590544894 -227.054936696905 217.13672727200364 -226.7281374274783 curveto
218.03691072756553 -225.27982246184652 lineto
216.33903995247107 -225.27982246184652 lineto
216.33903995247107 -224.86760974085902 lineto
218.45580797916364 -224.86760974085902 lineto
218.45580797916364 -225.27982246184652 lineto
217.61058619454386 -226.5261160950557 217.13746999612187 -227.48794575031096 217.03645931284453 -228.16531150875903 curveto
closepath
fill
newpath
1.0 setlinewidth
10.0 setmiterlimit
0 setlinejoin
0 setlinecap
[ ] 0 setdash
newpath
216.60291362178145 -222.12282040205548 moveto
216.60291362178145 -223.94814289412554 lineto
stroke
newpath
0.0 0.0 0.0 setrgbcolor
1.0 setlinewidth
10.0 setmiterlimit
0 setlinejoin
0 setlinecap
[ ] 0 setdash
newpath
245.18635462023767 -226.36940095137564 moveto
244.8640116900751 -226.14509780642382 244.70284023940366 -225.89702745084196 244.70284023940366 -225.62518987672794 curveto
244.70284023940366 -225.3756340598279 244.79419549380458 -225.17286996975264 244.9769059944386 -225.0168975911626 curveto
245.15961650324041 -224.86092520560007 245.39803142728965 -224.7829390197913 245.6921507697737 -224.7829390197913 curveto
245.9639883560398 -224.7829390197913 246.1842064977891 -224.849041602244 246.3528052117888 -224.98124676123936 curveto
246.52140393332544 -225.11345192614473 246.6057032865568 -225.28502154435347 246.6057032865568 -225.49595561825618 curveto
246.6057032865568 -225.8153276458366 246.4007110083889 -226.10647608460962 245.99072647038085 -226.36940095137564 curveto
246.48835265288986 -226.6130149631114 246.73716572189875 -226.9271879002827 246.73716572189875 -227.3119197674714 curveto
246.73716572189875 -227.58821370761075 246.63281276870097 -227.8132595658568 246.42410687163527 -227.98705735914282 curveto
246.2154009652397 -228.16085516019822 245.94616292806285 -228.24775405295654 245.6163927561868 -228.24775405295654 curveto
245.29256437473316 -228.24775405295654 245.030753599158 -228.16568286912482 244.83096040944034 -228.00154050879914 curveto
244.63116721079118 -227.8373981411357 244.53127062039806 -227.6216363484453 244.53127062039806 -227.35425512800526 curveto
244.53127062039806 -226.95912508458017 244.7496319601856 -226.630840366917 245.18635462023767 -226.36940095137564 curveto
closepath
245.74562701465854 -226.23125398542308 moveto
246.05311543191038 -226.02923260983732 246.2068596267905 -225.80418674827104 246.2068596267905 -225.55611639375167 curveto
246.2068596267905 -225.4239112288463 246.15561155724853 -225.3173301046219 246.05311542274652 -225.23637301287755 curveto
245.95061928366258 -225.15541591751415 245.81544322075698 -225.1149373734515 245.64758723236963 -225.1149373734515 curveto
245.4856730416428 -225.1149373734515 245.35421060962108 -225.15467319548767 245.25319992634374 -225.23414483600735 curveto
245.15218923855087 -225.3136164800797 245.10168389916996 -225.41648397843375 245.10168389916996 -225.54274733253044 curveto
245.10168389916996 -225.6660397896894 245.14736152637042 -225.77633454253987 245.23871677668743 -225.87363159775555 curveto
245.33007203108835 -225.97092865732074 245.49904211136385 -226.09013611907972 245.74562701465854 -226.23125398542308 curveto
closepath
245.42476954534936 -226.54765510099188 moveto
245.24800084171184 -226.68431661977047 245.12805065785997 -226.80352407976972 245.06491898081163 -226.9052774886594 curveto
245.00178730094106 -227.00703090209782 244.97022146382798 -227.13366562011294 244.97022146382798 -227.28518164502896 curveto
244.97022146382798 -227.47383395899507 245.03112496676192 -227.62646407071927 245.15293196718463 -227.74307199185563 curveto
245.2747389730525 -227.85967991820476 245.43516770704304 -227.91798387616655 245.6342181711484 -227.91798387616655 curveto
245.82584138769667 -227.91798387616655 245.98218512751575 -227.86822125791565 246.10324940232607 -227.76869602586297 curveto
246.22431368254843 -227.66917078936117 246.2848458172476 -227.53993653148706 246.2848458172476 -227.3809932504477 curveto
246.2848458172476 -227.2532444394155 246.24733817214803 -227.14517786370087 246.17232288530238 -227.0567935158332 curveto
246.09730759510325 -226.96840916401442 245.9521047347544 -226.86034258654004 245.73671430717772 -226.7325937812187 curveto
closepath
fill
newpath
1.0 setlinewidth
10.0 setmiterlimit
0 setlinejoin
0 setlinecap
[ ] 0 setdash
newpath
244.94937031469482 -222.12282040205548 moveto
244.94937031469482 -223.94814289412554 lineto
stroke
newpath
0.0 0.0 0.0 setrgbcolor
1.0 setlinewidth
10.0 setmiterlimit
0 setlinejoin
0 setlinecap
[ ] 0 setdash
newpath
14.207746995160656 -220.94646408467625 moveto
13.867578649505234 -220.94646408467625 13.592398813040909 -220.78640670806328 13.382207464750547 -220.46629196914756 curveto
13.1720161070639 -220.1461772159216 13.066920437616862 -219.72839405461792 13.066920437616862 -219.21294247965852 curveto
13.066920437616862 -218.69303452778342 13.17275884210572 -218.27488001258845 13.38443564162075 -217.9584789017344 curveto
13.596112450598469 -217.64207777673613 13.875005921034491 -217.48387722838123 14.221116056381872 -217.48387722838123 curveto
14.567226207201582 -217.48387722838123 14.846119671627967 -217.64207779088036 15.057796471142996 -217.9584789017344 curveto
15.269473280120716 -218.2748800267327 15.375311675146884 -218.69080637408854 15.375311675146884 -219.20625794904794 curveto
15.375311675146884 -219.73507860866945 15.269473270658025 -220.15731811451647 15.057796471142996 -220.47297649975818 curveto
14.846119662165277 -220.78863489911092 14.562769837856038 -220.94646408467625 14.207746995160656 -220.94646408467625 curveto
closepath
14.212203348901062 -220.61669390788626 moveto
14.677149603006507 -220.61669390788626 14.909622709274513 -220.14432039732546 14.909622709274513 -219.19957341843732 curveto
14.909622709274513 -218.2756227153907 14.680120484803934 -217.81364740517122 14.221116056381872 -217.81364740517122 curveto
13.763597058731785 -217.81364740517122 13.534837580359433 -218.28007911056773 13.534837580359433 -219.21294247965852 curveto
13.534837580359433 -220.1487767930337 13.760626176602333 -220.61669390788626 14.212203348901062 -220.61669390788626 curveto
closepath
fill
newpath
1.0 setlinewidth
10.0 setmiterlimit
0 setlinejoin
0 setlinecap
[ ] 0 setdash
newpath
16.352394279317682 -222.12282040205548 moveto
18.177716771387754 -222.12282040205548 lineto
stroke
newpath
0.0 0.0 0.0 setrgbcolor
1.0 setlinewidth
10.0 setmiterlimit
0 setlinejoin
0 setlinecap
[ ] 0 setdash
newpath
13.463535920512946 -195.30950665149774 moveto
13.463535920512946 -194.97973647470775 lineto
14.123076274092952 -194.97973647470775 lineto
14.123076274092952 -192.37722589031097 lineto
13.463535920512946 -192.54211097870595 lineto
13.463535920512946 -192.20342809443514 lineto
14.564255294393092 -191.9293623394002 lineto
14.564255294393092 -194.97973647470775 lineto
15.223795647973098 -194.97973647470775 lineto
15.223795647973098 -195.30950665149774 lineto
closepath
fill
newpath
1.0 setlinewidth
10.0 setmiterlimit
0 setlinejoin
0 setlinecap
[ ] 0 setdash
newpath
16.352394279317682 -193.77636370914198 moveto
18.177716771387754 -193.77636370914198 lineto
stroke
newpath
0.0 0.0 0.0 setrgbcolor
1.0 setlinewidth
10.0 setmiterlimit
0 setlinejoin
0 setlinecap
[ ] 0 setdash
newpath
13.15604751242497 -167.0170080244116 moveto
13.15604751242497 -166.63153342586654 lineto
13.283796323457137 -166.33295771636114 13.542264842392798 -166.0076438969638 13.931453063255518 -165.65559195671776 curveto
14.183237049588426 -165.43054609282729 lineto
14.50706543104206 -165.13791218848615 14.66897960729262 -164.8475064741634 14.66897960729262 -164.55932893657803 curveto
14.66897960729262 -164.37513297648513 14.613646546700199 -164.23030148383984 14.502980430462516 -164.12483444688849 curveto
14.392314309277674 -164.0193674052224 14.240426919712753 -163.9666338891041 14.04731826050606 -163.9666338891041 curveto
13.818558761681016 -163.9666338891041 13.548949362577845 -164.05501824092286 13.23849005662247 -164.2317869366582 curveto
13.23849005662247 -163.84408416124293 lineto
13.531123960963598 -163.70593719117326 13.821529675286364 -163.6368637123141 14.109707212871736 -163.6368637123141 curveto
14.418681081414652 -163.6368637123141 14.66675143321142 -163.7200489846141 14.853918287519447 -163.8864195217768 curveto
15.041085150194482 -164.05279006637682 15.134668573164989 -164.27337957566363 15.134668573164989 -164.548188052227 curveto
15.134668573164989 -164.74575307393954 15.087505494673463 -164.92103631745417 14.993179341907117 -165.07403779359484 curveto
14.898853184924063 -165.22703927657523 14.72319857397154 -165.4127206811195 14.466215512104172 -165.63108201114554 curveto
14.296874069968766 -165.7759135077087 lineto
13.944822113984769 -166.0744892172141 13.741315302845893 -166.35969585175252 13.686353607533219 -166.63153342586654 curveto
15.11907133507357 -166.63153342586654 lineto
15.11907133507357 -167.0170080244116 lineto
closepath
fill
newpath
1.0 setlinewidth
10.0 setmiterlimit
0 setlinejoin
0 setlinecap
[ ] 0 setdash
newpath
16.352394279317682 -165.42990701622847 moveto
18.177716771387754 -165.42990701622847 lineto
stroke
newpath
0.0 0.0 0.0 setrgbcolor
1.0 setlinewidth
10.0 setmiterlimit
0 setlinejoin
0 setlinecap
[ ] 0 setdash
newpath
13.240718233492673 -138.69999945175326 moveto
13.240718233492673 -138.29001490763596 lineto
13.555633907199876 -138.414792816086 13.803704258731026 -138.477181764733 13.984929308140384 -138.477181764733 curveto
14.194377940181496 -138.477181764733 14.364833466468891 -138.4159068989763 14.496295899851908 -138.29335717294128 curveto
14.627758339111756 -138.17080744142785 14.69348955286485 -138.01223552158436 14.69348955286485 -137.81764141115298 curveto
14.69348955286485 -137.35418060833862 14.368918445765681 -137.12245022764975 13.71977626058626 -137.12245022764975 curveto
13.545978464710446 -137.12245022764975 lineto
13.545978464710446 -136.82610270391277 lineto
13.699722668754434 -136.82387452704256 lineto
14.308757698093837 -136.82387452704256 14.613275185537551 -136.6092268154827 14.613275185537551 -136.17993141155398 curveto
14.613275185537551 -135.8427339684807 14.412739261242871 -135.67413526201796 14.011667430582817 -135.67413526201796 curveto
13.791820639504204 -135.67413526201796 13.549692088887431 -135.73578149059745 13.285281770896727 -135.8590739422448 curveto
13.285281770896727 -135.47582752056994 lineto
13.545235746834278 -135.38818589439668 13.79776245469562 -135.34436508522796 14.042861906765655 -135.34436508522796 curveto
14.717256792912213 -135.34436508522796 15.054454205837692 -135.59911998164677 15.054454205837692 -136.1086297517075 curveto
15.054454205837692 -136.49633253867722 14.824951981367112 -136.7726264614849 14.36594755294505 -136.9375115474229 curveto
14.897739115148722 -137.06080400458188 15.163634872477624 -137.35195245212034 15.163634872477624 -137.8109568805424 curveto
15.163634872477624 -138.12141620037636 15.061138733393676 -138.3650301982335 14.85614646438965 -138.5417988939689 curveto
14.651154186221753 -138.7185675976064 14.369661175727531 -138.806951941523 14.011667430582817 -138.806951941523 curveto
13.808160603705991 -138.806951941523 13.551177539448048 -138.77130111053728 13.240718233492673 -138.69999945175326 curveto
closepath
fill
newpath
1.0 setlinewidth
10.0 setmiterlimit
0 setlinejoin
0 setlinecap
[ ] 0 setdash
newpath
16.352394279317682 -137.083450323315 moveto
18.177716771387754 -137.083450323315 lineto
stroke
newpath
0.0 0.0 0.0 setrgbcolor
1.0 setlinewidth
10.0 setmiterlimit
0 setlinejoin
0 setlinecap
[ ] 0 setdash
newpath
14.495181811416808 -110.43201077023937 moveto
14.495181811416808 -109.49840466162443 lineto
13.011216015861793 -109.49840466162443 lineto
13.011216015861793 -109.16640630796422 lineto
14.495181811416808 -107.13430900233935 lineto
14.907394532404311 -107.13430900233935 lineto
14.907394532404311 -109.1396681855218 lineto
15.348573552704451 -109.1396681855218 lineto
15.348573552704451 -109.49840466162443 lineto
14.907394532404311 -109.49840466162443 lineto
14.907394532404311 -110.43201077023937 lineto
closepath
13.441254151810918 -109.1396681855218 moveto
14.524148110729444 -109.1396681855218 lineto
14.524148110729444 -107.6735278049284 lineto
closepath
fill
newpath
1.0 setlinewidth
10.0 setmiterlimit
0 setlinejoin
0 setlinecap
[ ] 0 setdash
newpath
16.352394279317682 -108.73699363040147 moveto
18.177716771387754 -108.73699363040147 lineto
stroke
newpath
0.0 0.0 0.0 setrgbcolor
1.0 setlinewidth
10.0 setmiterlimit
0 setlinejoin
0 setlinecap
[ ] 0 setdash
newpath
13.332073485170985 -82.15288120437447 moveto
13.332073485170985 -81.7607220752188 lineto
13.550434824958527 -81.84836370139202 13.758397995947055 -81.89218451056075 13.955963008827748 -81.89218451056075 curveto
14.172838897324219 -81.89218451056075 14.34329442327959 -81.82831010504466 14.467329600539273 -81.70056129972332 curveto
14.591364783343762 -81.57281248869116 14.653382369201202 -81.39678651640997 14.653382369201202 -81.17248338148528 curveto
14.653382369201202 -80.67782810155839 14.312471297900244 -80.43050048370776 13.63064918577815 -80.43050048370776 curveto
13.55340571864242 -80.43050048370776 13.472448626732064 -80.43569956322652 13.387777906926052 -80.44609772179919 curveto
13.387777906926052 -78.84181037525322 lineto
15.056682382707894 -78.84181037525322 lineto
15.056682382707894 -79.22505679692809 lineto
13.773252505471124 -79.22505679692809 lineto
13.773252505471124 -80.09404577630715 lineto
14.196606123426562 -80.09404577630715 14.527119016764638 -80.19134283587235 14.764791212711337 -80.38593694630372 curveto
15.002463419282812 -80.5805310654341 15.121299511943773 -80.85014046606459 15.121299511943773 -81.1947651501873 curveto
15.121299511943773 -81.51562262905878 15.013232930518306 -81.76703524572923 14.797099777329278 -81.94900302075092 curveto
14.580966614478342 -82.1309708039072 14.281276826166529 -82.22195468735076 13.898030410202477 -82.22195468735076 curveto
13.731659865602445 -82.22195468735076 13.543007559073681 -82.19893019233915 13.332073485170985 -82.15288120437447 curveto
closepath
fill
newpath
1.0 setlinewidth
10.0 setmiterlimit
0 setlinejoin
0 setlinecap
[ ] 0 setdash
newpath
16.352394279317682 -80.39053693748798 moveto
18.177716771387754 -80.39053693748798 lineto
stroke
newpath
0.0 0.0 0.0 setrgbcolor
1.0 setlinewidth
10.0 setmiterlimit
0 setlinejoin
0 setlinecap
[ ] 0 setdash
newpath
13.561575702801866 -52.13800185662164 moveto
13.771024334842977 -51.86616427035552 14.034691929645124 -51.730245489374546 14.352578491723833 -51.730245489374546 curveto
14.640756042191747 -51.730245489374546 14.87657142176684 -51.8256857348259 15.060024648013199 -52.016566217195596 curveto
15.243477882460555 -52.20744670809831 15.335204491483236 -52.45217479976935 15.335204491483236 -52.75075049592739 curveto
15.335204491483236 -53.09388974416496 15.232336989576519 -53.37612547412907 15.026601994960158 -53.59745770660443 curveto
14.820866991146726 -53.818789948974114 14.559798935937943 -53.929456060264634 14.2433978250839 -53.929456060264634 curveto
13.87946225877133 -53.929456060264634 13.594998352800284 -53.78313910809407 13.390006083796257 -53.4905052168347 curveto
13.18501380562836 -53.19787131249357 13.08251767570828 -52.791600397467214 13.08251767570828 -52.271692468833805 curveto
13.08251767570828 -51.6997937217712 13.200239690525713 -51.25564381130662 13.435683709635411 -50.93924270045258 curveto
13.671127739270279 -50.6228415754543 14.002754729476871 -50.4646410270994 14.430564682180929 -50.4646410270994 curveto
14.626644252602395 -50.4646410270994 14.871743706863787 -50.506233663249404 15.165863049347827 -50.58941893183075 curveto
15.165863049347827 -50.97266535350562 lineto
14.855403729513839 -50.85382925021988 14.601391572619189 -50.7944112038894 14.403826559738496 -50.7944112038894 curveto
13.842325971713388 -50.7944112038894 13.561575702801866 -51.242274768147524 13.561575702801866 -52.13800185662164 curveto
closepath
14.894025471183095 -52.84879027821631 moveto
14.894025471183095 -52.599234461316264 14.837949684945137 -52.403154902050815 14.725798117482789 -52.2605515844828 curveto
14.613646545006876 -52.11794826053991 14.45804552728068 -52.046646604943334 14.258995063175318 -52.046646604943334 curveto
14.073313651791354 -52.046646604943334 13.913627646301752 -52.10903555916835 13.779937036081733 -52.23381346204036 curveto
13.646246419885278 -52.35859137049039 13.579401117763487 -52.50862194531062 13.579401117763487 -52.68390518982131 curveto
13.579401117763487 -52.96019912996065 13.642904160456803 -53.1819027228018 13.76991024016582 -53.34901598557683 curveto
13.896916325552452 -53.5161292558224 14.06514367858871 -53.599685883474635 14.274592301266738 -53.599685883474635 curveto
14.463244615232846 -53.599685883474635 14.61364655002044 -53.531726486908106 14.725798117482789 -53.39580769985108 curveto
14.837949689958704 -53.25988890671802 14.894025471183095 -53.07754976681501 14.894025471183095 -52.84879027821631 curveto
closepath
fill
newpath
1.0 setlinewidth
10.0 setmiterlimit
0 setlinejoin
0 setlinecap
[ ] 0 setdash
newpath
16.352394279317682 -52.044080244574474 moveto
18.177716771387754 -52.044080244574474 lineto
stroke
newpath
0.0 0.0 0.0 setrgbcolor
1.0 setlinewidth
10.0 setmiterlimit
0 setlinejoin
0 setlinecap
[ ] 0 setdash
newpath
13.463535920512946 -25.098184265963496 moveto
13.506614007954026 -24.84120119260809 13.567888871784993 -24.619126236080906 13.64736051230467 -24.43195938177288 curveto
13.726832156377007 -24.244792519097842 13.867578662653393 -23.987809454109446 14.069600029208088 -23.661010184682738 curveto
14.969783484769987 -22.212695219050968 lineto
13.271912709675512 -22.212695219050968 lineto
13.271912709675512 -21.800482498063463 lineto
15.3886807363681 -21.800482498063463 lineto
15.3886807363681 -22.212695219050968 lineto
14.543458951748296 -23.458988852260134 14.070342753326312 -24.420818507515403 13.969332070048964 -25.098184265963496 curveto
closepath
fill
newpath
1.0 setlinewidth
10.0 setmiterlimit
0 setlinejoin
0 setlinecap
[ ] 0 setdash
newpath
16.352394279317682 -23.697623551660968 moveto
18.177716771387754 -23.697623551660968 lineto
stroke
newpath
1.0 0.0 0.0 setrgbcolor
2.0 setlinewidth
10.0 setmiterlimit
1 setlinejoin
1 setlinecap
[ ] 0 setdash
newpath
18.17771757701173 -222.12281613719435 moveto
18.730625741247096 -218.16390288306167 lineto
19.00707982336478 -217.27416400657881 lineto
19.283533905482464 -216.52407611543595 lineto
21.426148783869404 -212.52690784966296 lineto
23.568763662256345 -209.76090478741506 lineto
25.711378540643285 -207.50937383839153 lineto
27.853993419030225 -205.56116739192979 lineto
29.996608297417165 -203.81916478869985 lineto
32.139223175804105 -202.22912384801774 lineto
34.28183805419105 -200.7570787987183 lineto
36.424452932577985 -199.38012119735478 lineto
38.56706781096493 -198.08190179614203 lineto
40.709682689351865 -196.8502770311375 lineto
42.85229756773881 -195.675944263908 lineto
44.994912446125745 -194.5515922890983 lineto
47.13752732451269 -193.4713303641077 lineto
49.28014220289963 -192.4303400564544 lineto
51.42275708128657 -191.42462457387754 lineto
53.56537195967351 -190.45084165107176 lineto
55.70798683806045 -189.50610858421123 lineto
57.85060171644739 -188.58797437873875 lineto
59.99321659483433 -187.69432226662764 lineto
62.13583147322127 -186.8232861497491 lineto
64.27844635160821 -185.97323667376673 lineto
66.42106122999515 -185.142725523715 lineto
68.5636761083821 -184.33044364568258 lineto
70.70629098676903 -183.53527695123444 lineto
72.84890586515597 -182.75615313025173 lineto
74.99152074354292 -181.99215305977555 lineto
77.13413562192986 -181.2424411734795 lineto
79.2767505003168 -180.50622368335365 lineto
81.41936537870373 -179.78280428412603 lineto
83.56198025709068 -179.07154237494643 lineto
85.70459513547762 -178.37185305938647 lineto
87.84721001386455 -177.6831653671231 lineto
89.98982489225149 -177.00499188446605 lineto
92.13243977063844 -176.33685912383032 lineto
94.27505464902538 -175.67833537594734 lineto
96.41766952741231 -175.02903070986483 lineto
98.56028440579927 -174.38854126852505 lineto
100.7028992841862 -173.75654675150292 lineto
102.84551416257314 -173.13269900616248 lineto
104.98812904096008 -172.51669165818404 lineto
107.13074391934703 -171.9082461854589 lineto
109.27335879773396 -171.3070840658782 lineto
111.4159736761209 -170.71295462954407 lineto
113.55858855450784 -170.12560720655864 lineto
115.70120343289479 -169.5448329053403 lineto
117.84381831128172 -168.9703949820966 lineto
119.98643318966866 -168.4020984713514 lineto
122.1290480680556 -167.83974840762855 lineto
124.27166294644255 -167.28316375155734 lineto
126.41427782482948 -166.73217738987253 lineto
128.55689270321642 -166.1866222093088 lineto
130.69950758160337 -165.646331096601 lineto
132.8421224599903 -165.1111647906946 lineto
134.98473733837724 -164.58097010442987 lineto
137.1273522167642 -164.05560777675237 lineto
139.26996709515112 -163.53496639881863 lineto
141.41258197353807 -163.01892063567968 lineto
143.55519685192502 -162.50733122628114 lineto
145.69781173031194 -162.00008676177947 lineto
147.8404266086989 -161.49708975943665 lineto
149.98304148708584 -160.99824273651458 lineto
152.12565636547276 -160.50343428416974 lineto
154.26827124385972 -160.01255299355864 lineto
156.41088612224664 -159.52552923415408 lineto
158.5535010006336 -159.042265523218 lineto
160.69611587902054 -158.56267830411772 lineto
162.83873075740746 -158.08668402022067 lineto
164.9813456357944 -157.6141991148942 lineto
167.12396051418136 -157.14514003150563 lineto
169.26657539256828 -156.67945106563326 lineto
171.40919027095524 -156.21706258674988 lineto
173.5518051493422 -155.75787711211743 lineto
175.6944200277291 -155.301866789525 lineto
177.83703490611606 -154.84893413623453 lineto
179.97964978450298 -154.39903737392973 lineto
182.12226466288993 -153.9521068720834 lineto
184.26487954127688 -153.50808692627373 lineto
186.4074944196638 -153.06690790597358 lineto
188.55010929805076 -152.62855588507753 lineto
190.6927241764377 -152.19293338084745 lineto
192.83533905482463 -151.7600125410725 lineto
194.97795393321158 -151.3297376613309 lineto
197.12056881159853 -150.90206696330637 lineto
199.26318368998545 -150.47694474257713 lineto
201.4057985683724 -150.05432922082687 lineto
203.54841344675933 -149.6341786197393 lineto
205.69102832514628 -149.21645116099802 lineto
207.83364320353323 -148.8011050662868 lineto
209.97625808192015 -148.38809855728928 lineto
212.1188729603071 -147.97738985568915 lineto
214.26148783869405 -147.56895110927556 lineto
216.40410271708097 -147.16272661362672 lineto
218.54671759546792 -146.75870244263723 lineto
220.68933247385485 -146.3568228918853 lineto
222.8319473522418 -145.95706010916004 lineto
224.97456223062875 -145.55940016835604 lineto
227.11717710901567 -145.16378736505155 lineto
229.25979198740262 -144.77019384703567 lineto
231.40240686578957 -144.37859176209756 lineto
233.5450217441765 -143.98896718413172 lineto
235.68763662256345 -143.60126440871645 lineto
237.8302515009504 -143.2154695097463 lineto
239.97286637933732 -142.83154070890492 lineto
242.11548125772427 -142.44947800619235 lineto
244.2580961361112 -142.06922569718682 lineto
246.40071101449814 -141.6907837818883 lineto
248.5433258928851 -141.3140965558751 lineto
250.68594077127202 -140.93917794525262 lineto
252.82855564965897 -140.5659722455991 lineto
254.97117052804592 -140.1944655308091 lineto
257.11378540643284 -139.82464387477722 lineto
259.2564002848198 -139.4564654991871 lineto
261.39901516320674 -139.08991647793331 lineto
263.5416300415937 -138.72499681101584 lineto
265.6842449199806 -138.36165079401297 lineto
267.82685979836754 -137.99987842692468 lineto
269.9694746767545 -137.63966578364554 lineto
272.11208955514144 -137.28097108585922 lineto
274.2547044335284 -136.9237804074603 lineto
stroke
newpath
0.0 0.0 0.0 setrgbcolor
1.0 setlinewidth
10.0 setmiterlimit
1 setlinejoin
1 setlinecap
[ ] 0 setdash
newpath
0.0 -240.30054764031152 moveto
2.1426148783869405 -238.15793276192457 lineto
4.285229756773881 -236.01531788353762 lineto
6.427844635160821 -233.8727030051507 lineto
8.570459513547762 -231.73007420065832 lineto
10.713074391934702 -229.58745932227137 lineto
12.855689270321642 -227.44484444388442 lineto
14.998304148708582 -225.3022295654975 lineto
17.140919027095524 -223.15961468711055 lineto
19.283533905482464 -221.0169998087236 lineto
21.426148783869404 -218.87438493033667 lineto
23.568763662256345 -216.73177005194972 lineto
25.711378540643285 -214.5891551735628 lineto
27.853993419030225 -212.44654029517585 lineto
29.996608297417165 -210.3039254167889 lineto
32.139223175804105 -208.16131053840198 lineto
34.28183805419105 -206.01869566001503 lineto
36.424452932577985 -203.87608078162808 lineto
38.56706781096493 -201.73346590324115 lineto
40.709682689351865 -199.5908510248542 lineto
42.85229756773881 -197.44823614646728 lineto
44.994912446125745 -195.30562126808033 lineto
47.13752732451269 -193.16300638969338 lineto
49.28014220289963 -191.02039151130646 lineto
51.42275708128657 -188.8777766329195 lineto
53.56537195967351 -186.73516175453256 lineto
55.70798683806045 -184.59254687614563 lineto
57.85060171644739 -182.44993199775868 lineto
59.99321659483433 -180.30731711937173 lineto
62.13583147322127 -178.1647022409848 lineto
64.27844635160821 -176.02208736259786 lineto
66.42106122999515 -173.87947248421094 lineto
68.5636761083821 -171.73685760582399 lineto
70.70629098676903 -169.59424272743703 lineto
72.84890586515597 -167.4516278490501 lineto
74.99152074354292 -165.30901297066316 lineto
77.13413562192986 -163.1663980922762 lineto
79.2767505003168 -161.0237832138893 lineto
81.41936537870373 -158.88116833550234 lineto
83.56198025709068 -156.7385534571154 lineto
85.70459513547762 -154.59593857872846 lineto
87.84721001386455 -152.4533237003415 lineto
89.98982489225149 -150.3107088219546 lineto
92.13243977063844 -148.16809394356764 lineto
94.27505464902538 -146.0254790651807 lineto
96.41766952741231 -143.88286418679377 lineto
98.56028440579927 -141.74024930840682 lineto
100.7028992841862 -139.59763443001987 lineto
102.84551416257314 -137.45501955163294 lineto
104.98812904096008 -135.312404673246 lineto
107.13074391934703 -133.16978979485904 lineto
109.27335879773396 -131.02717491647212 lineto
111.4159736761209 -128.88456003808517 lineto
113.55858855450784 -126.74194515969823 lineto
115.70120343289479 -124.5993302813113 lineto
117.84381831128172 -122.45671540292435 lineto
119.98643318966866 -120.31410052453741 lineto
122.1290480680556 -118.17148564615047 lineto
124.27166294644255 -116.02887076776354 lineto
126.41427782482948 -113.88625588937659 lineto
128.55689270321642 -111.74364101098965 lineto
130.69950758160337 -109.60102613260271 lineto
132.8421224599903 -107.45841125421578 lineto
134.98473733837724 -105.31579637582882 lineto
137.1273522167642 -103.17318149744189 lineto
139.26996709515112 -101.03056661905495 lineto
141.41258197353807 -98.887951740668 lineto
143.55519685192502 -96.74533686228106 lineto
145.69781173031194 -94.60272198389413 lineto
147.8404266086989 -92.46010710550719 lineto
149.98304148708584 -90.31749222712024 lineto
152.12565636547276 -88.1748773487333 lineto
154.26827124385972 -86.03226247034637 lineto
156.41088612224664 -83.88964759195943 lineto
158.5535010006336 -81.74703271357248 lineto
160.69611587902054 -79.60441783518554 lineto
162.83873075740746 -77.4618029567986 lineto
164.9813456357944 -75.31918807841167 lineto
167.12396051418136 -73.17657320002472 lineto
169.26657539256828 -71.03395832163778 lineto
171.40919027095524 -68.89134344325085 lineto
173.5518051493422 -66.7487285648639 lineto
175.6944200277291 -64.60611368647696 lineto
177.83703490611606 -62.46349880809002 lineto
179.97964978450298 -60.32088392970308 lineto
182.12226466288993 -58.1782725328425 lineto
184.26487954127688 -56.03565765445556 lineto
186.4074944196638 -53.89304277606862 lineto
188.55010929805076 -51.75042789768168 lineto
190.6927241764377 -49.60781301929474 lineto
192.83533905482463 -47.465198140907795 lineto
194.97795393321158 -45.32258326252086 lineto
197.12056881159853 -43.179968384133915 lineto
199.26318368998545 -41.03735350574698 lineto
201.4057985683724 -38.894738627360034 lineto
203.54841344675933 -36.7521237489731 lineto
205.69102832514628 -34.609508870586154 lineto
207.83364320353323 -32.46689399219922 lineto
209.97625808192015 -30.324279113812274 lineto
212.1188729603071 -28.181664235425334 lineto
214.26148783869405 -26.039049357038394 lineto
216.40410271708097 -23.896434478651454 lineto
218.54671759546792 -21.753819600264514 lineto
220.68933247385485 -19.611204721877574 lineto
222.8319473522418 -17.468589843490633 lineto
224.97456223062875 -15.325974965103692 lineto
227.11717710901567 -13.183360086716752 lineto
229.25979198740262 -11.040745208329811 lineto
231.40240686578957 -8.898130329942871 lineto
233.5450217441765 -6.75551545155593 lineto
235.68763662256345 -4.61290057316899 lineto
237.8302515009504 -2.4702856947820497 lineto
239.97286637933732 -0.3276707891956845 lineto
242.11548125772427 1.8149440619918311 lineto
244.2580961361112 3.9575589403787714 lineto
stroke
newpath
0.0 0.0 0.0 setrgbcolor
0.0 0.0 0.0 setrgbcolor
0.0 0.0 0.0 setrgbcolor
1.0 setlinewidth
10.0 setmiterlimit
1 setlinejoin
1 setlinecap
[ ] 0 setdash
newpath
213.22760941901203 -153.37792571140872 moveto
212.58589448039365 -155.94478546588226 lineto
212.44329115645078 -156.3725954377109 212.1937353459256 -156.72910372844353 211.83722705200555 -157.01431036357957 curveto
211.55202040411976 -157.2282153494939 211.26681376898372 -157.33516783288877 210.9816071338477 -157.33516783288877 curveto
210.6964004859619 -157.33516783288877 210.48249551279733 -157.2282153399316 210.3398921952293 -157.01431036357957 curveto
210.26859053325788 -156.94300870160814 210.2329397054596 -156.8717070428241 210.2329397054596 -156.80040538404012 curveto
210.2329397054596 -156.51519873615433 210.33989219841675 -156.3725954249612 210.55379717476876 -156.3725954249612 curveto
210.55379717476876 -156.30129376298976 210.5894480057545 -156.26564293519147 210.66074966453849 -156.26564293519147 curveto
210.80335298848138 -156.26564293519147 210.87465464407796 -156.3369445971629 210.87465464407796 -156.47954791473092 curveto
210.87465464407796 -156.47954791473092 210.87465464407796 -156.51519874571665 210.87465464407796 -156.58650040450064 curveto
210.87465464407796 -156.65780206647207 210.83900381309223 -156.7291037252561 210.76770215430824 -156.80040538404012 curveto
210.69640049233678 -156.87170704601155 210.58944800256705 -156.90735787380984 210.44684468499904 -156.90735787380984 curveto
210.51814634697047 -157.12126285972417 210.69640049871165 -157.22821534311902 210.9816071338477 -157.22821534311902 curveto
211.26681378173348 -157.22821534311902 211.51636958588378 -157.08561201917615 211.73027456223582 -156.80040538404012 curveto
211.94417954815015 -156.51519873615433 212.08678286253073 -156.1943412700326 212.15808452131472 -155.83783297611254 curveto
212.15808452131472 -155.7665313141411 212.15808452131472 -155.7308804863428 212.15808452131472 -155.7308804863428 curveto
211.9441795354004 -155.94478547225714 211.73027455904838 -156.051737955652 211.51636958269634 -156.051737955652 curveto
211.15986127283912 -156.051737955652 210.91030547187626 -155.9091346317091 210.76770215430824 -155.62392799657306 curveto
210.69640049233678 -155.4813246726302 210.66074966453849 -155.33872135506218 210.66074966453849 -155.19611803749416 curveto
210.66074966453849 -154.98221305157983 210.76770215749565 -154.51875225832774 210.9816071338477 -153.80573567048765 curveto
210.9816071338477 -153.80573567048765 211.01725796483342 -153.80573567048765 211.0885596236174 -153.80573567048765 curveto
211.15986128558885 -153.59183068457332 211.19551211338714 -153.413576539207 211.19551211338714 -153.270973221639 curveto
211.19551211338714 -153.1283698976961 211.1242104514157 -153.05706824209952 210.9816071338477 -153.05706824209952 curveto
210.76770214793336 -153.05706824209952 210.55379717158132 -153.27097322801384 210.3398921952293 -153.69878318071792 curveto
210.3398921952293 -153.69878318071792 lineto
210.3398921952293 -153.77008484268936 210.3398921952293 -153.84138650147338 210.3398921952293 -153.91268816025737 curveto
210.26859053325788 -153.9839898222288 210.2329397054596 -154.0196406500271 210.2329397054596 -154.0196406500271 curveto
210.16163804348813 -154.0196406500271 210.12598721568983 -154.0196406500271 210.12598721568983 -154.0196406500271 curveto
210.12598721568983 -153.87703732608423 210.16163804667556 -153.7344340085162 210.2329397054596 -153.59183069094817 curveto
210.4468446913739 -153.16402071911952 210.69640049871165 -152.9501157523298 210.9816071338477 -152.9501157523298 curveto
211.26681378173348 -152.9501157523298 211.44506792391235 -153.05706824528696 211.51636958269634 -153.270973221639 curveto
211.58767124466777 -153.34227488361043 211.62332207246607 -153.41357654239445 211.62332207246607 -153.48487820117845 curveto
211.62332207246607 -153.55617986314988 211.55202041049463 -153.73443401489106 211.40941709292662 -154.0196406500271 curveto
211.1955121070123 -154.59005394579864 211.0885596236174 -155.01786389212785 211.0885596236174 -155.30307052726388 curveto
211.0885596236174 -155.6595788371211 211.2311629475603 -155.83783297611254 211.51636958269634 -155.83783297611254 curveto
211.80157623058213 -155.83783297611254 212.0154812037467 -155.69522965216964 212.15808452131472 -155.4100230170336 curveto
212.22938618328618 -155.33872135506218 212.26503701108447 -155.30307052726388 212.26503701108447 -155.30307052726388 curveto
212.58589448039365 -154.0196406500271 lineto
212.65719614236508 -153.87703732608423 212.69284697016337 -153.6987831775305 212.69284697016337 -153.48487820117845 curveto
212.76414863213483 -153.27097321526412 212.79979945993313 -153.16402073186927 212.79979945993313 -153.16402073186927 curveto
212.87110112190456 -153.02141740792638 212.97805361167428 -152.9501157523298 213.1206569292423 -152.9501157523298 curveto
213.19195859121373 -153.02141741430123 213.22760941901203 -153.09271907308525 213.22760941901203 -153.16402073186927 curveto
213.22760941901203 -153.2353223938407 213.22760941901203 -153.30662405262473 213.22760941901203 -153.37792571140872 curveto
closepath
fill
newpath
1.0 setlinewidth
10.0 setmiterlimit
1 setlinejoin
1 setlinecap
[ ] 0 setdash
newpath
219.87533594409032 -153.69878318071792 moveto
215.81114133284055 -153.69878318071792 lineto
215.66853800889768 -153.69878318071792 215.5972363533011 -153.6631323497322 215.5972363533011 -153.59183069094817 curveto
215.5972363533011 -153.52052902897674 215.66853801527253 -153.48487820117845 215.81114133284055 -153.48487820117845 curveto
219.87533594409032 -153.48487820117845 lineto
220.01793926803322 -153.48487820117845 220.0892409236298 -153.52052903216418 220.0892409236298 -153.59183069094817 curveto
220.0892409236298 -153.66313235291963 220.01793926165834 -153.69878318071792 219.87533594409032 -153.69878318071792 curveto
closepath
219.87533594409032 -154.98221305795468 moveto
215.81114133284055 -154.98221305795468 lineto
215.66853800889768 -154.98221305795468 215.5972363533011 -154.94656222696895 215.5972363533011 -154.87526056818496 curveto
215.5972363533011 -154.80395890621352 215.66853801527253 -154.76830807841523 215.81114133284055 -154.76830807841523 curveto
219.87533594409032 -154.76830807841523 lineto
220.01793926803322 -154.76830807841523 220.0892409236298 -154.80395890940096 220.0892409236298 -154.87526056818496 curveto
220.0892409236298 -154.9465622301564 220.01793926165834 -154.98221305795468 219.87533594409032 -154.98221305795468 curveto
closepath
fill
newpath
0.0 0.0 0.0 setrgbcolor
0.0 0.0 0.0 setrgbcolor
1.0 setlinewidth
10.0 setmiterlimit
1 setlinejoin
1 setlinecap
[ ] 0 setdash
newpath
225.068511219445 -156.56273898709574 moveto
227.95622844322776 -150.57339955999083 lineto
228.0275301051992 -150.5020978980194 228.06318093299748 -150.43079623923538 228.06318093299748 -150.35949458045135 curveto
228.13448259496892 -150.35949458045135 228.20578425375294 -150.43079624242282 228.27708591253693 -150.57339955999083 curveto
228.27708591253693 -150.57339955999083 228.2414350815512 -150.60905039097656 228.1701334227672 -150.68035204976056 curveto
225.068511219445 -157.0975014359444 lineto
225.068511219445 -157.16880309791586 225.03286038845928 -157.20445392571415 224.9615587296753 -157.20445392571415 curveto
224.9615587296753 -157.20445392571415 224.92590789868956 -157.20445392571415 224.85460623990556 -157.20445392571415 curveto
224.85460623990556 -157.20445392571415 224.81895540891983 -157.20445392571415 224.74765375013584 -157.20445392571415 curveto
224.74765375013584 -157.0975014359444 lineto
223.46422387289905 -154.20978421216168 lineto
223.03641391382013 -154.42368919170113 lineto
223.03641391382013 -154.49499085367256 223.0007630828344 -154.53064168147085 222.9294614240504 -154.53064168147085 curveto
222.9294614240504 -154.53064168147085 222.9294614240504 -154.49499085048512 222.9294614240504 -154.42368919170113 curveto
222.9294614240504 -154.42368919170113 222.9294614240504 -154.3880383607154 222.9294614240504 -154.3167367019314 curveto
223.6781288524385 -153.78197425308275 lineto
223.6781288524385 -153.78197425308275 223.71377968342424 -153.78197425308275 223.78508134220826 -153.78197425308275 curveto
223.78508134220826 -153.78197425308275 223.820732173194 -153.81762508406848 223.89203383197798 -153.88892674285248 curveto
225.068511219445 -156.56273898709574 lineto
closepath
fill
newpath
1.0 setlinewidth
10.0 setmiterlimit
1 setlinejoin
1 setlinecap
[ ] 0 setdash
newpath
228.09884917055254 -150.40656046492643 moveto
232.39121173165526 -150.40656046492643 lineto
232.39121173165526 -150.68035199876164 lineto
228.09884917055254 -150.68035199876164 lineto
228.09884917055254 -150.40656046492643 lineto
closepath
fill
newpath
0.0 0.0 0.0 setrgbcolor
0.0 0.0 0.0 setrgbcolor
1.0 setlinewidth
10.0 setmiterlimit
1 setlinejoin
1 setlinecap
[ ] 0 setdash
newpath
230.34485145571688 -153.91268816025737 moveto
230.13094647617743 -154.76830807841523 lineto
230.059644814206 -155.12481638827245 230.0239939864077 -155.33872135824961 230.0239939864077 -155.4100230170336 curveto
230.0239939864077 -155.62392800294793 230.09529564837914 -155.76653131732854 230.23789896594715 -155.83783297611254 curveto
230.30920062791859 -155.83783297611254 230.3805022867026 -155.83783297611254 230.45180394548663 -155.83783297611254 curveto
230.66570893140096 -155.83783297611254 230.84396307676727 -155.73088048315537 230.98656639433528 -155.51697550680333 curveto
231.12916971827815 -155.37437218286047 231.23612220486046 -155.19611803430672 231.30742386364446 -154.98221305795468 curveto
231.30742386364446 -154.91091139598325 231.3430746946302 -154.87526056818496 231.41437635341418 -154.87526056818496 curveto
231.48567801538564 -154.87526056818496 231.52132884318394 -154.9109113991707 231.52132884318394 -154.98221305795468 curveto
231.52132884318394 -155.0535147199261 231.45002718121248 -155.19611804068157 231.30742386364446 -155.4100230170336 curveto
231.02221721575867 -155.83783298886226 230.73701058062267 -156.051737955652 230.45180394548663 -156.051737955652 curveto
230.0952956356294 -156.051737955652 229.84573983466652 -155.9091346317091 229.7031365170985 -155.62392799657306 curveto
229.7031365170985 -155.55262633460163 229.7031365170985 -155.51697550680333 229.7031365170985 -155.51697550680333 curveto
229.56053319315563 -155.73088049271766 229.3822790446019 -155.87348380709827 229.16837406824985 -155.94478546588226 curveto
229.09707240627841 -156.0160871278537 229.0257707474944 -156.051737955652 228.9544690887104 -156.051737955652 curveto
228.6692624408246 -156.051737955652 228.45535746766 -155.94478546269482 228.312754150092 -155.7308804863428 curveto
228.312754150092 -155.7308804863428 228.312754150092 -155.65957882437135 228.312754150092 -155.51697550680333 curveto
228.312754150092 -155.37437218286047 228.38405581206345 -155.26741969627815 228.52665912963147 -155.19611803749416 curveto
228.5979607916029 -155.19611803749416 228.6336116194012 -155.19611803749416 228.6336116194012 -155.19611803749416 curveto
228.77621494334406 -155.19611803749416 228.88316742992637 -155.2317688684799 228.9544690887104 -155.30307052726388 curveto
228.9544690887104 -155.37437218923532 228.9544690887104 -155.4100230170336 228.9544690887104 -155.4100230170336 curveto
228.9544690887104 -155.55262634097647 228.88316742673894 -155.6595788275588 228.74056410917092 -155.7308804863428 curveto
228.6692624471995 -155.7308804863428 228.6336116194012 -155.7308804863428 228.6336116194012 -155.7308804863428 curveto
228.70491328137263 -155.80218214831424 228.81186577114238 -155.83783297611254 228.9544690887104 -155.83783297611254 curveto
229.16837407462472 -155.83783297611254 229.34662821999103 -155.69522965216964 229.48923153755905 -155.4100230170336 curveto
229.56053319953048 -155.33872135506218 229.59618402732877 -155.26741969627815 229.59618402732877 -155.19611803749416 curveto
229.8100890132431 -154.2691964318654 229.91704149663798 -153.6987831775305 229.91704149663798 -153.48487820117845 curveto
229.91704149663798 -153.19967155329266 229.81008900368082 -153.05706824209952 229.59618402732877 -153.05706824209952 curveto
229.38227904141445 -153.05706824209952 229.1683740650624 -153.1996715660424 228.9544690887104 -153.48487820117845 curveto
228.9544690887104 -153.48487820117845 lineto
228.9544690887104 -153.48487820117845 228.9544690887104 -153.48487820117845 228.9544690887104 -153.48487820117845 curveto
228.88316742673894 -153.55617986314988 228.8118657679549 -153.66313235291963 228.74056410917092 -153.80573567048765 curveto
228.74056410917092 -153.80573567048765 228.74056410917092 -153.84138650147338 228.74056410917092 -153.91268816025737 curveto
228.6336116194012 -154.0196406500271 lineto
228.6336116194012 -154.0196406500271 228.6336116194012 -154.0196406500271 228.6336116194012 -154.0196406500271 curveto
228.56230995742976 -154.0196406500271 228.52665912963147 -154.0196406500271 228.52665912963147 -154.0196406500271 curveto
228.52665912963147 -153.87703732608423 228.5979607916029 -153.6987831775305 228.74056410917092 -153.48487820117845 curveto
228.95446909508524 -153.12836989132123 229.23967573340872 -152.9501157523298 229.59618402732877 -152.9501157523298 curveto
229.952692337186 -152.9501157523298 230.20224813814886 -153.1283699072584 230.34485145571688 -153.48487820117845 curveto
230.48745477965977 -153.19967155329266 230.66570892821352 -153.0214174111138 230.87961390456553 -152.9501157523298 curveto
230.950915566537 -152.9501157523298 231.02221722532101 -152.9501157523298 231.093518884105 -152.9501157523298 curveto
231.3787255319908 -152.9501157523298 231.55697967416967 -153.02141741430125 231.62828133295366 -153.16402073186927 curveto
231.6995829949251 -153.2353223938407 231.7352338227234 -153.30662405262473 231.7352338227234 -153.37792571140872 curveto
231.7352338227234 -153.59183069732305 231.62828132976622 -153.69878318071792 231.41437635341418 -153.69878318071792 curveto
231.41437635341418 -153.77008484268936 231.37872552242845 -153.80573567048765 231.30742386364446 -153.80573567048765 curveto
231.1648205397016 -153.80573567048765 231.093518884105 -153.7344340085162 231.093518884105 -153.59183069094817 curveto
231.093518884105 -153.59183069094817 231.093518884105 -153.55617985996244 231.093518884105 -153.48487820117845 curveto
231.093518884105 -153.34227487723558 231.16482054607644 -153.23532239065327 231.30742386364446 -153.16402073186927 curveto
231.30742386364446 -153.16402073186927 231.3430746946302 -153.16402073186927 231.41437635341418 -153.16402073186927 curveto
231.34307469144275 -153.0927190698978 231.23612220167303 -153.05706824209952 231.093518884105 -153.05706824209952 curveto
230.7370105742478 -153.05706824209952 230.52310560427063 -153.30662405899957 230.45180394548663 -153.80573567048765 curveto
230.38050228351517 -153.80573567048765 230.34485145571688 -153.84138650147338 230.34485145571688 -153.91268816025737 curveto
closepath
fill
newpath
0.0 0.0 0.0 setrgbcolor
0.0 0.0 0.0 setrgbcolor
0.0 0.0 0.0 setrgbcolor
0.0 0.0 0.0 setrgbcolor
0.0 0.0 0.0 setrgbcolor
0.0 0.0 0.0 setrgbcolor
0.0 0.0 0.0 setrgbcolor
0.0 0.0 0.0 setrgbcolor
1.0 setlinewidth
10.0 setmiterlimit
1 setlinejoin
1 setlinecap
[ ] 0 setdash
newpath
202.0617799316312 -47.049594195650556 moveto
200.56444507485497 -50.6859788478214 lineto
200.4218417509121 -50.97118549570717 200.27923843334406 -51.167265053378905 200.13663511577604 -51.27421754155492 curveto
199.99403179183318 -51.38117003451209 199.85142847426513 -51.43464627620952 199.70882515669712 -51.43464627620952 curveto
199.56622183275425 -51.43464627620952 199.42361851518623 -51.43464627620952 199.28101519761822 -51.43464627620952 curveto
199.17406270784846 -50.89988382736087 lineto
199.3879676937628 -50.971185489332306 199.5662218391291 -51.00683631713059 199.70882515669712 -51.00683631713059 curveto
199.78012681866858 -51.00683631713059 199.83360306195974 -51.00683631713059 199.86925389135172 -51.00683631713059 curveto
199.90490472233745 -51.00683631713059 199.94055555172946 -50.971185486144876 199.97620638112144 -50.89988382736087 curveto
200.01185721210717 -50.82858216538942 200.06533345699205 -50.75728050660541 200.13663511577604 -50.6859788478214 curveto
200.20793677774748 -50.54337552387852 200.2792384365315 -50.32947054433905 200.35054009531552 -50.04426390920302 curveto
199.06711021807874 -47.049594195650556 lineto
199.6018726669274 -47.049594195650556 lineto
199.9227301362366 -47.9052141138084 lineto
199.99403179820803 -47.976515775779845 200.06533345699205 -48.101293681042435 200.13663511577604 -48.27954782800246 curveto
200.20793677774748 -48.45780198293106 200.29706385202437 -48.68953237636967 200.40401634020037 -48.97473901150571 curveto
200.51096883315753 -49.25994565939148 200.56444507485497 -49.47385063255608 200.56444507485497 -49.6164539501241 curveto
200.56444507485497 -49.6164539501241 lineto
200.56444507485497 -49.331247302238324 200.88530255372646 -48.475627371330745 201.52701748278255 -47.049594195650556 curveto
202.0617799316312 -47.049594195650556 lineto
closepath
fill
newpath
1.0 setlinewidth
10.0 setmiterlimit
1 setlinejoin
1 setlinecap
[ ] 0 setdash
newpath
208.72375025142858 -47.79826162403867 moveto
204.6595556401788 -47.79826162403867 lineto
204.51695231623594 -47.79826162403867 204.44565066063936 -47.74478537756009 204.44565066063936 -47.63783288938407 curveto
204.44565066063936 -47.53088039642691 204.5169523226108 -47.47740415472948 204.6595556401788 -47.47740415472948 curveto
208.72375025142858 -47.47740415472948 lineto
208.86635357537148 -47.47740415472948 208.93765523096806 -47.53088040120806 208.93765523096806 -47.63783288938407 curveto
208.93765523096806 -47.74478538234124 208.8663535689966 -47.79826162403867 208.72375025142858 -47.79826162403867 curveto
closepath
208.72375025142858 -49.18864399104517 moveto
204.6595556401788 -49.18864399104517 lineto
204.51695231623594 -49.18864399104517 204.44565066063936 -49.13516774456659 204.44565066063936 -49.028215256390574 curveto
204.44565066063936 -48.92126276343341 204.5169523226108 -48.86778652173598 204.6595556401788 -48.86778652173598 curveto
208.72375025142858 -48.86778652173598 lineto
208.86635357537148 -48.86778652173598 208.93765523096806 -48.92126276821456 208.93765523096806 -49.028215256390574 curveto
208.93765523096806 -49.13516774934774 208.8663535689966 -49.18864399104517 208.72375025142858 -49.18864399104517 curveto
closepath
fill
newpath
1.0 setlinewidth
10.0 setmiterlimit
1 setlinejoin
1 setlinecap
[ ] 0 setdash
newpath
213.06129255290162 -48.43997656265706 moveto
214.34472243013838 -50.04426390920302 lineto
213.80995998128972 -50.04426390920302 lineto
212.84738757336214 -48.76083403196625 lineto
211.77786267566484 -50.04426390920302 lineto
211.24310022681618 -50.04426390920302 lineto
212.52653010405294 -48.43997656265706 lineto
211.24310022681618 -47.049594195650556 lineto
211.88481516543456 -47.049594195650556 lineto
212.84738757336214 -48.11911909334786 lineto
213.70300749152 -47.049594195650556 lineto
214.23776994036865 -47.049594195650556 lineto
213.06129255290162 -48.43997656265706 lineto
closepath
fill
newpath
0.0 0.0 0.0 setrgbcolor
0.0 0.0 0.0 setrgbcolor
grestore
grestore
showpage

%%EOF