%!PS-Adobe-3.0 EPSF-3.0
%%Creator: EpsGraphics 1.0.0 by Thomas Abeel, http://www.sourceforge.net/epsgraphics/
%%Title: GeoGebra, https://www.geogebra.org/
%%CreationDate: Thu Dec 10 09:24:58 CET 2015
%%BoundingBox: 0 0 301 222
%%DocumentData: Clean7Bit
%%LanguageLevel: 2
%%DocumentProcessColors: Black
%%ColorUsage: Color
%%Origin: 0 0
%%Pages: 1
%%Page: 1 1
%%EndComments

gsave
0.0 222.0 translate
0.0 0.0 0.0 setrgbcolor
0.0 0.0 0.0 setrgbcolor
gsave
newpath
0.0 -0.0 moveto
301.03937007874026 -0.0 lineto
301.03937007874026 -222.23622047244103 lineto
0.0 -222.23622047244103 lineto
0.0 -0.0 lineto
closepath
clip
newpath
1.0 1.0 1.0 setrgbcolor
newpath
0.0 -0.0 moveto
301.03937007874026 -0.0 lineto
301.03937007874026 -222.23622047244103 lineto
0.0 -222.23622047244103 lineto
0.0 -0.0 lineto
closepath
fill
newpath
0.0 0.0 0.0 setrgbcolor
1.0 setlinewidth
10.0 setmiterlimit
0 setlinejoin
0 setlinecap
[ ] 0 setdash
newpath
18.14173228346457 -1.1338582677165359 moveto
18.14173228346457 -222.23622047244103 lineto
stroke
newpath
1.0 setlinewidth
10.0 setmiterlimit
0 setlinejoin
0 setlinecap
[ ] 0 setdash
newpath
18.14173228346457 -0.5669291338582679 moveto
16.440944881889767 -2.2677165354330717 lineto
stroke
newpath
1.0 setlinewidth
10.0 setmiterlimit
0 setlinejoin
0 setlinecap
[ ] 0 setdash
newpath
18.14173228346457 -0.5669291338582679 moveto
19.842519685039374 -2.2677165354330717 lineto
stroke
newpath
1.0 setlinewidth
10.0 setmiterlimit
0 setlinejoin
0 setlinecap
[ ] 0 setdash
newpath
0.0 -211.46456692913384 moveto
299.90551181102376 -211.46456692913384 lineto
stroke
newpath
1.0 setlinewidth
10.0 setmiterlimit
0 setlinejoin
0 setlinecap
[ ] 0 setdash
newpath
300.472440944882 -211.46456692913384 moveto
298.7716535433072 -209.76377952755902 lineto
stroke
newpath
1.0 setlinewidth
10.0 setmiterlimit
0 setlinejoin
0 setlinecap
[ ] 0 setdash
newpath
300.472440944882 -211.46456692913384 moveto
298.7716535433072 -213.16535433070865 lineto
stroke
newpath
1.0 setlinewidth
10.0 setmiterlimit
0 setlinejoin
0 setlinecap
[ ] 0 setdash
newpath
46.488188976377955 -211.46456692913384 moveto
46.488188976377955 -213.16535433070865 lineto
stroke
newpath
1.0 setlinewidth
10.0 setmiterlimit
0 setlinejoin
0 setlinecap
[ ] 0 setdash
newpath
74.83464566929133 -211.46456692913384 moveto
74.83464566929133 -213.16535433070865 lineto
stroke
newpath
1.0 setlinewidth
10.0 setmiterlimit
0 setlinejoin
0 setlinecap
[ ] 0 setdash
newpath
103.18110236220471 -211.46456692913384 moveto
103.18110236220471 -213.16535433070865 lineto
stroke
newpath
1.0 setlinewidth
10.0 setmiterlimit
0 setlinejoin
0 setlinecap
[ ] 0 setdash
newpath
131.5275590551181 -211.46456692913384 moveto
131.5275590551181 -213.16535433070865 lineto
stroke
newpath
1.0 setlinewidth
10.0 setmiterlimit
0 setlinejoin
0 setlinecap
[ ] 0 setdash
newpath
159.8740157480315 -211.46456692913384 moveto
159.8740157480315 -213.16535433070865 lineto
stroke
newpath
1.0 setlinewidth
10.0 setmiterlimit
0 setlinejoin
0 setlinecap
[ ] 0 setdash
newpath
188.2204724409449 -211.46456692913384 moveto
188.2204724409449 -213.16535433070865 lineto
stroke
newpath
1.0 setlinewidth
10.0 setmiterlimit
0 setlinejoin
0 setlinecap
[ ] 0 setdash
newpath
216.56692913385828 -211.46456692913384 moveto
216.56692913385828 -213.16535433070865 lineto
stroke
newpath
1.0 setlinewidth
10.0 setmiterlimit
0 setlinejoin
0 setlinecap
[ ] 0 setdash
newpath
244.91338582677167 -211.46456692913384 moveto
244.91338582677167 -213.16535433070865 lineto
stroke
newpath
1.0 setlinewidth
10.0 setmiterlimit
0 setlinejoin
0 setlinecap
[ ] 0 setdash
newpath
273.2598425196851 -211.46456692913384 moveto
273.2598425196851 -213.16535433070865 lineto
stroke
newpath
1.0 setlinewidth
10.0 setmiterlimit
0 setlinejoin
0 setlinecap
[ ] 0 setdash
newpath
16.440944881889767 -183.11811023622047 moveto
18.14173228346457 -183.11811023622047 lineto
stroke
newpath
1.0 setlinewidth
10.0 setmiterlimit
0 setlinejoin
0 setlinecap
[ ] 0 setdash
newpath
16.440944881889767 -154.7716535433071 moveto
18.14173228346457 -154.7716535433071 lineto
stroke
newpath
1.0 setlinewidth
10.0 setmiterlimit
0 setlinejoin
0 setlinecap
[ ] 0 setdash
newpath
16.440944881889767 -126.42519685039375 moveto
18.14173228346457 -126.42519685039375 lineto
stroke
newpath
1.0 setlinewidth
10.0 setmiterlimit
0 setlinejoin
0 setlinecap
[ ] 0 setdash
newpath
16.440944881889767 -98.07874015748038 moveto
18.14173228346457 -98.07874015748038 lineto
stroke
newpath
1.0 setlinewidth
10.0 setmiterlimit
0 setlinejoin
0 setlinecap
[ ] 0 setdash
newpath
16.440944881889767 -69.73228346456702 moveto
18.14173228346457 -69.73228346456702 lineto
stroke
newpath
1.0 setlinewidth
10.0 setmiterlimit
0 setlinejoin
0 setlinecap
[ ] 0 setdash
newpath
16.440944881889767 -41.385826771653655 moveto
18.14173228346457 -41.385826771653655 lineto
stroke
newpath
1.0 setlinewidth
10.0 setmiterlimit
0 setlinejoin
0 setlinecap
[ ] 0 setdash
newpath
16.440944881889767 -13.039370078740287 moveto
18.14173228346457 -13.039370078740287 lineto
stroke
newpath
1.0 0.0 0.0 setrgbcolor
2.0 setlinewidth
10.0 setmiterlimit
1 setlinejoin
1 setlinecap
[ ] 0 setdash
newpath
-2.8346456692913398 -61.795275590551235 moveto
303.87401574803164 -61.795275590551235 lineto
stroke
newpath
1.0 0.0 0.0 setrgbcolor
2.0 setlinewidth
10.0 setmiterlimit
1 setlinejoin
1 setlinecap
[ ] 0 setdash
newpath
33.74003444881891 -68.41904527559058 moveto
32.90292814960631 -66.29970472440948 lineto
32.062500000000014 -68.41904527559058 lineto
closepath
34.47748523622049 -70.29921259842523 moveto
33.94266732283466 -68.9372539370079 lineto
31.859867125984263 -68.9372539370079 lineto
31.318405511811036 -70.29921259842523 lineto
30.67064468503938 -70.29921259842523 lineto
32.62057086614175 -65.38287401574806 lineto
33.31151574803151 -65.38287401574806 lineto
35.23154527559056 -70.29921259842523 lineto
closepath
fill
newpath
0.0 0.0 0.0 setrgbcolor
1.5 setlinewidth
10.0 setmiterlimit
0 setlinejoin
2 setlinecap
[ ] 0 setdash
newpath
44.78740157480315 -181.41732283464566 moveto
48.188976377952756 -184.8188976377953 lineto
stroke
newpath
1.5 setlinewidth
10.0 setmiterlimit
0 setlinejoin
2 setlinecap
[ ] 0 setdash
newpath
44.78740157480315 -184.8188976377953 moveto
48.188976377952756 -181.41732283464566 lineto
stroke
newpath
0.0 0.0 0.0 setrgbcolor
1.5 setlinewidth
10.0 setmiterlimit
0 setlinejoin
2 setlinecap
[ ] 0 setdash
newpath
16.440944881889767 -197.29133858267716 moveto
19.842519685039374 -200.69291338582676 lineto
stroke
newpath
1.5 setlinewidth
10.0 setmiterlimit
0 setlinejoin
2 setlinecap
[ ] 0 setdash
newpath
16.440944881889767 -200.69291338582676 moveto
19.842519685039374 -197.29133858267716 lineto
stroke
newpath
0.0 0.0 0.0 setrgbcolor
1.5 setlinewidth
10.0 setmiterlimit
0 setlinejoin
2 setlinecap
[ ] 0 setdash
newpath
72.56692913385827 -175.18110236220474 moveto
75.96850393700787 -178.58267716535434 lineto
stroke
newpath
1.5 setlinewidth
10.0 setmiterlimit
0 setlinejoin
2 setlinecap
[ ] 0 setdash
newpath
72.56692913385827 -178.58267716535434 moveto
75.96850393700787 -175.18110236220474 lineto
stroke
newpath
0.0 0.0 0.0 setrgbcolor
1.5 setlinewidth
10.0 setmiterlimit
0 setlinejoin
2 setlinecap
[ ] 0 setdash
newpath
100.91338582677166 -147.9685039370079 moveto
104.31496062992127 -151.3700787401575 lineto
stroke
newpath
1.5 setlinewidth
10.0 setmiterlimit
0 setlinejoin
2 setlinecap
[ ] 0 setdash
newpath
100.91338582677166 -151.3700787401575 moveto
104.31496062992127 -147.9685039370079 lineto
stroke
newpath
0.0 0.0 0.0 setrgbcolor
1.5 setlinewidth
10.0 setmiterlimit
0 setlinejoin
2 setlinecap
[ ] 0 setdash
newpath
129.82677165354332 -153.0708661417323 moveto
133.22834645669292 -156.47244094488192 lineto
stroke
newpath
1.5 setlinewidth
10.0 setmiterlimit
0 setlinejoin
2 setlinecap
[ ] 0 setdash
newpath
129.82677165354332 -156.47244094488192 moveto
133.22834645669292 -153.0708661417323 lineto
stroke
newpath
0.0 0.0 0.0 setrgbcolor
1.5 setlinewidth
10.0 setmiterlimit
0 setlinejoin
2 setlinecap
[ ] 0 setdash
newpath
158.17322834645668 -112.25196850393705 moveto
161.57480314960628 -115.65354330708666 lineto
stroke
newpath
1.5 setlinewidth
10.0 setmiterlimit
0 setlinejoin
2 setlinecap
[ ] 0 setdash
newpath
158.17322834645668 -115.65354330708666 moveto
161.57480314960628 -112.25196850393705 lineto
stroke
newpath
0.0 0.0 0.0 setrgbcolor
1.5 setlinewidth
10.0 setmiterlimit
0 setlinejoin
2 setlinecap
[ ] 0 setdash
newpath
187.08661417322833 -86.74015748031502 moveto
190.48818897637793 -90.14173228346463 lineto
stroke
newpath
1.5 setlinewidth
10.0 setmiterlimit
0 setlinejoin
2 setlinecap
[ ] 0 setdash
newpath
187.08661417322833 -90.14173228346463 moveto
190.48818897637793 -86.74015748031502 lineto
stroke
newpath
0.0 0.0 0.0 setrgbcolor
1.5 setlinewidth
10.0 setmiterlimit
0 setlinejoin
2 setlinecap
[ ] 0 setdash
newpath
215.99999999999997 -60.094488188976435 moveto
219.4015748031496 -63.49606299212604 lineto
stroke
newpath
1.5 setlinewidth
10.0 setmiterlimit
0 setlinejoin
2 setlinecap
[ ] 0 setdash
newpath
215.99999999999997 -63.49606299212604 moveto
219.4015748031496 -60.094488188976435 lineto
stroke
newpath
0.0 0.0 0.0 setrgbcolor
1.5 setlinewidth
10.0 setmiterlimit
0 setlinejoin
2 setlinecap
[ ] 0 setdash
newpath
243.21259842519686 -39.68503937007882 moveto
246.61417322834646 -43.086614173228426 lineto
stroke
newpath
1.5 setlinewidth
10.0 setmiterlimit
0 setlinejoin
2 setlinecap
[ ] 0 setdash
newpath
243.21259842519686 -43.086614173228426 moveto
246.61417322834646 -39.68503937007882 lineto
stroke
newpath
0.0 0.0 0.0 setrgbcolor
1.5 setlinewidth
10.0 setmiterlimit
0 setlinejoin
2 setlinecap
[ ] 0 setdash
newpath
271.5590551181102 -23.81102362204735 moveto
274.96062992125985 -27.21259842519696 lineto
stroke
newpath
1.5 setlinewidth
10.0 setmiterlimit
0 setlinejoin
2 setlinecap
[ ] 0 setdash
newpath
271.5590551181102 -27.21259842519696 moveto
274.96062992125985 -23.81102362204735 lineto
stroke
newpath
grestore
grestore
showpage

%%EOF