%!PS-Adobe-3.0 EPSF-3.0
%%Creator: EpsGraphics 1.0.0 by Thomas Abeel, http://www.sourceforge.net/epsgraphics/
%%Title: GeoGebra, http://www.geogebra.org/
%%CreationDate: Mon Aug 18 13:42:58 CEST 2014
%%BoundingBox: 0 0 373 305
%%DocumentData: Clean7Bit
%%LanguageLevel: 2
%%DocumentProcessColors: Black
%%ColorUsage: Color
%%Origin: 0 0
%%Pages: 1
%%Page: 1 1
%%EndComments

gsave
0.0 305.0 translate
0.0 0.0 0.0 setrgbcolor
0.0 0.0 0.0 setrgbcolor
gsave
newpath
0.0 -0.0 moveto
373.932598176869 -0.0 lineto
373.932598176869 -305.0502774600774 lineto
0.0 -305.0502774600774 lineto
0.0 -0.0 lineto
closepath
clip
newpath
1.0 1.0 1.0 setrgbcolor
newpath
0.0 -0.0 moveto
373.932598176869 -0.0 lineto
373.932598176869 -305.0502774600774 lineto
0.0 -305.0502774600774 lineto
0.0 -0.0 lineto
closepath
fill
newpath
0.0 0.0 0.0 setrgbcolor
1.0 setlinewidth
10.0 setmiterlimit
0 setlinejoin
0 setlinecap
[ ] 0 setdash
newpath
182.67589782080447 -1.7891511874491342 moveto
182.67589782080447 -305.0502774600774 lineto
stroke
newpath
1.0 setlinewidth
10.0 setmiterlimit
0 setlinejoin
0 setlinecap
[ ] 0 setdash
newpath
183.12318561766676 -0.8945755937245671 moveto
179.99217103963076 -3.5783023748982683 lineto
stroke
newpath
1.0 setlinewidth
10.0 setmiterlimit
0 setlinejoin
0 setlinecap
[ ] 0 setdash
newpath
182.2286100239422 -0.8945755937245671 moveto
185.35962460197817 -3.5783023748982683 lineto
stroke
newpath
1.0 setlinewidth
10.0 setmiterlimit
0 setlinejoin
0 setlinecap
[ ] 0 setdash
newpath
0.0 -239.33778765016686 moveto
372.1434469894199 -239.33778765016686 lineto
stroke
newpath
1.0 setlinewidth
10.0 setmiterlimit
0 setlinejoin
0 setlinecap
[ ] 0 setdash
newpath
373.0380225831445 -239.78507544702913 moveto
370.35429580197075 -236.65406086899316 lineto
stroke
newpath
1.0 setlinewidth
10.0 setmiterlimit
0 setlinejoin
0 setlinecap
[ ] 0 setdash
newpath
373.0380225831445 -238.89049985330456 moveto
370.35429580197075 -242.02151443134056 lineto
stroke
newpath
1.0 setlinewidth
10.0 setmiterlimit
0 setlinejoin
0 setlinecap
[ ] 0 setdash
newpath
40.943614356237546 -239.33778765016686 moveto
40.943614356237546 -242.91609002506513 lineto
stroke
newpath
1.0 setlinewidth
10.0 setmiterlimit
0 setlinejoin
0 setlinecap
[ ] 0 setdash
newpath
111.80975608852101 -239.33778765016686 moveto
111.80975608852101 -242.91609002506513 lineto
stroke
newpath
1.0 setlinewidth
10.0 setmiterlimit
0 setlinejoin
0 setlinecap
[ ] 0 setdash
newpath
182.67589782080447 -239.33778765016686 moveto
182.67589782080447 -242.91609002506513 lineto
stroke
newpath
1.0 setlinewidth
10.0 setmiterlimit
0 setlinejoin
0 setlinecap
[ ] 0 setdash
newpath
253.54203955308793 -239.33778765016686 moveto
253.54203955308793 -242.91609002506513 lineto
stroke
newpath
1.0 setlinewidth
10.0 setmiterlimit
0 setlinejoin
0 setlinecap
[ ] 0 setdash
newpath
324.40818128537137 -239.33778765016686 moveto
324.40818128537137 -242.91609002506513 lineto
stroke
newpath
1.0 setlinewidth
10.0 setmiterlimit
0 setlinejoin
0 setlinecap
[ ] 0 setdash
newpath
179.0975954459062 -239.33778765016686 moveto
182.67589782080447 -239.33778765016686 lineto
stroke
newpath
1.0 setlinewidth
10.0 setmiterlimit
0 setlinejoin
0 setlinecap
[ ] 0 setdash
newpath
179.0975954459062 -168.47164591788322 moveto
182.67589782080447 -168.47164591788322 lineto
stroke
newpath
1.0 setlinewidth
10.0 setmiterlimit
0 setlinejoin
0 setlinecap
[ ] 0 setdash
newpath
179.0975954459062 -97.6055041855996 moveto
182.67589782080447 -97.6055041855996 lineto
stroke
newpath
1.0 setlinewidth
10.0 setmiterlimit
0 setlinejoin
0 setlinecap
[ ] 0 setdash
newpath
179.0975954459062 -26.739362453315973 moveto
182.67589782080447 -26.739362453315973 lineto
stroke
newpath
0.0 0.0 0.0 setrgbcolor
1.0 setlinewidth
10.0 setmiterlimit
1 setlinejoin
1 setlinecap
[ ] 0 setdash
newpath
0.0 -56.66188930007943 moveto
2.9213484232567892 -59.583237723336225 lineto
5.8426968465135785 -62.50458614659301 lineto
8.764045269770367 -65.4259345698498 lineto
11.685393693027157 -68.34728299310659 lineto
14.606742116283947 -71.26863141636338 lineto
17.528090539540734 -74.18997983962016 lineto
20.449438962797526 -77.11132826287695 lineto
23.370787386054314 -80.03267668613375 lineto
26.292135809311105 -82.95402510939054 lineto
29.213484232567893 -85.87537353264733 lineto
32.13483265582468 -88.79672195590412 lineto
35.05618107908147 -91.7180703791609 lineto
37.977529502338264 -94.6394188024177 lineto
40.89887792559505 -97.56076722567448 lineto
43.82022634885184 -100.48211564893127 lineto
46.74157477210863 -103.40346407218806 lineto
49.662923195365416 -106.32481249544485 lineto
52.58427161862221 -109.24616091870165 lineto
55.505620041879 -112.16750934195844 lineto
58.426968465135786 -115.08886459028537 lineto
61.348316888392574 -118.01021301354216 lineto
64.26966531164936 -120.93156143679894 lineto
67.19101373490615 -123.85290986005573 lineto
70.11236215816294 -126.77425828331252 lineto
73.03371058141974 -129.69560670656932 lineto
75.95505900467653 -132.6169551298261 lineto
78.87640742793332 -135.5383035530829 lineto
81.7977558511901 -138.45965197633967 lineto
84.71910427444689 -141.38100039959647 lineto
87.64045269770368 -144.30234882285325 lineto
90.56180112096047 -147.22369724611005 lineto
93.48314954421726 -150.14504566936682 lineto
96.40449796747404 -153.06639409262363 lineto
99.32584639073083 -155.98774251588043 lineto
102.24719481398763 -158.9090909391372 lineto
105.16854323724442 -161.830439362394 lineto
108.08989166050121 -164.75178778565078 lineto
111.011240083758 -167.67313620890758 lineto
113.93258850701478 -170.59448463216435 lineto
116.85393693027157 -173.51583305542115 lineto
119.77528535352836 -176.43718147867793 lineto
122.69663377678515 -179.35852990193473 lineto
125.61798220004194 -182.27987832519153 lineto
128.53933062329872 -185.2012267484483 lineto
131.46067904655553 -188.1225751717051 lineto
134.3820274698123 -191.04392359496188 lineto
137.3033758930691 -193.96527201821868 lineto
140.22472431632588 -196.88662044147546 lineto
143.14607273958268 -199.80796886473226 lineto
146.06742116283948 -202.72931728798903 lineto
148.98876958609625 -205.65066571124584 lineto
151.91011800935306 -208.5720141345026 lineto
154.83146643260983 -211.4933625577594 lineto
157.75281485586663 -214.4147109810162 lineto
160.6741632791234 -217.336059404273 lineto
163.5955117023802 -220.2574078275298 lineto
166.51686012563698 -223.17875625078656 lineto
169.43820854889378 -226.10010467404337 lineto
172.35955697215059 -229.02145309730014 lineto
175.28090539540736 -231.94280152055694 lineto
178.20225381866416 -234.86414994381371 lineto
181.12360224192093 -237.78549836707052 lineto
182.58427645354934 -239.24617257869892 lineto
183.31461355936352 -238.69907495607194 lineto
184.04495066517774 -237.96873785025775 lineto
186.9662990884345 -235.04738942700095 lineto
189.8876475116913 -232.12604100374418 lineto
192.8089959349481 -229.20469258048738 lineto
195.7303443582049 -226.2833441572306 lineto
198.65169278146166 -223.3619957339738 lineto
201.57304120471846 -220.44064731071703 lineto
204.49438962797527 -217.51929888746022 lineto
207.41573805123204 -214.59795046420342 lineto
210.33708647448884 -211.67660204094665 lineto
213.25843489774562 -208.75525361768985 lineto
216.17978332100242 -205.83390519443307 lineto
219.1011317442592 -202.91255677117627 lineto
222.022480167516 -199.9912083479195 lineto
224.94382859077277 -197.0698599246627 lineto
227.86517701402957 -194.14851150140592 lineto
230.78652543728637 -191.22716307814912 lineto
233.70787386054315 -188.30581465489234 lineto
236.62922228379995 -185.38446623163554 lineto
239.55057070705672 -182.46311780837874 lineto
242.47191913031352 -179.54176938512197 lineto
245.3932675535703 -176.62042096186516 lineto
248.3146159768271 -173.6990725386084 lineto
251.23596440008387 -170.7777241153516 lineto
254.15731282334067 -167.85637569209482 lineto
257.07866124659745 -164.935027268838 lineto
260.00000966985425 -162.01367884558124 lineto
262.92135809311105 -159.09233042232444 lineto
265.84270651636785 -156.17098199906764 lineto
268.7640549396246 -153.24963357581086 lineto
271.6854033628814 -150.32828515255406 lineto
274.6067517861382 -147.40693672929729 lineto
277.528100209395 -144.48558830604048 lineto
280.44944863265175 -141.5642398827837 lineto
283.37079705590855 -138.6428914595269 lineto
286.29214547916536 -135.72154303627013 lineto
289.21349390242216 -132.80019461301333 lineto
292.13484232567896 -129.87884618975656 lineto
295.0561907489357 -126.95749776649976 lineto
297.9775391721925 -124.03614934324297 lineto
300.8988875954493 -121.11480091998618 lineto
303.8202360187061 -118.19345249672939 lineto
306.74158444196286 -115.2721040734726 lineto
309.66293286521966 -112.3507556502158 lineto
312.58428128847646 -109.42940722695901 lineto
315.50562971173326 -106.50805880370223 lineto
318.42697813499007 -103.58671038044544 lineto
321.3483265582468 -100.66536195718865 lineto
324.2696749815036 -97.74401353393186 lineto
327.1910234047604 -94.82266511067508 lineto
330.1123718280172 -91.90131668741829 lineto
333.03372025127396 -88.9799682641615 lineto
335.95506867453076 -86.0586198409047 lineto
338.87641709778757 -83.13727141764791 lineto
341.79776552104437 -80.21592299439112 lineto
344.71911394430117 -77.29457457113433 lineto
347.6404623675579 -74.37322614787755 lineto
350.5618107908147 -71.45187772462076 lineto
353.4831592140715 -68.53052930136397 lineto
356.4045076373283 -65.60918087810718 lineto
359.32585606058507 -62.68783245485039 lineto
362.24720448384187 -59.7664840315936 lineto
365.1685529070987 -56.84513219580174 lineto
368.0899013303555 -53.92378377254495 lineto
371.0112497536123 -51.00243534928816 lineto
373.932598176869 -48.08108692603137 lineto
stroke
newpath
1.0 0.0 0.0 setrgbcolor
1.0 setlinewidth
10.0 setmiterlimit
1 setlinejoin
1 setlinecap
[ ] 0 setdash
newpath
182.67589782080447 -239.33778765016686 moveto
111.80975608852101 -168.47164591788322 lineto
stroke
newpath
1.0 0.0 0.0 setrgbcolor
1.0 setlinewidth
10.0 setmiterlimit
1 setlinejoin
1 setlinecap
[ ] 0 setdash
newpath
89.03822706289832 -202.62486641452742 moveto
89.03822706289832 -207.54153774409957 lineto
88.0003795967413 -207.54153774409957 lineto
88.0003795967413 -202.62486641452742 lineto
87.1931649008414 -202.62486641452742 lineto
87.1931649008414 -201.8491016418444 lineto
88.0003795967413 -201.8491016418444 lineto
88.0003795967413 -201.16768663881203 lineto
88.0003795967413 -199.81184546416603 88.61889477177311 -199.13392493745383 89.85592506653718 -199.13392493745383 curveto
90.20187423223294 -199.13392493745383 90.59499826869481 -199.19158313173645 91.03529718717016 -199.30689951514665 curveto
91.03529718717016 -200.12459751878552 lineto
90.57053719689202 -199.98132564208325 90.19837978184417 -199.90968971013686 89.91882491297093 -199.90968971013686 curveto
89.57986461930943 -199.90968971013686 89.34835824832736 -199.9909353475351 89.22430577526485 -200.15342661506767 curveto
89.10025329665677 -200.31591788986415 89.03822706289832 -200.6173129890776 89.03822706289832 -201.05761190755294 curveto
89.03822706289832 -201.8491016418444 lineto
90.45871526152736 -201.8491016418444 lineto
90.45871526152736 -202.62486641452742 lineto
closepath
91.55946257411814 -202.1111843353184 moveto
91.30262153451363 -199.26496628419082 lineto
92.59731004027516 -199.26496628419082 lineto
92.33522734680116 -202.1111843353184 lineto
closepath
fill
newpath
1.0 setlinewidth
10.0 setmiterlimit
1 setlinejoin
1 setlinecap
[ ] 0 setdash
newpath
94.05711064292531 -213.5912799184576 moveto
94.15757567542367 -212.8443442420567 lineto
94.65553280786453 -213.08021867321293 95.1462098430093 -213.1981558782466 95.62960680376928 -213.1981558782466 curveto
96.59931279852253 -213.1981558782466 97.08416575254994 -212.68418258072722 97.08416575254994 -211.65623603164127 curveto
97.08416575254994 -210.9093003552404 lineto
96.76675448099407 -211.57324319849488 96.2455011226284 -211.90521459044157 95.52040568148844 -211.90521459044157 curveto
94.95255982870499 -211.90521459044157 94.5011952018772 -211.6984604594281 94.16631176520613 -211.28495221588645 curveto
93.83142831356461 -210.87144395385954 93.66398660271432 -210.3137902246113 93.66398660271432 -209.61199102254412 curveto
93.66398660271432 -208.88980757900416 93.85472456864926 -208.3015775484049 94.23620048346586 -207.8473008864859 curveto
94.61767641533578 -207.39302420425915 95.11126548570194 -207.1658858834535 95.71696770159394 -207.1658858834535 curveto
96.24695716419183 -207.1658858834535 96.70268983773333 -207.3813761045098 97.08416575254994 -207.81235652735603 curveto
97.08416575254994 -207.2707189608431 lineto
97.94903864101413 -207.2707189608431 lineto
97.94903864101413 -210.72147442491735 lineto
97.94903864101413 -211.46404207855724 97.91045424332499 -212.01368771055613 97.83328545139643 -212.3704113713579 curveto
97.75611665601818 -212.72713504810648 97.61124316625775 -213.01906604109067 97.39866498471874 -213.24620437205016 curveto
97.02301311287738 -213.6451524840057 96.43915111180837 -213.84462652214913 95.64707898333421 -213.84462652214913 curveto
95.09379328062212 -213.84462652214913 94.56380384275805 -213.76017765173518 94.05711064292531 -213.5912799184576 curveto
closepath
97.08416575254994 -210.3720308336187 moveto
97.08416575254994 -208.4020425876725 lineto
96.70560185069431 -208.00891853574552 96.29354962059766 -207.81235652735603 95.84800904833094 -207.81235652735603 curveto
95.45197296638966 -207.81235652735603 95.14184178757367 -207.97106216313398 94.91761548649825 -208.28847342050045 curveto
94.69338917539915 -208.60588469205632 94.5812760298733 -209.0412331650009 94.5812760298733 -209.59451884297917 curveto
94.5812760298733 -210.63411355807503 94.9467357966647 -211.15391086914946 95.67765529757284 -211.15391086914946 curveto
96.1756124300137 -211.15391086914946 96.64444924005142 -210.89328418287192 97.08416575254994 -210.3720308336187 curveto
closepath
fill
newpath
1.0 setlinewidth
10.0 setmiterlimit
1 setlinejoin
1 setlinecap
[ ] 0 setdash
newpath
101.86018603662436 -208.38020236321634 moveto
101.86018603662436 -209.0930672894656 lineto
101.10538785692452 -208.57938519494766 100.5069657227333 -207.88137162348954 100.0649195863275 -206.9990265686084 curveto
99.6228734301607 -206.11668147428335 99.4018503718383 -205.1758046161153 99.4018503718383 -204.17639595989348 curveto
99.4018503718383 -203.18048169501176 99.6228734499217 -202.2413520599292 100.0649195863275 -201.35900700504803 curveto
100.5069657424943 -200.47666191072298 101.10538789066662 -199.7786483557454 101.86018603662436 -199.26496628419082 curveto
101.86018603662436 -199.9778312104401 lineto
101.34650394210641 -200.5369409731807 100.98046179227553 -201.13798394313272 100.76205955096833 -201.78096014154116 curveto
100.54365729989777 -202.42393636869286 100.43445618412584 -203.22241496986356 100.43445618412584 -204.17639595989348 curveto
100.43445618412584 -205.1338714285868 100.54365730966111 -205.93409723370684 100.76205955096833 -206.57707343211527 curveto
100.98046180203887 -207.22004965926698 101.34650396506979 -207.82109262546987 101.86018603662436 -208.38020236321634 curveto
closepath
106.10068401703359 -207.73547893727033 moveto
105.30045816911107 -207.73547893727033 104.65311393271082 -207.35895345642467 104.15865125839129 -206.6059025283974 curveto
103.66418856196755 -205.85285156670614 103.41695723585988 -204.87004147055262 103.41695723585988 -203.65747222681497 curveto
103.41695723585988 -202.43441962081985 103.66593580208033 -201.4507359366728 104.16389291226078 -200.7064210982978 curveto
104.66185004470164 -199.96210622664933 105.31793038465717 -199.58994882409857 106.13213394025047 -199.58994882409857 curveto
106.9463375322415 -199.58994882409857 107.60241785805971 -199.9621062599228 108.10037496824016 -200.7064210982978 curveto
108.59833210068103 -201.45073596994627 108.84731064464106 -202.42917802146889 108.84731064464106 -203.64174726520653 curveto
108.84731064464106 -204.8857664873044 108.59833207842061 -205.8790598695613 108.10037496824016 -206.62162749000584 curveto
107.6024178357993 -207.36419514364573 106.93585418779237 -207.73547893727033 106.10068401703359 -207.73547893727033 curveto
closepath
106.11116732477255 -206.9597141645873 moveto
107.20492579813389 -206.9597141645873 107.75180498591975 -205.8484835111403 107.75180498591975 -203.6260223035981 curveto
107.75180498591975 -201.4524831009439 107.21191462127334 -200.3657135967816 106.13213394025047 -200.3657135967816 curveto
105.05584764697477 -200.3657135967816 104.51770454845067 -201.4629665061601 104.51770454845067 -203.65747222681497 curveto
104.51770454845067 -205.85896691760618 105.04885882305426 -206.9597141645873 106.11116732477255 -206.9597141645873 curveto
closepath
110.20489899683633 -208.38020236321634 moveto
110.20489899683633 -209.0930672894656 lineto
110.95969717653618 -208.57938519494766 111.5581193107274 -207.88137162348954 112.0001654471332 -206.9990265686084 curveto
112.44221160330001 -206.11668147428335 112.66323466162241 -205.1758046161153 112.66323466162241 -204.17639595989348 curveto
112.66323466162241 -203.18048169501176 112.442211583539 -202.2413520599292 112.0001654471332 -201.35900700504803 curveto
111.5581192909664 -200.47666191072298 110.95969714279407 -199.7786483557454 110.20489899683633 -199.26496628419082 curveto
110.20489899683633 -199.9778312104401 lineto
110.71858109135428 -200.5369409731807 111.08462324118516 -201.13798394313272 111.30302548249237 -201.78096014154116 curveto
111.52142773356293 -202.42393636869286 111.63062884933487 -203.22241496986356 111.63062884933487 -204.17639595989348 curveto
111.63062884933487 -205.1338714285868 111.52142772379959 -205.93409723370684 111.30302548249237 -206.57707343211527 curveto
111.08462323142182 -207.22004965926698 110.7185810683909 -207.82109262546987 110.20489899683633 -208.38020236321634 curveto
closepath
114.9590790564546 -205.79606700556275 moveto
114.9590790564546 -205.02030223287974 lineto
121.16519723791878 -205.02030223287974 lineto
121.16519723791878 -205.79606700556275 lineto
closepath
114.9590790564546 -203.8566550738552 moveto
114.9590790564546 -203.0808903011722 lineto
121.16519723791878 -203.0808903011722 lineto
121.16519723791878 -203.8566550738552 lineto
closepath
123.10985082349582 -204.82636103970898 moveto
123.10985082349582 -204.05059626702595 lineto
127.76443945959396 -204.05059626702595 lineto
127.76443945959396 -204.82636103970898 lineto
closepath
130.80459870389228 -207.54153774409957 moveto
130.80459870389228 -206.76577297141654 lineto
132.35612824925835 -206.76577297141654 lineto
132.35612824925835 -200.64352125186403 lineto
130.80459870389228 -201.03140363820555 lineto
130.80459870389228 -200.2346722500446 lineto
133.39397571541537 -199.58994882409857 lineto
133.39397571541537 -206.76577297141654 lineto
134.9455052607814 -206.76577297141654 lineto
134.9455052607814 -207.54153774409957 lineto
closepath
fill
newpath
1.0 0.0 0.0 setrgbcolor
1.0 setlinewidth
10.0 setmiterlimit
1 setlinejoin
1 setlinecap
[ ] 0 setdash
newpath
182.67589782080447 -239.33778765016686 moveto
253.54203955308793 -168.47164591788322 lineto
stroke
newpath
1.0 0.0 0.0 setrgbcolor
1.0 setlinewidth
10.0 setmiterlimit
1 setlinejoin
1 setlinecap
[ ] 0 setdash
newpath
230.3811708713799 -203.51944200825199 moveto
230.3811708713799 -208.43611333782414 lineto
229.3433234052229 -208.43611333782414 lineto
229.3433234052229 -203.51944200825199 lineto
228.536108709323 -203.51944200825199 lineto
228.536108709323 -202.74367723556898 lineto
229.3433234052229 -202.74367723556898 lineto
229.3433234052229 -202.0622622325366 lineto
229.3433234052229 -200.7064210578906 229.9618385802547 -200.0285005311784 231.19886887501877 -200.0285005311784 curveto
231.54481804071455 -200.0285005311784 231.9379420771764 -200.08615872546102 232.37824099565174 -200.20147510887122 curveto
232.37824099565174 -201.0191731125101 lineto
231.91348100537363 -200.87590123580782 231.5413235903258 -200.80426530386143 231.26176872145254 -200.80426530386143 curveto
230.92280842779104 -200.80426530386143 230.69130205680895 -200.88551094125967 230.56724958374645 -201.04800220879224 curveto
230.44319710513838 -201.21049348358872 230.3811708713799 -201.51188858280216 230.3811708713799 -201.9521875012775 curveto
230.3811708713799 -202.74367723556898 lineto
231.80165907000895 -202.74367723556898 lineto
231.80165907000895 -203.51944200825199 lineto
closepath
232.90240638259974 -203.00575992904297 moveto
232.6455653429952 -200.1595418779154 lineto
233.94025384875675 -200.1595418779154 lineto
233.67817115528277 -203.00575992904297 lineto
closepath
fill
newpath
1.0 setlinewidth
10.0 setmiterlimit
1 setlinejoin
1 setlinecap
[ ] 0 setdash
newpath
238.42710956103153 -212.90899130644695 moveto
238.42710956103153 -212.0179101486354 lineto
238.07766595931867 -212.68476502190416 237.5505885423564 -213.0181924287278 236.84587731040511 -213.0181924287278 curveto
236.2751194276074 -213.0181924287278 235.82593882342047 -212.8099822827072 235.49833546145965 -212.39356200928145 curveto
235.17073208485382 -211.97714171724024 235.00693041119592 -211.4078398680651 235.00693041119592 -210.68565645680926 curveto
235.00693041119592 -209.89649632294098 235.1925723246059 -209.26167381510743 235.56385613482814 -208.78118888423157 curveto
235.9351399616481 -208.30070393187634 236.4236329799449 -208.06046147717808 237.0293351958369 -208.06046147717808 curveto
237.5913569885918 -208.06046147717808 238.05728176575133 -208.27595169823437 238.42710956103153 -208.7069321210806 curveto
238.42710956103153 -206.0118484231897 lineto
239.29198244949572 -206.0118484231897 lineto
239.29198244949572 -212.90899130644695 lineto
closepath
238.42710956103153 -209.29661818139706 moveto
237.9815689688476 -208.9034941294701 237.55932463669507 -208.7069321210806 237.16037654257389 -208.7069321210806 curveto
236.33627204853434 -208.7069321210806 235.9242198383549 -209.33738661917093 235.9242198383549 -210.59829555898457 curveto
235.9242198383549 -211.707778994423 236.29113562015343 -212.26252066254443 237.02496715094566 -212.26252066254443 curveto
237.5025400732866 -212.26252066254443 237.96992086922842 -212.0018939762669 238.42710956103153 -211.48064062701368 curveto
closepath
fill
newpath
1.0 setlinewidth
10.0 setmiterlimit
1 setlinejoin
1 setlinecap
[ ] 0 setdash
newpath
243.25554638380075 -209.2747779569409 moveto
243.25554638380075 -209.98764288319018 lineto
242.50074820410092 -209.47396078867223 241.90232606990972 -208.7759472172141 241.4602799335039 -207.89360216233297 curveto
241.0182337773371 -207.01125706800792 240.79721071901469 -206.07038020983987 240.79721071901469 -205.07097155361805 curveto
240.79721071901469 -204.0750572887363 241.01823379709808 -203.13592765365374 241.4602799335039 -202.2535825987726 curveto
241.9023260896707 -201.37123750444755 242.50074823784303 -200.67322394946996 243.25554638380075 -200.1595418779154 curveto
243.25554638380075 -200.87240680416465 lineto
242.7418642892828 -201.43151656690526 242.37582213945194 -202.0325595368573 242.15741989814472 -202.67553573526573 curveto
241.93901764707417 -203.31851196241743 241.82981653130224 -204.11699056358813 241.82981653130224 -205.07097155361805 curveto
241.82981653130224 -206.02844702231135 241.9390176568375 -206.8286728274314 242.15741989814472 -207.47164902583984 curveto
242.37582214921528 -208.11462525299154 242.74186431224618 -208.71566821919444 243.25554638380075 -209.2747779569409 curveto
closepath
247.49604436420998 -208.6300545309949 moveto
246.69581851628746 -208.6300545309949 246.04847427988722 -208.25352905014924 245.5540116055677 -207.50047812212196 curveto
245.05954890914396 -206.7474271604307 244.81231758303628 -205.7646170642772 244.81231758303628 -204.55204782053954 curveto
244.81231758303628 -203.32899521454442 245.06129614925672 -202.34531153039734 245.55925325943716 -201.60099669202236 curveto
246.05721039187804 -200.8566818203739 246.71329073183358 -200.48452441782314 247.52749428742686 -200.48452441782314 curveto
248.3416978794179 -200.48452441782314 248.99777820523613 -200.85668185364736 249.49573531541657 -201.60099669202236 curveto
249.99369244785743 -202.3453115636708 250.24267099181745 -203.32375361519343 250.24267099181745 -204.5363228589311 curveto
250.24267099181745 -205.78034208102898 249.993692425597 -206.77363546328587 249.49573531541657 -207.5162030837304 curveto
248.9977781829757 -208.2587707373703 248.33121453496878 -208.6300545309949 247.49604436420998 -208.6300545309949 curveto
closepath
247.50652767194896 -207.85428975831186 moveto
248.6002861453103 -207.85428975831186 249.14716533309615 -206.74305910486487 249.14716533309615 -204.52059789732266 curveto
249.14716533309615 -202.34705869466848 248.60727496844973 -201.26028919050617 247.52749428742686 -201.26028919050617 curveto
246.45120799415116 -201.26028919050617 245.91306489562706 -202.35754209988465 245.91306489562706 -204.55204782053954 curveto
245.91306489562706 -206.75354251133075 246.44421917023067 -207.85428975831186 247.50652767194896 -207.85428975831186 curveto
closepath
251.60025934401273 -209.2747779569409 moveto
251.60025934401273 -209.98764288319018 lineto
252.3550575237126 -209.47396078867223 252.95347965790378 -208.7759472172141 253.3955257943096 -207.89360216233297 curveto
253.8375719504764 -207.01125706800792 254.0585950087988 -206.07038020983987 254.0585950087988 -205.07097155361805 curveto
254.0585950087988 -204.0750572887363 253.8375719307154 -203.13592765365374 253.3955257943096 -202.2535825987726 curveto
252.9534796381428 -201.37123750444755 252.35505748997048 -200.67322394946996 251.60025934401273 -200.1595418779154 curveto
251.60025934401273 -200.87240680416465 lineto
252.11394143853067 -201.43151656690526 252.47998358836156 -202.0325595368573 252.69838582966878 -202.67553573526573 curveto
252.91678808073934 -203.31851196241743 253.02598919651126 -204.11699056358813 253.02598919651126 -205.07097155361805 curveto
253.02598919651126 -206.02844702231135 252.916788070976 -206.8286728274314 252.69838582966878 -207.47164902583984 curveto
252.47998357859822 -208.11462525299154 252.1139414155673 -208.71566821919444 251.60025934401273 -209.2747779569409 curveto
closepath
256.354439403631 -206.69064259928732 moveto
256.354439403631 -205.9148778266043 lineto
262.5605575850952 -205.9148778266043 lineto
262.5605575850952 -206.69064259928732 lineto
closepath
256.354439403631 -204.75123066757976 moveto
256.354439403631 -203.97546589489676 lineto
262.5605575850952 -203.97546589489676 lineto
262.5605575850952 -204.75123066757976 lineto
closepath
265.34387578978897 -208.43611333782414 moveto
265.34387578978897 -207.6603485651411 lineto
266.89540533515503 -207.6603485651411 lineto
266.89540533515503 -201.5380968455886 lineto
265.34387578978897 -201.9259792319301 lineto
265.34387578978897 -201.12924784376918 lineto
267.93325280131205 -200.48452441782314 lineto
267.93325280131205 -207.6603485651411 lineto
269.4847823466781 -207.6603485651411 lineto
269.4847823466781 -208.43611333782414 lineto
closepath
fill
newpath
grestore
grestore
showpage

%%EOF